  0.00000000   -1.00000000
  0.00005000   -0.99998300
  0.00010000   -0.99993080
  0.00015000   -0.99984420
  0.00020000   -0.99970891
  0.00025000   -0.99954881
  0.00030000   -0.99935321
  0.00035000   -0.99912202
  0.00040000   -0.99884743
  0.00045000   -0.99854453
  0.00050000   -0.99820464
  0.00055000   -0.99782785
  0.00060000   -0.99740796
  0.00065000   -0.99695717
  0.00070000   -0.99646798
  0.00075000   -0.99594039
  0.00080000   -0.99536581
  0.00085000   -0.99476122
  0.00090000   -0.99411624
  0.00095000   -0.99343105
  0.00100000   -0.99269457
  0.00105000   -0.99192809
  0.00110000   -0.99111890
  0.00115000   -0.99026692
  0.00120000   -0.98935874
  0.00125000   -0.98842047
  0.00130000   -0.98743629
  0.00135000   -0.98640631
  0.00140000   -0.98531434
  0.00145000   -0.98419156
  0.00150000   -0.98301929
  0.00155000   -0.98179762
  0.00160000   -0.98050715
  0.00165000   -0.97918488
  0.00170000   -0.97780881
  0.00175000   -0.97637884
  0.00180000   -0.97487268
  0.00185000   -0.97333301
  0.00190000   -0.97173445
  0.00195000   -0.97007699
  0.00200000   -0.96833463
  0.00205000   -0.96655687
  0.00210000   -0.96471431
  0.00215000   -0.96280676
  0.00220000   -0.96080480
  0.00225000   -0.95876475
  0.00230000   -0.95665310
  0.00235000   -0.95446975
  0.00240000   -0.95218110
  0.00245000   -0.94985125
  0.00250000   -0.94744201
  0.00255000   -0.94495337
  0.00260000   -0.94234763
  0.00265000   -0.93969659
  0.00270000   -0.93695745
  0.00275000   -0.93413042
  0.00280000   -0.93117308
  0.00285000   -0.92816565
  0.00290000   -0.92506052
  0.00295000   -0.92185780
  0.00300000   -0.91851087
  0.00305000   -0.91510795
  0.00310000   -0.91159673
  0.00315000   -0.90797722
  0.00320000   -0.90419880
  0.00325000   -0.90035739
  0.00330000   -0.89639628
  0.00335000   -0.89231528
  0.00340000   -0.88805997
  0.00345000   -0.88373357
  0.00350000   -0.87927508
  0.00355000   -0.87468448
  0.00360000   -0.86990419
  0.00365000   -0.86504310
  0.00370000   -0.86003722
  0.00375000   -0.85488634
  0.00380000   -0.84953076
  0.00385000   -0.84408339
  0.00390000   -0.83847812
  0.00395000   -0.83271475
  0.00400000   -0.82673289
  0.00405000   -0.82064683
  0.00410000   -0.81438987
  0.00415000   -0.80796202
  0.00420000   -0.80130357
  0.00425000   -0.79452743
  0.00430000   -0.78756809
  0.00435000   -0.78042575
  0.00440000   -0.77304362
  0.00445000   -0.76552899
  0.00450000   -0.75782057
  0.00455000   -0.74991835
  0.00460000   -0.74177074
  0.00465000   -0.73347563
  0.00470000   -0.72497803
  0.00475000   -0.71627813
  0.00480000   -0.70733173
  0.00485000   -0.69822294
  0.00490000   -0.68890606
  0.00495000   -0.67938117
  0.00500000   -0.66961380
  0.00505000   -0.65967043
  0.00510000   -0.64951716
  0.00515000   -0.63915390
  0.00520000   -0.62855714
  0.00525000   -0.61777359
  0.00530000   -0.60678244
  0.00535000   -0.59558360
  0.00540000   -0.58416556
  0.00545000   -0.57255353
  0.00550000   -0.56074090
  0.00555000   -0.54872778
  0.00560000   -0.53651396
  0.00565000   -0.52410415
  0.00570000   -0.51150544
  0.00575000   -0.49871783
  0.00580000   -0.48575163
  0.00585000   -0.47259333
  0.00590000   -0.45926214
  0.00595000   -0.44575825
  0.00600000   -0.43209946
  0.00605000   -0.41825898
  0.00610000   -0.40426530
  0.00615000   -0.39011843
  0.00620000   -0.37584136
  0.00625000   -0.36139879
  0.00630000   -0.34682522
  0.00635000   -0.33212056
  0.00640000   -0.31730950
  0.00645000   -0.30235455
  0.00650000   -0.28729189
  0.00655000   -0.27212154
  0.00660000   -0.25686739
  0.00665000   -0.24149415
  0.00670000   -0.22603680
  0.00675000   -0.21049556
  0.00680000   -0.19489122
  0.00685000   -0.17919418
  0.00690000   -0.16343614
  0.00695000   -0.14761720
  0.00700000   -0.13175497
  0.00705000   -0.11582604
  0.00710000   -0.09985832
  0.00715000   -0.08385184
  0.00720000   -0.06782126
  0.00725000   -0.05174871
  0.00730000   -0.03565875
  0.00735000   -0.01955139
  0.00740000   -0.00343984
  0.00745000    0.01269102
  0.00750000    0.02881814
  0.00755000    0.04494150
  0.00760000    0.06104762
  0.00765000    0.07715199
  0.00770000    0.09323101
  0.00775000    0.10928469
  0.00780000    0.12529782
  0.00785000    0.14128865
  0.00790000    0.15723148
  0.00795000    0.17312642
  0.00800000    0.18895585
  0.00805000    0.20474169
  0.00810000    0.22045583
  0.00815000    0.23609797
  0.00820000    0.25164901
  0.00825000    0.26713356
  0.00830000    0.28252130
  0.00835000    0.29781225
  0.00840000    0.31298740
  0.00845000    0.32807045
  0.00850000    0.34303151
  0.00855000    0.35787067
  0.00860000    0.37257193
  0.00865000    0.38715290
  0.00870000    0.40158776
  0.00875000    0.41587653
  0.00880000    0.43000921
  0.00885000    0.44399219
  0.00890000    0.45780697
  0.00895000    0.47145366
  0.00900000    0.48493105
  0.00905000    0.49822944
  0.00910000    0.51134094
  0.00915000    0.52426564
  0.00920000    0.53701375
  0.00925000    0.54955516
  0.00930000    0.56189528
  0.00935000    0.57403420
  0.00940000    0.58599462
  0.00945000    0.59772425
  0.00950000    0.60924299
  0.00955000    0.62055103
  0.00960000    0.63168357
  0.00965000    0.64256602
  0.00970000    0.65323298
  0.00975000    0.66368444
  0.00980000    0.67396730
  0.00985000    0.68398677
  0.00990000    0.69379074
  0.00995000    0.70337902
  0.01000000    0.71280851
  0.01005000    0.72196729
  0.01010000    0.73091449
  0.01015000    0.73965009
  0.01020000    0.74823819
  0.01025000    0.75655450
  0.01030000    0.76466631
  0.01035000    0.77257373
  0.01040000    0.78034585
  0.01045000    0.78785028
  0.01050000    0.79515991
  0.01055000    0.80227475
  0.01060000    0.80926649
  0.01065000    0.81599903
  0.01070000    0.82254818
  0.01075000    0.82891383
  0.01080000    0.83516789
  0.01085000    0.84117485
  0.01090000    0.84701062
  0.01095000    0.85267519
  0.01100000    0.85823856
  0.01105000    0.86356944
  0.01110000    0.86874162
  0.01115000    0.87375520
  0.01120000    0.87867689
  0.01125000    0.88338198
  0.01130000    0.88794088
  0.01135000    0.89235358
  0.01140000    0.89668238
  0.01145000    0.90081118
  0.01150000    0.90480559
  0.01155000    0.90866560
  0.01160000    0.91244851
  0.01165000    0.91604793
  0.01170000    0.91952405
  0.01175000    0.92287697
  0.01180000    0.92615800
  0.01185000    0.92927173
  0.01190000    0.93227226
  0.01195000    0.93515949
  0.01200000    0.93797923
  0.01205000    0.94064677
  0.01210000    0.94321011
  0.01215000    0.94566915
  0.01220000    0.94806369
  0.01225000    0.95032024
  0.01230000    0.95248029
  0.01235000    0.95454395
  0.01240000    0.95654510
  0.01245000    0.95842116
  0.01250000    0.96020732
  0.01255000    0.96190378
  0.01260000    0.96353874
  0.01265000    0.96506010
  0.01270000    0.96649727
  0.01275000    0.96785004
  0.01280000    0.96914151
  0.01285000    0.97032948
  0.01290000    0.97143766
  0.01295000    0.97246583
  0.01300000    0.97343191
  0.01305000    0.97430329
  0.01310000    0.97509817
  0.01315000    0.97581636
  0.01320000    0.97647054
  0.01325000    0.97703783
  0.01330000    0.97753072
  0.01335000    0.97794921
  0.01340000    0.97830090
  0.01345000    0.97857209
  0.01350000    0.97877009
  0.01355000    0.97889489
  0.01360000    0.97894908
  0.01365000    0.97892808
  0.01370000    0.97883399
  0.01375000    0.97866679
  0.01380000    0.97842430
  0.01385000    0.97811080
  0.01390000    0.97772321
  0.01395000    0.97726162
  0.01400000    0.97671904
  0.01405000    0.97610845
  0.01410000    0.97542197
  0.01415000    0.97465938
  0.01420000    0.97380890
  0.01425000    0.97289262
  0.01430000    0.97189725
  0.01435000    0.97082277
  0.01440000    0.96965240
  0.01445000    0.96841723
  0.01450000    0.96709886
  0.01455000    0.96569729
  0.01460000    0.96419052
  0.01465000    0.96261906
  0.01470000    0.96095910
  0.01475000    0.95921074
  0.01480000    0.95734658
  0.01485000    0.95541683
  0.01490000    0.95339217
  0.01495000    0.95127262
  0.01500000    0.94902557
  0.01505000    0.94671083
  0.01510000    0.94429368
  0.01515000    0.94177404
  0.01520000    0.93911400
  0.01525000    0.93638306
  0.01530000    0.93354093
  0.01535000    0.93058750
  0.01540000    0.92747987
  0.01545000    0.92429684
  0.01550000    0.92099262
  0.01555000    0.91756740
  0.01560000    0.91397308
  0.01565000    0.91029756
  0.01570000    0.90649005
  0.01575000    0.90255064
  0.01580000    0.89842674
  0.01585000    0.89421433
  0.01590000    0.88985823
  0.01595000    0.88535844
  0.01600000    0.88065864
  0.01605000    0.87586176
  0.01610000    0.87090867
  0.01615000    0.86579959
  0.01620000    0.86047551
  0.01625000    0.85504403
  0.01630000    0.84944376
  0.01635000    0.84367470
  0.01640000    0.83767693
  0.01645000    0.83156007
  0.01650000    0.82526192
  0.01655000    0.81878247
  0.01660000    0.81206242
  0.01665000    0.80521038
  0.01670000    0.79816534
  0.01675000    0.79092721
  0.01680000    0.78343968
  0.01685000    0.77580636
  0.01690000    0.76796974
  0.01695000    0.75992962
  0.01700000    0.75163511
  0.01705000    0.74318071
  0.01710000    0.73451491
  0.01715000    0.72563761
  0.01720000    0.71650542
  0.01725000    0.70719983
  0.01730000    0.69767775
  0.01735000    0.68793918
  0.01740000    0.67795051
  0.01745000    0.66777644
  0.01750000    0.65738468
  0.01755000    0.64677522
  0.01760000    0.63592577
  0.01765000    0.62488183
  0.01770000    0.61362329
  0.01775000    0.60215025
  0.01780000    0.59045282
  0.01785000    0.57855549
  0.01790000    0.56645167
  0.01795000    0.55414135
  0.01800000    0.54162664
  0.01805000    0.52891204
  0.01810000    0.51600373
  0.01815000    0.50290153
  0.01820000    0.48961834
  0.01825000    0.47614145
  0.01830000    0.46248776
  0.01835000    0.44865758
  0.01840000    0.43467160
  0.01845000    0.42050413
  0.01850000    0.40618076
  0.01855000    0.39170139
  0.01860000    0.37709213
  0.01865000    0.36231957
  0.01870000    0.34741421
  0.01875000    0.33237616
  0.01880000    0.31723310
  0.01885000    0.30194966
  0.01890000    0.28655791
  0.01895000    0.27105777
  0.01900000    0.25547602
  0.01905000    0.23977989
  0.01910000    0.22400005
  0.01915000    0.20813641
  0.01920000    0.19221258
  0.01925000    0.17620165
  0.01930000    0.16013082
  0.01935000    0.14400009
  0.01940000    0.12782926
  0.01945000    0.11159823
  0.01950000    0.09533010
  0.01955000    0.07902491
  0.01960000    0.06269925
  0.01965000    0.04633861
  0.01970000    0.02996287
  0.01975000    0.01357202
  0.01980000   -0.00281906
  0.01985000   -0.01922179
  0.01990000   -0.03561799
  0.01995000   -0.05200766
  0.02000000   -0.06837577
  0.02005000   -0.08473377
  0.02010000   -0.10106318
  0.02015000   -0.11736410
  0.02020000   -0.13361973
  0.02025000   -0.14984395
  0.02030000   -0.16601668
  0.02035000   -0.18213791
  0.02040000   -0.19818844
  0.02045000   -0.21418577
  0.02050000   -0.23010741
  0.02055000   -0.24595324
  0.02060000   -0.26170238
  0.02065000   -0.27737492
  0.02070000   -0.29294646
  0.02075000   -0.30841721
  0.02080000   -0.32376625
  0.02085000   -0.33901280
  0.02090000   -0.35413315
  0.02095000   -0.36912731
  0.02100000   -0.38397767
  0.02105000   -0.39869753
  0.02110000   -0.41326699
  0.02115000   -0.42768596
  0.02120000   -0.44194304
  0.02125000   -0.45604071
  0.02130000   -0.46996599
  0.02135000   -0.48371887
  0.02140000   -0.49729706
  0.02145000   -0.51068735
  0.02150000   -0.52388665
  0.02155000   -0.53689505
  0.02160000   -0.54972186
  0.02165000   -0.56233427
  0.02170000   -0.57474148
  0.02175000   -0.58694360
  0.02180000   -0.59896302
  0.02185000   -0.61074505
  0.02190000   -0.62231269
  0.02195000   -0.63366583
  0.02200000   -0.64484007
  0.02205000   -0.65575912
  0.02210000   -0.66645937
  0.02215000   -0.67694063
  0.02220000   -0.68725079
  0.02225000   -0.69729366
  0.02230000   -0.70711794
  0.02235000   -0.71672352
  0.02240000   -0.72616840
  0.02245000   -0.73533999
  0.02250000   -0.74429708
  0.02255000   -0.75303988
  0.02260000   -0.76163408
  0.02265000   -0.76995459
  0.02270000   -0.77806830
  0.02275000   -0.78597522
  0.02280000   -0.79374614
  0.02285000   -0.80124847
  0.02290000   -0.80855380
  0.02295000   -0.81566224
  0.02300000   -0.82264738
  0.02305000   -0.82937302
  0.02310000   -0.83591337
  0.02315000   -0.84226833
  0.02320000   -0.84851178
  0.02325000   -0.85450835
  0.02330000   -0.86033201
  0.02335000   -0.86598288
  0.02340000   -0.87153285
  0.02345000   -0.87685073
  0.02350000   -0.88200851
  0.02355000   -0.88700620
  0.02360000   -0.89191249
  0.02365000   -0.89660268
  0.02370000   -0.90114547
  0.02375000   -0.90554067
  0.02380000   -0.90985257
  0.02385000   -0.91396508
  0.02390000   -0.91794209
  0.02395000   -0.92178360
  0.02400000   -0.92554841
  0.02405000   -0.92913043
  0.02410000   -0.93258815
  0.02415000   -0.93592147
  0.02420000   -0.93918350
  0.02425000   -0.94227883
  0.02430000   -0.94525986
  0.02435000   -0.94812669
  0.02440000   -0.95092643
  0.02445000   -0.95357447
  0.02450000   -0.95611731
  0.02455000   -0.95855505
  0.02460000   -0.96092860
  0.02465000   -0.96316445
  0.02470000   -0.96530300
  0.02475000   -0.96734415
  0.02480000   -0.96932311
  0.02485000   -0.97117706
  0.02490000   -0.97294042
  0.02495000   -0.97461318
  0.02500000   -0.97622455
  0.02505000   -0.97772221
  0.02510000   -0.97913488
  0.02515000   -0.98046245
  0.02520000   -0.98172852
  0.02525000   -0.98289099
  0.02530000   -0.98397277
  0.02535000   -0.98497395
  0.02540000   -0.98591242
  0.02545000   -0.98675610
  0.02550000   -0.98752239
  0.02555000   -0.98821127
  0.02560000   -0.98883566
  0.02565000   -0.98937254
  0.02570000   -0.98983423
  0.02575000   -0.99022072
  0.02580000   -0.99053962
  0.02585000   -0.99077741
  0.02590000   -0.99094111
  0.02595000   -0.99103081
  0.02600000   -0.99104891
  0.02605000   -0.99099101
  0.02610000   -0.99085911
  0.02615000   -0.99065311
  0.02620000   -0.99037072
  0.02625000   -0.99001623
  0.02630000   -0.98958684
  0.02635000   -0.98908235
  0.02640000   -0.98849536
  0.02645000   -0.98783928
  0.02650000   -0.98710610
  0.02655000   -0.98629592
  0.02660000   -0.98539604
  0.02665000   -0.98442886
  0.02670000   -0.98338158
  0.02675000   -0.98225401
  0.02680000   -0.98102844
  0.02685000   -0.97973657
  0.02690000   -0.97836020
  0.02695000   -0.97689933
  0.02700000   -0.97533097
  0.02705000   -0.97369600
  0.02710000   -0.97197114
  0.02715000   -0.97015649
  0.02720000   -0.96822343
  0.02725000   -0.96622258
  0.02730000   -0.96412533
  0.02735000   -0.96193168
  0.02740000   -0.95960753
  0.02745000   -0.95721328
  0.02750000   -0.95471494
  0.02755000   -0.95211240
  0.02760000   -0.94936616
  0.02765000   -0.94654623
  0.02770000   -0.94361330
  0.02775000   -0.94056737
  0.02780000   -0.93736344
  0.02785000   -0.93408102
  0.02790000   -0.93067559
  0.02795000   -0.92714708
  0.02800000   -0.92344536
  0.02805000   -0.91965915
  0.02810000   -0.91573884
  0.02815000   -0.91168443
  0.02820000   -0.90744103
  0.02825000   -0.90310573
  0.02830000   -0.89862443
  0.02835000   -0.89399704
  0.02840000   -0.88916495
  0.02845000   -0.88423196
  0.02850000   -0.87914048
  0.02855000   -0.87389040
  0.02860000   -0.86842033
  0.02865000   -0.86283905
  0.02870000   -0.85708649
  0.02875000   -0.85116252
  0.02880000   -0.84500456
  0.02885000   -0.83872371
  0.02890000   -0.83225896
  0.02895000   -0.82561021
  0.02900000   -0.81871567
  0.02905000   -0.81168553
  0.02910000   -0.80445960
  0.02915000   -0.79703787
  0.02920000   -0.78936174
  0.02925000   -0.78153632
  0.02930000   -0.77350491
  0.02935000   -0.76526750
  0.02940000   -0.75677099
  0.02945000   -0.74811159
  0.02950000   -0.73923810
  0.02955000   -0.73015061
  0.02960000   -0.72080442
  0.02965000   -0.71128224
  0.02970000   -0.70154126
  0.02975000   -0.69158139
  0.02980000   -0.68136853
  0.02985000   -0.67096847
  0.02990000   -0.66034861
  0.02995000   -0.64950896
  0.03000000   -0.63842772
  0.03005000   -0.62715088
  0.03010000   -0.61565794
  0.03015000   -0.60394891
  0.03020000   -0.59201478
  0.03025000   -0.57988116
  0.03030000   -0.56753985
  0.03035000   -0.55499084
  0.03040000   -0.54223823
  0.03045000   -0.52928723
  0.03050000   -0.51614183
  0.03055000   -0.50280204
  0.03060000   -0.48928335
  0.03065000   -0.47557346
  0.03070000   -0.46168698
  0.03075000   -0.44762370
  0.03080000   -0.43340823
  0.03085000   -0.41901486
  0.03090000   -0.40446620
  0.03095000   -0.38976214
  0.03100000   -0.37493258
  0.03105000   -0.35994412
  0.03110000   -0.34482417
  0.03115000   -0.32957262
  0.03120000   -0.31422137
  0.03125000   -0.29873483
  0.03130000   -0.28314169
  0.03135000   -0.26744185
  0.03140000   -0.25166601
  0.03145000   -0.23578148
  0.03150000   -0.21981534
  0.03155000   -0.20376751
  0.03160000   -0.18766548
  0.03165000   -0.17148226
  0.03170000   -0.15524163
  0.03175000   -0.13894360
  0.03180000   -0.12261148
  0.03185000   -0.10622526
  0.03190000   -0.08980477
  0.03195000   -0.07334988
  0.03200000   -0.05688062
  0.03205000   -0.04038279
  0.03210000   -0.02387277
  0.03215000   -0.00735054
  0.03220000    0.00916574
  0.03225000    0.02568704
  0.03230000    0.04219875
  0.03235000    0.05870085
  0.03240000    0.07517505
  0.03245000    0.09163227
  0.03250000    0.10805771
  0.03255000    0.12445144
  0.03260000    0.14079336
  0.03265000    0.15709669
  0.03270000    0.17334531
  0.03275000    0.18953904
  0.03280000    0.20565527
  0.03285000    0.22171100
  0.03290000    0.23768763
  0.03295000    0.25358527
  0.03300000    0.26937930
  0.03305000    0.28508904
  0.03310000    0.30069468
  0.03315000    0.31619623
  0.03320000    0.33156907
  0.03325000    0.34683212
  0.03330000    0.36196587
  0.03335000    0.37697033
  0.03340000    0.39182409
  0.03345000    0.40654045
  0.03350000    0.42110361
  0.03355000    0.43551328
  0.03360000    0.44975476
  0.03365000    0.46383073
  0.03370000    0.47773151
  0.03375000    0.49145720
  0.03380000    0.50500288
  0.03385000    0.51835528
  0.03390000    0.53151428
  0.03395000    0.54447998
  0.03400000    0.55725978
  0.03405000    0.56982079
  0.03410000    0.58217471
  0.03415000    0.59432143
  0.03420000    0.60628226
  0.03425000    0.61800249
  0.03430000    0.62950662
  0.03435000    0.64079466
  0.03440000    0.65190171
  0.03445000    0.66275146
  0.03450000    0.67338101
  0.03455000    0.68379047
  0.03460000    0.69402774
  0.03465000    0.70399661
  0.03470000    0.71374588
  0.03475000    0.72327546
  0.03480000    0.73264455
  0.03485000    0.74173984
  0.03490000    0.75062014
  0.03495000    0.75928544
  0.03500000    0.76780294
  0.03505000    0.77604725
  0.03510000    0.78408427
  0.03515000    0.79191399
  0.03520000    0.79960931
  0.03525000    0.80703694
  0.03530000    0.81426737
  0.03535000    0.82130061
  0.03540000    0.82821245
  0.03545000    0.83486630
  0.03550000    0.84133455
  0.03555000    0.84761750
  0.03560000    0.85379106
  0.03565000    0.85971923
  0.03570000    0.86547459
  0.03575000    0.87105707
  0.03580000    0.87654114
  0.03585000    0.88179472
  0.03590000    0.88688820
  0.03595000    0.89182169
  0.03600000    0.89666628
  0.03605000    0.90129647
  0.03610000    0.90577917
  0.03615000    0.91011457
  0.03620000    0.91436887
  0.03625000    0.91842548
  0.03630000    0.92234669
  0.03635000    0.92613240
  0.03640000    0.92984381
  0.03645000    0.93337383
  0.03650000    0.93677965
  0.03655000    0.94006118
  0.03660000    0.94327350
  0.03665000    0.94632043
  0.03670000    0.94925327
  0.03675000    0.95207200
  0.03680000    0.95482534
  0.03685000    0.95742828
  0.03690000    0.95992602
  0.03695000    0.96231877
  0.03700000    0.96464881
  0.03705000    0.96684226
  0.03710000    0.96893851
  0.03715000    0.97093747
  0.03720000    0.97287542
  0.03725000    0.97468928
  0.03730000    0.97641254
  0.03735000    0.97804520
  0.03740000    0.97961757
  0.03745000    0.98107694
  0.03750000    0.98245130
  0.03755000    0.98374047
  0.03760000    0.98496895
  0.03765000    0.98609442
  0.03770000    0.98713910
  0.03775000    0.98810307
  0.03780000    0.98900505
  0.03785000    0.98981243
  0.03790000    0.99054242
  0.03795000    0.99119480
  0.03800000    0.99178299
  0.03805000    0.99228388
  0.03810000    0.99270947
  0.03815000    0.99305976
  0.03820000    0.99334235
  0.03825000    0.99354395
  0.03830000    0.99367135
  0.03835000    0.99372444
  0.03840000    0.99370564
  0.03845000    0.99361085
  0.03850000    0.99344175
  0.03855000    0.99319846
  0.03860000    0.99287806
  0.03865000    0.99248537
  0.03870000    0.99201738
  0.03875000    0.99147420
  0.03880000    0.99084761
  0.03885000    0.99015143
  0.03890000    0.98937794
  0.03895000    0.98852716
  0.03900000    0.98758529
  0.03905000    0.98657581
  0.03910000    0.98548573
  0.03915000    0.98431506
  0.03920000    0.98304489
  0.03925000    0.98170762
  0.03930000    0.98028545
  0.03935000    0.97877849
  0.03940000    0.97716193
  0.03945000    0.97547806
  0.03950000    0.97370390
  0.03955000    0.97183945
  0.03960000    0.96985419
  0.03965000    0.96780034
  0.03970000    0.96564949
  0.03975000    0.96340164
  0.03980000    0.96102070
  0.03985000    0.95856855
  0.03990000    0.95601171
  0.03995000    0.95335017
  0.04000000    0.95054174
  0.04005000    0.94765850
  0.04010000    0.94466167
  0.04015000    0.94155104
  0.04020000    0.93827892
  0.04025000    0.93492720
  0.04030000    0.93145158
  0.04035000    0.92785226
  0.04040000    0.92407585
  0.04045000    0.92021364
  0.04050000    0.91621643
  0.04055000    0.91208442
  0.04060000    0.90775932
  0.04065000    0.90334082
  0.04070000    0.89877553
  0.04075000    0.89400614
  0.04080000    0.88914205
  0.04085000    0.88411847
  0.04090000    0.87893538
  0.04095000    0.87353331
  0.04100000    0.86802604
  0.04105000    0.86234647
  0.04110000    0.85649460
  0.04115000    0.85041004
  0.04120000    0.84420818
  0.04125000    0.83782143
  0.04130000    0.83124988
  0.04135000    0.82443404
  0.04140000    0.81748740
  0.04145000    0.81034416
  0.04150000    0.80300443
  0.04155000    0.79541181
  0.04160000    0.78767388
  0.04165000    0.77972917
  0.04170000    0.77157785
  0.04175000    0.76316905
  0.04180000    0.75459984
  0.04185000    0.74581625
  0.04190000    0.73681805
  0.04195000    0.72756267
  0.04200000    0.71813228
  0.04205000    0.70848270
  0.04210000    0.69861413
  0.04215000    0.68849386
  0.04220000    0.67818530
  0.04225000    0.66765704
  0.04230000    0.65690909
  0.04235000    0.64592064
  0.04240000    0.63473340
  0.04245000    0.62333036
  0.04250000    0.61171163
  0.04255000    0.59986870
  0.04260000    0.58782068
  0.04265000    0.57556586
  0.04270000    0.56310425
  0.04275000    0.55043914
  0.04280000    0.53756824
  0.04285000    0.52450424
  0.04290000    0.51124704
  0.04295000    0.49781065
  0.04300000    0.48417396
  0.04305000    0.47036248
  0.04310000    0.45637590
  0.04315000    0.44223603
  0.04320000    0.42790826
  0.04325000    0.41342739
  0.04330000    0.39879313
  0.04335000    0.38403187
  0.04340000    0.36910131
  0.04345000    0.35404176
  0.04350000    0.33885291
  0.04355000    0.32356246
  0.04360000    0.30812651
  0.04365000    0.29258667
  0.04370000    0.27694293
  0.04375000    0.26122109
  0.04380000    0.24538096
  0.04385000    0.22946202
  0.04390000    0.21346439
  0.04395000    0.19741036
  0.04400000    0.18126663
  0.04405000    0.16506840
  0.04410000    0.14881568
  0.04415000    0.13252695
  0.04420000    0.11617633
  0.04425000    0.09979443
  0.04430000    0.08338121
  0.04435000    0.06695182
  0.04440000    0.05048654
  0.04445000    0.03401212
  0.04450000    0.01752856
  0.04455000    0.00104916
  0.04460000   -0.01544237
  0.04465000   -0.03192130
  0.04470000   -0.04838760
  0.04475000   -0.06482800
  0.04480000   -0.08125867
  0.04485000   -0.09765467
  0.04490000   -0.11401598
  0.04495000   -0.13032790
  0.04500000   -0.14660903
  0.04505000   -0.16283255
  0.04510000   -0.17899848
  0.04515000   -0.19509011
  0.04520000   -0.21112924
  0.04525000   -0.22708678
  0.04530000   -0.24296271
  0.04535000   -0.25873905
  0.04540000   -0.27443949
  0.04545000   -0.29003353
  0.04550000   -0.30552117
  0.04555000   -0.32088492
  0.04560000   -0.33614707
  0.04565000   -0.35127802
  0.04570000   -0.36627778
  0.04575000   -0.38113213
  0.04580000   -0.39585700
  0.04585000   -0.41042696
  0.04590000   -0.42484213
  0.04595000   -0.43909460
  0.04600000   -0.45318828
  0.04605000   -0.46710586
  0.04610000   -0.48084744
  0.04615000   -0.49441433
  0.04620000   -0.50779332
  0.04625000   -0.52097862
  0.04630000   -0.53397002
  0.04635000   -0.54678042
  0.04640000   -0.55937593
  0.04645000   -0.57176445
  0.04650000   -0.58394577
  0.04655000   -0.59594509
  0.04660000   -0.60770642
  0.04665000   -0.61925206
  0.04670000   -0.63058200
  0.04675000   -0.64173384
  0.04680000   -0.65262949
  0.04685000   -0.66330574
  0.04690000   -0.67376280
  0.04695000   -0.68404917
  0.04700000   -0.69406714
  0.04705000   -0.70386661
  0.04710000   -0.71344769
  0.04715000   -0.72286837
  0.04720000   -0.73201456
  0.04725000   -0.74094696
  0.04730000   -0.74966566
  0.04735000   -0.75823596
  0.04740000   -0.76653137
  0.04745000   -0.77462098
  0.04750000   -0.78250480
  0.04755000   -0.79025262
  0.04760000   -0.79773055
  0.04765000   -0.80501298
  0.04770000   -0.81209982
  0.04775000   -0.81906286
  0.04780000   -0.82576551
  0.04785000   -0.83228426
  0.04790000   -0.83861931
  0.04795000   -0.84484217
  0.04800000   -0.85081713
  0.04805000   -0.85662090
  0.04810000   -0.86225347
  0.04815000   -0.86778434
  0.04820000   -0.87308242
  0.04825000   -0.87822200
  0.04830000   -0.88320319
  0.04835000   -0.88809197
  0.04840000   -0.89276427
  0.04845000   -0.89729066
  0.04850000   -0.90167116
  0.04855000   -0.90596716
  0.04860000   -0.91006357
  0.04865000   -0.91402598
  0.04870000   -0.91785439
  0.04875000   -0.92160500
  0.04880000   -0.92517282
  0.04885000   -0.92861764
  0.04890000   -0.93193957
  0.04895000   -0.93518899
  0.04900000   -0.93827182
  0.04905000   -0.94124165
  0.04910000   -0.94409869
  0.04915000   -0.94688742
  0.04920000   -0.94952466
  0.04925000   -0.95205800
  0.04930000   -0.95448725
  0.04935000   -0.95685129
  0.04940000   -0.95907804
  0.04945000   -0.96120849
  0.04950000   -0.96324265
  0.04955000   -0.96521360
  0.04960000   -0.96706006
  0.04965000   -0.96881682
  0.04970000   -0.97048388
  0.04975000   -0.97208854
  0.04980000   -0.97358031
  0.04985000   -0.97498768
  0.04990000   -0.97631084
  0.04995000   -0.97757162
  0.05000000   -0.97872949
  0.05005000   -0.97980736
  0.05010000   -0.98080524
  0.05015000   -0.98173992
  0.05020000   -0.98258040
  0.05025000   -0.98334408
  0.05030000   -0.98403087
  0.05035000   -0.98465255
  0.05040000   -0.98518764
  0.05045000   -0.98564803
  0.05050000   -0.98603362
  0.05055000   -0.98635111
  0.05060000   -0.98658851
  0.05065000   -0.98675210
  0.05070000   -0.98684200
  0.05075000   -0.98686000
  0.05080000   -0.98680300
  0.05085000   -0.98667221
  0.05090000   -0.98646781
  0.05095000   -0.98618642
  0.05100000   -0.98583433
  0.05105000   -0.98540734
  0.05110000   -0.98490555
  0.05115000   -0.98432086
  0.05120000   -0.98366848
  0.05125000   -0.98293919
  0.05130000   -0.98213291
  0.05135000   -0.98123673
  0.05140000   -0.98027475
  0.05145000   -0.97923268
  0.05150000   -0.97811040
  0.05155000   -0.97688993
  0.05160000   -0.97560486
  0.05165000   -0.97423519
  0.05170000   -0.97278103
  0.05175000   -0.97121926
  0.05180000   -0.96959280
  0.05185000   -0.96787634
  0.05190000   -0.96606988
  0.05195000   -0.96414502
  0.05200000   -0.96215457
  0.05205000   -0.96006742
  0.05210000   -0.95788367
  0.05215000   -0.95556962
  0.05220000   -0.95318768
  0.05225000   -0.95070133
  0.05230000   -0.94811059
  0.05235000   -0.94537646
  0.05240000   -0.94257112
  0.05245000   -0.93965239
  0.05250000   -0.93662036
  0.05255000   -0.93343063
  0.05260000   -0.93016521
  0.05265000   -0.92677638
  0.05270000   -0.92326416
  0.05275000   -0.91957925
  0.05280000   -0.91581274
  0.05285000   -0.91191173
  0.05290000   -0.90787632
  0.05295000   -0.90365272
  0.05300000   -0.89934012
  0.05305000   -0.89488112
  0.05310000   -0.89027572
  0.05315000   -0.88546673
  0.05320000   -0.88055985
  0.05325000   -0.87549416
  0.05330000   -0.87026958
  0.05335000   -0.86482651
  0.05340000   -0.85927504
  0.05345000   -0.85355207
  0.05350000   -0.84765760
  0.05355000   -0.84153104
  0.05360000   -0.83528429
  0.05365000   -0.82885354
  0.05370000   -0.82223889
  0.05375000   -0.81538075
  0.05380000   -0.80838941
  0.05385000   -0.80120257
  0.05390000   -0.79382024
  0.05395000   -0.78618612
  0.05400000   -0.77840490
  0.05405000   -0.77041828
  0.05410000   -0.76222627
  0.05415000   -0.75377816
  0.05420000   -0.74516886
  0.05425000   -0.73634676
  0.05430000   -0.72731167
  0.05435000   -0.71802109
  0.05440000   -0.70855580
  0.05445000   -0.69887343
  0.05450000   -0.68897385
  0.05455000   -0.67882479
  0.05460000   -0.66848912
  0.05465000   -0.65793617
  0.05470000   -0.64716572
  0.05475000   -0.63615727
  0.05480000   -0.62495353
  0.05485000   -0.61353669
  0.05490000   -0.60190676
  0.05495000   -0.59005553
  0.05500000   -0.57800461
  0.05505000   -0.56574979
  0.05510000   -0.55329107
  0.05515000   -0.54063237
  0.05520000   -0.52777486
  0.05525000   -0.51472756
  0.05530000   -0.50149037
  0.05535000   -0.48807777
  0.05540000   -0.47447359
  0.05545000   -0.46069790
  0.05550000   -0.44675082
  0.05555000   -0.43265465
  0.05560000   -0.41838028
  0.05565000   -0.40395651
  0.05570000   -0.38938314
  0.05575000   -0.37468728
  0.05580000   -0.35983282
  0.05585000   -0.34485297
  0.05590000   -0.32974792
  0.05595000   -0.31454577
  0.05600000   -0.29920912
  0.05605000   -0.28377237
  0.05610000   -0.26823563
  0.05615000   -0.25262549
  0.05620000   -0.23690795
  0.05625000   -0.22111551
  0.05630000   -0.20524798
  0.05635000   -0.18932895
  0.05640000   -0.17333061
  0.05645000   -0.15728148
  0.05650000   -0.14118155
  0.05655000   -0.12505022
  0.05660000   -0.10886700
  0.05665000   -0.09265600
  0.05670000   -0.07641722
  0.05675000   -0.06016657
  0.05680000   -0.04388962
  0.05685000   -0.02760686
  0.05690000   -0.01131827
  0.05695000    0.00496218
  0.05700000    0.02124545
  0.05705000    0.03751305
  0.05710000    0.05376495
  0.05715000    0.06998737
  0.05720000    0.08619084
  0.05725000    0.10235695
  0.05730000    0.11848557
  0.05735000    0.13456161
  0.05740000    0.15059764
  0.05745000    0.16657367
  0.05750000    0.18248980
  0.05755000    0.19832874
  0.05760000    0.21410618
  0.05765000    0.22980011
  0.05770000    0.24541056
  0.05775000    0.26091900
  0.05780000    0.27634274
  0.05785000    0.29165879
  0.05790000    0.30686704
  0.05795000    0.32194960
  0.05800000    0.33692245
  0.05805000    0.35176331
  0.05810000    0.36647227
  0.05815000    0.38103454
  0.05820000    0.39546020
  0.05825000    0.40973098
  0.05830000    0.42384685
  0.05835000    0.43779943
  0.05840000    0.45158761
  0.05845000    0.46520030
  0.05850000    0.47863759
  0.05855000    0.49190009
  0.05860000    0.50497109
  0.05865000    0.51784959
  0.05870000    0.53053560
  0.05875000    0.54304101
  0.05880000    0.55533003
  0.05885000    0.56741385
  0.05890000    0.57929228
  0.05895000    0.59098991
  0.05900000    0.60244984
  0.05905000    0.61369658
  0.05910000    0.62473003
  0.05915000    0.63558688
  0.05920000    0.64618984
  0.05925000    0.65657640
  0.05930000    0.66674626
  0.05935000    0.67674763
  0.05940000    0.68648451
  0.05945000    0.69600599
  0.05950000    0.70531208
  0.05955000    0.71446007
  0.05960000    0.72333886
  0.05965000    0.73200726
  0.05970000    0.74046507
  0.05975000    0.74877668
  0.05980000    0.75681999
  0.05985000    0.76466071
  0.05990000    0.77229894
  0.05995000    0.77980336
  0.06000000    0.78704520
  0.06005000    0.79409464
  0.06010000    0.80095168
  0.06015000    0.80768712
  0.06020000    0.81416967
  0.06025000    0.82047143
  0.06030000    0.82659239
  0.06035000    0.83260325
  0.06040000    0.83837392
  0.06045000    0.84397609
  0.06050000    0.84940986
  0.06055000    0.85474394
  0.06060000    0.85985252
  0.06065000    0.86480521
  0.06070000    0.86960200
  0.06075000    0.87430809
  0.06080000    0.87880469
  0.06085000    0.88315769
  0.06090000    0.88736699
  0.06095000    0.89149340
  0.06100000    0.89542661
  0.06105000    0.89922772
  0.06110000    0.90289693
  0.06115000    0.90648955
  0.06120000    0.90990517
  0.06125000    0.91319950
  0.06130000    0.91637262
  0.06135000    0.91947425
  0.06140000    0.92241448
  0.06145000    0.92524322
  0.06150000    0.92796036
  0.06155000    0.93061000
  0.06160000    0.93311274
  0.06165000    0.93551268
  0.06170000    0.93780963
  0.06175000    0.94004178
  0.06180000    0.94214053
  0.06185000    0.94414398
  0.06190000    0.94605194
  0.06195000    0.94789670
  0.06200000    0.94962036
  0.06205000    0.95125492
  0.06210000    0.95280039
  0.06215000    0.95428335
  0.06220000    0.95565612
  0.06225000    0.95694489
  0.06230000    0.95814976
  0.06235000    0.95929194
  0.06240000    0.96033341
  0.06245000    0.96129509
  0.06250000    0.96217687
  0.06255000    0.96299465
  0.06260000    0.96372013
  0.06265000    0.96436872
  0.06270000    0.96494041
  0.06275000    0.96544619
  0.06280000    0.96586649
  0.06285000    0.96621198
  0.06290000    0.96648237
  0.06295000    0.96668397
  0.06300000    0.96680596
  0.06305000    0.96685386
  0.06310000    0.96682786
  0.06315000    0.96672897
  0.06320000    0.96655527
  0.06325000    0.96630737
  0.06330000    0.96598548
  0.06335000    0.96558589
  0.06340000    0.96511510
  0.06345000    0.96456911
  0.06350000    0.96394793
  0.06355000    0.96324335
  0.06360000    0.96247026
  0.06365000    0.96161988
  0.06370000    0.96069220
  0.06375000    0.95967443
  0.06380000    0.95858965
  0.06385000    0.95742468
  0.06390000    0.95617931
  0.06395000    0.95483624
  0.06400000    0.95342677
  0.06405000    0.95193301
  0.06410000    0.95035494
  0.06415000    0.94867058
  0.06420000    0.94691952
  0.06425000    0.94507916
  0.06430000    0.94314951
  0.06435000    0.94110425
  0.06440000    0.93899070
  0.06445000    0.93678205
  0.06450000    0.93447841
  0.06455000    0.93204886
  0.06460000    0.92954862
  0.06465000    0.92694658
  0.06470000    0.92424284
  0.06475000    0.92140261
  0.06480000    0.91848797
  0.06485000    0.91546424
  0.06490000    0.91233122
  0.06495000    0.90905079
  0.06500000    0.90569137
  0.06505000    0.90221475
  0.06510000    0.89862073
  0.06515000    0.89486872
  0.06520000    0.89103171
  0.06525000    0.88706910
  0.06530000    0.88298079
  0.06535000    0.87872419
  0.06540000    0.87437579
  0.06545000    0.86989329
  0.06550000    0.86527650
  0.06555000    0.86048281
  0.06560000    0.85558912
  0.06565000    0.85055314
  0.06570000    0.84537486
  0.06575000    0.84001298
  0.06580000    0.83454221
  0.06585000    0.82892183
  0.06590000    0.82315187
  0.06595000    0.81719460
  0.06600000    0.81111894
  0.06605000    0.80488789
  0.06610000    0.79850153
  0.06615000    0.79192829
  0.06620000    0.78522684
  0.06625000    0.77836650
  0.06630000    0.77134736
  0.06635000    0.76414692
  0.06640000    0.75680869
  0.06645000    0.74931137
  0.06650000    0.74165484
  0.06655000    0.73382832
  0.06660000    0.72585591
  0.06665000    0.71772809
  0.06670000    0.70944458
  0.06675000    0.70100908
  0.06680000    0.69242197
  0.06685000    0.68368768
  0.06690000    0.67480638
  0.06695000    0.66579769
  0.06700000    0.65663520
  0.06705000    0.64733951
  0.06710000    0.63791063
  0.06715000    0.62838575
  0.06720000    0.61870977
  0.06725000    0.60892039
  0.06730000    0.59901762
  0.06735000    0.58905575
  0.06740000    0.57895188
  0.06745000    0.56876012
  0.06750000    0.55848065
  0.06755000    0.54818319
  0.06760000    0.53775993
  0.06765000    0.52727987
  0.06770000    0.51674291
  0.06775000    0.50623116
  0.06780000    0.49561760
  0.06785000    0.48498255
  0.06790000    0.47432589
  0.06795000    0.46373673
  0.06800000    0.45307768
  0.06805000    0.44243492
  0.06810000    0.43180857
  0.06815000    0.42128881
  0.06820000    0.41073755
  0.06825000    0.40024119
  0.06830000    0.38979993
  0.06835000    0.37949837
  0.06840000    0.36920861
  0.06845000    0.35901094
  0.06850000    0.34890528
  0.06855000    0.33896460
  0.06860000    0.32908123
  0.06865000    0.31932326
  0.06870000    0.30969078
  0.06875000    0.30023889
  0.06880000    0.29088961
  0.06885000    0.28169332
  0.06890000    0.27265003
  0.06895000    0.26379373
  0.06900000    0.25508153
  0.06905000    0.24654293
  0.06910000    0.23817792
  0.06915000    0.22999741
  0.06920000    0.22199619
  0.06925000    0.21418147
  0.06930000    0.20655325
  0.06935000    0.19909952
  0.06940000    0.19185229
  0.06945000    0.18479675
  0.06950000    0.17793291
  0.06955000    0.17122826
  0.06960000    0.16474791
  0.06965000    0.15845766
  0.06970000    0.15235750
  0.06975000    0.14639783
  0.06980000    0.14067096
  0.06985000    0.13512689
  0.06990000    0.12976562
  0.06995000    0.12452494
  0.07000000    0.11951705
  0.07005000    0.11468026
  0.07010000    0.11001457
  0.07015000    0.10545027
  0.07020000    0.10111117
  0.07025000    0.09692884
  0.07030000    0.09290323
  0.07035000    0.08896122
  0.07040000    0.08523140
  0.07045000    0.08164248
  0.07050000    0.07819445
  0.07055000    0.07481444
  0.07060000    0.07162977
  0.07065000    0.06856980
  0.07070000    0.06563455
  0.07075000    0.06275413
  0.07080000    0.06005009
  0.07085000    0.05745501
  0.07090000    0.05496889
  0.07095000    0.05252676
  0.07100000    0.05024132
  0.07105000    0.04805009
  0.07110000    0.04595307
  0.07115000    0.04389130
  0.07120000    0.04196683
  0.07125000    0.04012314
  0.07130000    0.03836021
  0.07135000    0.03662555
  0.07140000    0.03500988
  0.07145000    0.03346299
  0.07150000    0.03198488
  0.07155000    0.03052949
  0.07160000    0.02917631
  0.07165000    0.02788138
  0.07170000    0.02664469
  0.07175000    0.02542633
  0.07180000    0.02429512
  0.07185000    0.02321305
  0.07190000    0.02218008
  0.07195000    0.02116195
  0.07200000    0.02021772
  0.07205000    0.01931478
  0.07210000    0.01845312
  0.07215000    0.01760351
  0.07220000    0.01681626
  0.07225000    0.01606363
  0.07230000    0.01534560
  0.07235000    0.01463739
  0.07240000    0.01398164
  0.07245000    0.01335483
  0.07250000    0.01275698
  0.07255000    0.01216715
  0.07260000    0.01162131
  0.07265000    0.01109965
  0.07270000    0.01060217
  0.07275000    0.01011128
  0.07280000    0.00965718
  0.07285000    0.00922325
  0.07290000    0.00880949
  0.07295000    0.00840114
  0.07300000    0.00802354
  0.07305000    0.00766273
  0.07310000    0.00731874
  0.07315000    0.00697919
  0.07320000    0.00666530
  0.07325000    0.00636539
  0.07330000    0.00607948
  0.07335000    0.00579724
  0.07340000    0.00553638
  0.07345000    0.00528715
  0.07350000    0.00504957
  0.07355000    0.00481502
  0.07360000    0.00459827
  0.07365000    0.00439120
  0.07370000    0.00419382
  0.07375000    0.00399894
  0.07380000    0.00381887
  0.07385000    0.00364685
  0.07390000    0.00348288
  0.07395000    0.00332099
  0.07400000    0.00317141
  0.07405000    0.00302852
  0.07410000    0.00289233
  0.07415000    0.00275785
  0.07420000    0.00263362
  0.07425000    0.00251494
  0.07430000    0.00240183
  0.07435000    0.00229014
  0.07440000    0.00218695
  0.07445000    0.00208839
  0.07450000    0.00199446
  0.07455000    0.00190169
  0.07460000    0.00181600
  0.07465000    0.00173415
  0.07470000    0.00165614
  0.07475000    0.00157910
  0.07480000    0.00150794
  0.07485000    0.00143997
  0.07490000    0.00137519
  0.07495000    0.00131122
  0.07500000    0.00125212
  0.07505000    0.00119568
  0.07510000    0.00114189
  0.07515000    0.00108876
  0.07520000    0.00103969
  0.07525000    0.00099282
  0.07530000    0.00094815
  0.07535000    0.00090404
  0.07540000    0.00086329
  0.07545000    0.00082437
  0.07550000    0.00078728
  0.07555000    0.00075065
  0.07560000    0.00071681
  0.07565000    0.00068449
  0.07570000    0.00065370
  0.07575000    0.00062328
  0.07580000    0.00059518
  0.07585000    0.00056835
  0.07590000    0.00054278
  0.07595000    0.00051752
  0.07600000    0.00049419
  0.07605000    0.00047191
  0.07610000    0.00045067
  0.07615000    0.00042970
  0.07620000    0.00041033
  0.07625000    0.00039182
  0.07630000    0.00037419
  0.07635000    0.00035678
  0.07640000    0.00034069
  0.07645000    0.00032533
  0.07650000    0.00031069
  0.07655000    0.00029623
  0.07660000    0.00028287
  0.07665000    0.00027011
  0.07670000    0.00025796
  0.07675000    0.00024595
  0.07680000    0.00023486
  0.07685000    0.00022426
  0.07690000    0.00021417
  0.07695000    0.00020420
  0.07700000    0.00019499
  0.07705000    0.00018619
  0.07710000    0.00017781
  0.07715000    0.00016952
  0.07720000    0.00016188
  0.07725000    0.00015457
  0.07730000    0.00014761
  0.07735000    0.00014073
  0.07740000    0.00013438
  0.07745000    0.00012831
  0.07750000    0.00012253
  0.07755000    0.00011682
  0.07760000    0.00011154
  0.07765000    0.00010650
  0.07770000    0.00010170
  0.07775000    0.00009696
  0.07780000    0.00009257
  0.07785000    0.00008839
  0.07790000    0.00008440
  0.07795000    0.00008046
  0.07800000    0.00007682
  0.07805000    0.00007334
  0.07810000    0.00007002
  0.07815000    0.00006675
  0.07820000    0.00006372
  0.07825000    0.00006083
  0.07830000    0.00005807
  0.07835000    0.00005535
  0.07840000    0.00005283
  0.07845000    0.00005043
  0.07850000    0.00004814
  0.07855000    0.00004587
  0.07860000    0.00004378
  0.07865000    0.00004178
  0.07870000    0.00003987
  0.07875000    0.00003799
  0.07880000    0.00003624
  0.07885000    0.00003458
  0.07890000    0.00003299
  0.07895000    0.00003142
  0.07900000    0.00002996
  0.07905000    0.00002857
  0.07910000    0.00002725
  0.07915000    0.00002594
  0.07920000    0.00002472
  0.07925000    0.00002356
  0.07930000    0.00002245
  0.07935000    0.00002136
  0.07940000    0.00002034
  0.07945000    0.00001937
  0.07950000    0.00001844
  0.07955000    0.00001751
  0.07960000    0.00001666
  0.07965000    0.00001584
  0.07970000    0.00001506
  0.07975000    0.00001428
  0.07980000    0.00001356
  0.07985000    0.00001287
  0.07990000    0.00001220
  0.07995000    0.00001154
  0.08000000    0.00001093
  0.08005000    0.00001034
  0.08010000    0.00000977
  0.08015000    0.00000921
  0.08020000    0.00000868
  0.08025000    0.00000817
  0.08030000    0.00000768
  0.08035000    0.00000719
  0.08040000    0.00000673
  0.08045000    0.00000628
  0.08050000    0.00000585
  0.08055000    0.00000542
  0.08060000    0.00000501
  0.08065000    0.00000461
  0.08070000    0.00000422
  0.08075000    0.00000404
  0.08080000    0.00000367
  0.08085000    0.00000331
  0.08090000    0.00000294
  0.08095000    0.00000249
  0.08100000    0.00000213
  0.08105000    0.00000178
  0.08110000    0.00000142
  0.08115000    0.00000104
  0.08120000    0.00000069
  0.08125000    0.00000035
  0.08130000    0.00000000
