# Created by Octave 5.2.0, Mon Apr 26 14:33:44 2021 CEST <alatina@andreas-imac.home>
# name: EmittX_hist
# type: matrix
# rows: 100
# columns: 4
 303.21822586733992 1.7873259896629647 1.407891651591312 1.4154170112566833
 37.853545818517041 1.5002048963363783 1.3688329808225246 1.3772636147128499
 36.994085166568773 1.4177940862567502 1.3560934421217046 1.360837141704673
 2.9352066551954419 1.7863384911530287 1.3859800348979998 1.3860340098317219
 51.501273782789752 1.9014183259682378 1.4419434743650008 1.4202489014298898
 221.683893441496 1.7710280719300409 1.3888416855617651 1.3828596514542515
 27.718333479346693 1.8370933913306369 1.3734961525813181 1.3657290487774372
 40.037732608790591 1.9790611542514411 1.3702441512261634 1.3802210715770451
 347.92782545364122 2.0191567022395964 1.4019005902420174 1.4101045667772978
 38.406097956764768 1.4414297140824697 1.4123821909143384 1.4193220318610291
 14.044822284214682 1.7427144644790937 1.366890158059044 1.3854184847663773
 514.45497141470457 1.3753999569669784 1.397152198374491 1.3664978444698268
 116.58254511823235 1.4698031409076195 1.3897185726392904 1.3739597877849696
 91.977073081150323 1.8266860023742129 1.3939997200900276 1.3895926279990063
 232.94702926768795 1.4798415918247028 1.369322996285725 1.3729282469435184
 176.01758291856029 1.6160136577783355 1.3654862546416289 1.3705114217878582
 46.722919068640998 1.9852601588057017 1.3673570499097785 1.3638496301748462
 90.514230381988497 1.4252717183402801 1.3932800798943223 1.4239367951705575
 208.56551942950509 2.0393903460065754 1.3708855569227612 1.4141149524103955
 69.234898301868697 1.4559570630965433 1.3745199478663974 1.3849868777454966
 104.94205670577891 1.4578085673381125 1.3600733170521027 1.3587908145172178
 62.932596304963539 1.6550450416206475 1.4021221189535611 1.379446004420348
 84.318665382841033 1.6504744240206504 1.4085090947081331 1.4880811175855642
 36.800998261708564 1.4599354110655716 1.3797280860136185 1.4185393882731241
 151.14358631079955 1.5994239228938585 1.3700565949159054 1.381147248213654
 115.85533442878916 1.8272178377711885 1.3542884707569638 1.3887453499476701
 117.21002725076463 1.7454060871759496 1.4066496045299044 1.3968179774547256
 42.521528873388675 1.4446102026035073 1.3855448855540724 1.3724456303042767
 117.29280125425812 1.5863737930770594 1.3674335325023548 1.3894914132108833
 658.74171021808854 1.524439477828252 1.4168708210799759 1.4407430403886032
 19.398781475136303 2.8107662719851194 1.4064895240131829 1.4581957438784965
 10.45424795825544 1.4417384748324964 1.3637293921948637 1.3860876803259004
 107.96319675942829 1.357860854673268 1.3680306836206859 1.3708723677977703
 19.723638048616735 1.5822424452943582 1.3853704924297991 1.3819883524554026
 235.4133456664465 1.5514973455831622 1.37587128402165 1.3597774120564878
 41.681508615791493 2.8852964806158026 1.4309275393679683 1.4658164135754792
 312.86386862089716 2.1643913701056494 1.3712755355542603 1.3699355738667922
 162.87867247620127 1.5208528149163849 1.3716473798487654 1.3612799365477803
 48.76446665576745 2.119356465972523 1.3564863228011663 1.3654526444539452
 210.21345911877651 1.7378305300847516 1.3677436698590439 1.3823159565950038
 214.998235773012 1.4315723547154096 1.4183163870331894 1.4218557011133091
 198.8034783497051 1.5585776800171824 1.3567568462760562 1.3619398876985473
 323.14732188702783 1.5439278757489809 1.364293744288126 1.3603476484700339
 301.06096461426978 1.6143826518368276 1.3680366190367321 1.3790897929597881
 2.8539308154745964 2.3925141991764107 1.3782788759911451 1.3690393337704458
 66.945936871534087 1.7340922002834047 1.383604852854794 1.3845290744673047
 89.372221517831434 2.1685119911580193 1.3640415166420397 1.3599026012667772
 21.555012851747833 1.5146121417674805 1.3737782898388746 1.3787474752992852
 213.00882790077097 1.6178524320760654 1.3561088974707667 1.35913490410445
 176.36613779284104 1.7231251022676559 1.3672083410032014 1.3725251261195131
 226.61433036856971 1.7754026552482296 1.3732227246705153 1.3672991940398715
 172.76624673045939 1.4105573921705516 1.3862299214791005 1.3735492174620052
 19.627247565764904 1.6559229679625702 1.3642577195317738 1.3647671132914605
 271.49780274718154 1.7682786390901035 1.3875617121007968 1.4023934194246512
 44.185872260851745 1.6047050700924594 1.3520925467881943 1.3716566685459084
 196.09870034256923 1.4061896276817574 1.3628060337742265 1.3770933181312428
 19.513627808088046 1.3499928004880259 1.3684606127391512 1.3652208020728311
 21.218453388267815 1.8610213381693532 1.3973695714165788 1.4364403639929468
 58.853253158739939 1.3573850126951128 1.3806560623094974 1.3918182408289068
 34.177770396760096 1.5690981051348427 1.36383369453892 1.3805722625753634
 37.37314513688645 2.2352297242069432 1.3941033069543831 1.4573976287669443
 150.14515883461357 1.488073596069095 1.4028894290530143 1.3935675086436514
 8.1173386474754814 1.5566571796373299 1.3664899063129972 1.3603146760412632
 10.418155681421513 2.0229013619904523 1.4135705120180975 1.3901105985316813
 211.87084584525513 1.4044743420161219 1.3823341163219689 1.3672042985352992
 473.88964908780554 2.0509503576833623 1.3707177105742818 1.3805956811369615
 35.342724387337299 1.461120721006969 1.3764609457640935 1.3870335368623319
 248.56579453159384 2.716955253269095 1.3721294518808613 1.3600900876496265
 9.0027893497794587 1.6203869732058196 1.3679789413267134 1.3607170215744824
 173.27958584333746 1.6685114583514398 1.3783251050883607 1.4274973812158149
 32.651390260213873 1.3707254765341985 1.361964308807404 1.373378721931269
 37.671465348235607 1.4490476200092974 1.363816566041316 1.3549434547931816
 42.559879649806128 1.4256152211851678 1.3745314955782375 1.3787585753253626
 188.31149515708759 1.4921999110166206 1.3788976053630884 1.3782834603967664
 60.254195678269404 1.9106602199124654 1.3681564440468217 1.3629416282280806
 101.39240227411524 3.1621980277898669 1.3645691053335778 1.3699124679944661
 146.10309682325669 1.4799039925948303 1.3891789327526765 1.4044817129051508
 24.203195956530919 1.6966863984959639 1.3698625144267995 1.3686291756157754
 146.2246937163608 1.5813260921269898 1.4087496909248489 1.4406820263058562
 131.23439235899775 1.425269529254668 1.4362100600016334 1.4023175710738109
 131.25948023323105 1.5579915418923393 1.3971006951956983 1.3712953909147958
 59.68174378370712 2.3777297036562035 1.3717111501924342 1.3732228937834088
 271.61294696485049 1.7195541251372788 1.4114736407007584 1.3901038408823918
 82.157778481194569 1.6305852631808364 1.4037715511214146 1.4271128170579581
 17.273578189721775 2.2124962882695014 1.3691779786529055 1.3755039077655831
 121.78671736878434 2.2475870666965303 1.3981965468221826 1.4167664256494465
 83.98236617808216 1.661533862724055 1.4039185183527887 1.3772388414380925
 70.903601570458449 1.629468614980973 1.3710365076239757 1.3656886564714368
 26.153795866854804 1.4542650473967618 1.4133364179029706 1.3904463328658045
 149.3178652431038 1.8908560226648718 1.3593213418189609 1.3975733636114338
 448.30360087904711 1.4665294353864666 1.3717797180051976 1.3636431849900128
 76.494858892925777 1.6012623751480997 1.3744376232095872 1.3768633580327243
 36.974655839948554 1.5226107827462563 1.3746453335270989 1.3677614736927017
 66.19341771384677 1.4453434301348185 1.3632456101092938 1.372005805600454
 8.0838433418004279 1.4959249430745327 1.3994609291689988 1.3876981234312284
 164.51769803001963 1.4192441868272756 1.3725909431544161 1.3698599216894074
 166.27750554880572 2.0055152056198695 1.4124600058453627 1.3666519529180141
 175.70353280480538 1.7501945683194418 1.3945053486899124 1.3895155166818289
 8.8531332893695556 2.2730170468693207 1.3674533535114313 1.3610208961443999
 63.386549213558268 1.6908429818034263 1.4352813968891842 1.4517730996629186


