 0 2936.74246530612
 5.001221001221e-07 6.38686790838401e-43
 1.0002442002442e-06 7.78446666479361e-62
 1.5003663003663e-06 2.38759623707107e-76
 2.0004884004884e-06 1.38902481783991e-88
 2.5006105006105e-06 2.30800946918089e-99
 3.0007326007326e-06 4.14810362712646e-109
 3.5008547008547e-06 4.52939755392647e-118
 4.0009768009768e-06 2.06344008612163e-126
 4.5010989010989e-06 3.02087027984803e-134
 5.001221001221e-06 1.17521079740662e-141
 5.5013431013431e-06 1.05251407601457e-148
 6.0014652014652e-06 1.94113575113292e-155
 6.5015873015873e-06 6.74683005149339e-162
 7.0017094017094e-06 4.11285933548234e-168
 7.5018315018315e-06 4.1444031934542e-174
 8.0019536019536e-06 6.56983023662604e-180
 8.5020757020757e-06 1.57120887783304e-185
 9.0021978021978e-06 5.46959113881294e-191
 9.5023199023199e-06 2.68721966859284e-196
 1.0002442002442e-05 1.81388316229949e-201
 1.05025641025641e-05 1.64303220915991e-206
 1.10026862026862e-05 1.9560984607429e-211
 1.15028083028083e-05 3.00493578800462e-216
 1.20029304029304e-05 5.85913266302909e-221
 1.25030525030525e-05 1.42881571665027e-225
 1.30031746031746e-05 4.30021295075945e-230
 1.35032967032967e-05 1.57815963428925e-234
 1.40034188034188e-05 6.98578184634129e-239
 1.45035409035409e-05 3.69282049502908e-243
 1.5003663003663e-05 2.31007568149841e-247
 1.55037851037851e-05 1.69586686896988e-251
 1.60039072039072e-05 1.44983260851571e-255
 1.65040293040293e-05 1.43326451354105e-259
 1.70041514041514e-05 1.62768576432791e-263
 1.75042735042735e-05 2.1106281874304e-267
 1.80043956043956e-05 3.10740807390405e-271
 1.85045177045177e-05 5.16711111082846e-275
 1.90046398046398e-05 9.65675174293016e-279
 1.95047619047619e-05 2.01910124013333e-282
 2.0004884004884e-05 4.70289933372532e-286
 2.05050061050061e-05 1.2153640418267e-289
 2.10051282051282e-05 3.47167198748448e-293
 2.15052503052503e-05 1.09224039257582e-296
 2.20053724053724e-05 3.77215875513729e-300
 2.25054945054945e-05 1.42554533263737e-303
 2.30056166056166e-05 5.87752478596744e-307
 2.35057387057387e-05 2.6363521392879e-310
 2.40058608058608e-05 1.28305705957583e-313
 2.45059829059829e-05 6.75849491617587e-317
 2.5006105006105e-05 4.35271833986138e-320
 2.55062271062271e-05 0
 2.60063492063492e-05 0
 2.65064713064713e-05 0
 2.70065934065934e-05 0
 2.75067155067155e-05 0
 2.80068376068376e-05 0
 2.85069597069597e-05 0
 2.90070818070818e-05 0
 2.95072039072039e-05 0
 3.0007326007326e-05 0
 3.05074481074481e-05 0
 3.10075702075702e-05 0
 3.15076923076923e-05 0
 3.20078144078144e-05 0
 3.25079365079365e-05 0
 3.30080586080586e-05 0
 3.35081807081807e-05 0
 3.40083028083028e-05 0
 3.45084249084249e-05 0
 3.5008547008547e-05 0
 3.55086691086691e-05 0
 3.60087912087912e-05 0
 3.65089133089133e-05 0
 3.70090354090354e-05 0
 3.75091575091575e-05 0
 3.80092796092796e-05 0
 3.85094017094017e-05 0
 3.90095238095238e-05 0
 3.95096459096459e-05 0
 4.0009768009768e-05 0
 4.05098901098901e-05 0
 4.10100122100122e-05 0
 4.15101343101343e-05 0
 4.20102564102564e-05 0
 4.25103785103785e-05 0
 4.30105006105006e-05 0
 4.35106227106227e-05 0
 4.40107448107448e-05 0
 4.45108669108669e-05 0
 4.5010989010989e-05 0
 4.55111111111111e-05 0
 4.60112332112332e-05 0
 4.65113553113553e-05 0
 4.70114774114774e-05 0
 4.75115995115995e-05 0
 4.80117216117216e-05 0
 4.85118437118437e-05 0
 4.90119658119658e-05 0
 4.95120879120879e-05 0
 5.001221001221e-05 0
 5.05123321123321e-05 0
 5.10124542124542e-05 0
 5.15125763125763e-05 0
 5.20126984126984e-05 0
 5.25128205128205e-05 0
 5.30129426129426e-05 0
 5.35130647130647e-05 0
 5.40131868131868e-05 0
 5.45133089133089e-05 0
 5.5013431013431e-05 0
 5.55135531135531e-05 0
 5.60136752136752e-05 0
 5.65137973137973e-05 0
 5.70139194139194e-05 0
 5.75140415140415e-05 0
 5.80141636141636e-05 0
 5.85142857142857e-05 0
 5.90144078144078e-05 0
 5.95145299145299e-05 0
 6.0014652014652e-05 0
 6.05147741147741e-05 0
 6.10148962148962e-05 0
 6.15150183150183e-05 0
 6.20151404151404e-05 0
 6.25152625152625e-05 0
 6.30153846153846e-05 0
 6.35155067155067e-05 0
 6.40156288156288e-05 0
 6.45157509157509e-05 0
 6.5015873015873e-05 0
 6.55159951159951e-05 0
 6.60161172161172e-05 0
 6.65162393162393e-05 0
 6.70163614163614e-05 0
 6.75164835164835e-05 0
 6.80166056166056e-05 0
 6.85167277167277e-05 0
 6.90168498168498e-05 0
 6.95169719169719e-05 0
 7.0017094017094e-05 0
 7.05172161172161e-05 0
 7.10173382173382e-05 0
 7.15174603174603e-05 0
 7.20175824175824e-05 0
 7.25177045177045e-05 0
 7.30178266178266e-05 0
 7.35179487179487e-05 0
 7.40180708180708e-05 0
 7.45181929181929e-05 0
 7.5018315018315e-05 0
 7.55184371184371e-05 0
 7.60185592185592e-05 0
 7.65186813186813e-05 0
 7.70188034188034e-05 0
 7.75189255189255e-05 0
 7.80190476190476e-05 0
 7.85191697191697e-05 0
 7.90192918192918e-05 0
 7.95194139194139e-05 0
 8.0019536019536e-05 0
 8.05196581196581e-05 0
 8.10197802197802e-05 0
 8.15199023199023e-05 0
 8.20200244200244e-05 0
 8.25201465201465e-05 0
 8.30202686202686e-05 0
 8.35203907203907e-05 0
 8.40205128205128e-05 0
 8.45206349206349e-05 0
 8.5020757020757e-05 0
 8.55208791208791e-05 0
 8.60210012210012e-05 0
 8.65211233211233e-05 0
 8.70212454212454e-05 0
 8.75213675213675e-05 0
 8.80214896214896e-05 0
 8.85216117216117e-05 0
 8.90217338217338e-05 0
 8.95218559218559e-05 0
 9.0021978021978e-05 0
 9.05221001221001e-05 0
 9.10222222222222e-05 0
 9.15223443223443e-05 0
 9.20224664224664e-05 0
 9.25225885225885e-05 0
 9.30227106227106e-05 0
 9.35228327228327e-05 0
 9.40229548229548e-05 0
 9.45230769230769e-05 0
 9.5023199023199e-05 0
 9.55233211233211e-05 0
 9.60234432234432e-05 0
 9.65235653235653e-05 0
 9.70236874236874e-05 0
 9.75238095238095e-05 0
 9.80239316239316e-05 0
 9.85240537240537e-05 0
 9.90241758241758e-05 0
 9.95242979242979e-05 0
 0.00010002442002442 0
 0.000100524542124542 0
 0.000101024664224664 0
 0.000101524786324786 0
 0.000102024908424908 0
 0.000102525030525031 0
 0.000103025152625153 0
 0.000103525274725275 0
 0.000104025396825397 0
 0.000104525518925519 0
 0.000105025641025641 0
 0.000105525763125763 0
 0.000106025885225885 0
 0.000106526007326007 0
 0.000107026129426129 0
 0.000107526251526252 0
 0.000108026373626374 0
 0.000108526495726496 0
 0.000109026617826618 0
 0.00010952673992674 0
 0.000110026862026862 0
 0.000110526984126984 0
 0.000111027106227106 0
 0.000111527228327228 0
 0.00011202735042735 0
 0.000112527472527473 0
 0.000113027594627595 0
 0.000113527716727717 0
 0.000114027838827839 0
 0.000114527960927961 0
 0.000115028083028083 0
 0.000115528205128205 0
 0.000116028327228327 0
 0.000116528449328449 0
 0.000117028571428571 0
 0.000117528693528694 0
 0.000118028815628816 0
 0.000118528937728938 0
 0.00011902905982906 0
 0.000119529181929182 0
 0.000120029304029304 0
 0.000120529426129426 0
 0.000121029548229548 0
 0.00012152967032967 0
 0.000122029792429792 0
 0.000122529914529915 0
 0.000123030036630037 0
 0.000123530158730159 0
 0.000124030280830281 0
 0.000124530402930403 0
 0.000125030525030525 0
 0.000125530647130647 0
 0.000126030769230769 0
 0.000126530891330891 0
 0.000127031013431013 0
 0.000127531135531136 0
 0.000128031257631258 0
 0.00012853137973138 0
 0.000129031501831502 0
 0.000129531623931624 0
 0.000130031746031746 0
 0.000130531868131868 0
 0.00013103199023199 0
 0.000131532112332112 0
 0.000132032234432234 0
 0.000132532356532357 0
 0.000133032478632479 0
 0.000133532600732601 0
 0.000134032722832723 0
 0.000134532844932845 0
 0.000135032967032967 0
 0.000135533089133089 0
 0.000136033211233211 0
 0.000136533333333333 0
 0.000137033455433455 0
 0.000137533577533578 0
 0.0001380336996337 0
 0.000138533821733822 0
 0.000139033943833944 0
 0.000139534065934066 0
 0.000140034188034188 0
 0.00014053431013431 0
 0.000141034432234432 0
 0.000141534554334554 0
 0.000142034676434676 0
 0.000142534798534799 0
 0.000143034920634921 0
 0.000143535042735043 0
 0.000144035164835165 0
 0.000144535286935287 0
 0.000145035409035409 0
 0.000145535531135531 0
 0.000146035653235653 0
 0.000146535775335775 0
 0.000147035897435897 0
 0.00014753601953602 0
 0.000148036141636142 0
 0.000148536263736264 0
 0.000149036385836386 0
 0.000149536507936508 0
 0.00015003663003663 0
 0.000150536752136752 0
 0.000151036874236874 0
 0.000151536996336996 0
 0.000152037118437118 0
 0.000152537240537241 0
 0.000153037362637363 0
 0.000153537484737485 0
 0.000154037606837607 0
 0.000154537728937729 0
 0.000155037851037851 0
 0.000155537973137973 0
 0.000156038095238095 0
 0.000156538217338217 0
 0.000157038339438339 0
 0.000157538461538462 0
 0.000158038583638584 0
 0.000158538705738706 0
 0.000159038827838828 0
 0.00015953894993895 0
 0.000160039072039072 0
 0.000160539194139194 0
 0.000161039316239316 0
 0.000161539438339438 0
 0.00016203956043956 0
 0.000162539682539683 0
 0.000163039804639805 0
 0.000163539926739927 0
 0.000164040048840049 0
 0.000164540170940171 0
 0.000165040293040293 0
 0.000165540415140415 0
 0.000166040537240537 0
 0.000166540659340659 0
 0.000167040781440781 0
 0.000167540903540904 0
 0.000168041025641026 0
 0.000168541147741148 0
 0.00016904126984127 0
 0.000169541391941392 0
 0.000170041514041514 0
 0.000170541636141636 0
 0.000171041758241758 0
 0.00017154188034188 0
 0.000172042002442002 0
 0.000172542124542125 0
 0.000173042246642247 0
 0.000173542368742369 0
 0.000174042490842491 0
 0.000174542612942613 0
 0.000175042735042735 0
 0.000175542857142857 0
 0.000176042979242979 0
 0.000176543101343101 0
 0.000177043223443223 0
 0.000177543345543346 0
 0.000178043467643468 0
 0.00017854358974359 0
 0.000179043711843712 0
 0.000179543833943834 0
 0.000180043956043956 0
 0.000180544078144078 0
 0.0001810442002442 0
 0.000181544322344322 0
 0.000182044444444444 0
 0.000182544566544567 0
 0.000183044688644689 0
 0.000183544810744811 0
 0.000184044932844933 0
 0.000184545054945055 0
 0.000185045177045177 0
 0.000185545299145299 0
 0.000186045421245421 0
 0.000186545543345543 0
 0.000187045665445665 0
 0.000187545787545788 0
 0.00018804590964591 0
 0.000188546031746032 0
 0.000189046153846154 0
 0.000189546275946276 0
 0.000190046398046398 0
 0.00019054652014652 0
 0.000191046642246642 0
 0.000191546764346764 0
 0.000192046886446886 0
 0.000192547008547009 0
 0.000193047130647131 0
 0.000193547252747253 0
 0.000194047374847375 0
 0.000194547496947497 0
 0.000195047619047619 0
 0.000195547741147741 0
 0.000196047863247863 0
 0.000196547985347985 0
 0.000197048107448107 0
 0.00019754822954823 0
 0.000198048351648352 0
 0.000198548473748474 0
 0.000199048595848596 0
 0.000199548717948718 0
 0.00020004884004884 0
 0.000200548962148962 0
 0.000201049084249084 0
 0.000201549206349206 0
 0.000202049328449328 0
 0.000202549450549451 0
 0.000203049572649573 0
 0.000203549694749695 0
 0.000204049816849817 0
 0.000204549938949939 0
 0.000205050061050061 0
 0.000205550183150183 0
 0.000206050305250305 0
 0.000206550427350427 0
 0.000207050549450549 0
 0.000207550671550672 0
 0.000208050793650794 0
 0.000208550915750916 0
 0.000209051037851038 0
 0.00020955115995116 0
 0.000210051282051282 0
 0.000210551404151404 0
 0.000211051526251526 0
 0.000211551648351648 0
 0.00021205177045177 0
 0.000212551892551893 0
 0.000213052014652015 0
 0.000213552136752137 0
 0.000214052258852259 0
 0.000214552380952381 0
 0.000215052503052503 0
 0.000215552625152625 0
 0.000216052747252747 0
 0.000216552869352869 0
 0.000217052991452991 0
 0.000217553113553114 0
 0.000218053235653236 0
 0.000218553357753358 0
 0.00021905347985348 0
 0.000219553601953602 0
 0.000220053724053724 0
 0.000220553846153846 0
 0.000221053968253968 0
 0.00022155409035409 0
 0.000222054212454212 0
 0.000222554334554335 0
 0.000223054456654457 0
 0.000223554578754579 0
 0.000224054700854701 0
 0.000224554822954823 0
 0.000225054945054945 0
 0.000225555067155067 0
 0.000226055189255189 0
 0.000226555311355311 0
 0.000227055433455433 0
 0.000227555555555556 0
 0.000228055677655678 0
 0.0002285557997558 0
 0.000229055921855922 0
 0.000229556043956044 0
 0.000230056166056166 0
 0.000230556288156288 0
 0.00023105641025641 0
 0.000231556532356532 0
 0.000232056654456654 0
 0.000232556776556777 0
 0.000233056898656899 0
 0.000233557020757021 0
 0.000234057142857143 0
 0.000234557264957265 0
 0.000235057387057387 0
 0.000235557509157509 0
 0.000236057631257631 0
 0.000236557753357753 0
 0.000237057875457875 0
 0.000237557997557998 0
 0.00023805811965812 0
 0.000238558241758242 0
 0.000239058363858364 0
 0.000239558485958486 0
 0.000240058608058608 0
 0.00024055873015873 0
 0.000241058852258852 0
 0.000241558974358974 0
 0.000242059096459096 0
 0.000242559218559219 0
 0.000243059340659341 0
 0.000243559462759463 0
 0.000244059584859585 0
 0.000244559706959707 0
 0.000245059829059829 0
 0.000245559951159951 0
 0.000246060073260073 0
 0.000246560195360195 0
 0.000247060317460317 0
 0.00024756043956044 0
 0.000248060561660562 0
 0.000248560683760684 0
 0.000249060805860806 0
 0.000249560927960928 0
 0.00025006105006105 0
 0.000250561172161172 0
 0.000251061294261294 0
 0.000251561416361416 0
 0.000252061538461538 0
 0.000252561660561661 0
 0.000253061782661783 0
 0.000253561904761905 0
 0.000254062026862027 0
 0.000254562148962149 0
 0.000255062271062271 0
 0.000255562393162393 0
 0.000256062515262515 0
 0.000256562637362637 0
 0.000257062759462759 0
 0.000257562881562882 0
 0.000258063003663004 0
 0.000258563125763126 0
 0.000259063247863248 0
 0.00025956336996337 0
 0.000260063492063492 0
 0.000260563614163614 0
 0.000261063736263736 0
 0.000261563858363858 0
 0.00026206398046398 0
 0.000262564102564103 0
 0.000263064224664225 0
 0.000263564346764347 0
 0.000264064468864469 0
 0.000264564590964591 0
 0.000265064713064713 0
 0.000265564835164835 0
 0.000266064957264957 0
 0.000266565079365079 0
 0.000267065201465201 0
 0.000267565323565324 0
 0.000268065445665446 0
 0.000268565567765568 0
 0.00026906568986569 0
 0.000269565811965812 0
 0.000270065934065934 0
 0.000270566056166056 0
 0.000271066178266178 0
 0.0002715663003663 0
 0.000272066422466422 0
 0.000272566544566545 0
 0.000273066666666667 0
 0.000273566788766789 0
 0.000274066910866911 0
 0.000274567032967033 0
 0.000275067155067155 0
 0.000275567277167277 0
 0.000276067399267399 0
 0.000276567521367521 0
 0.000277067643467643 0
 0.000277567765567766 0
 0.000278067887667888 0
 0.00027856800976801 0
 0.000279068131868132 0
 0.000279568253968254 0
 0.000280068376068376 0
 0.000280568498168498 0
 0.00028106862026862 0
 0.000281568742368742 0
 0.000282068864468865 0
 0.000282568986568987 0
 0.000283069108669109 0
 0.000283569230769231 0
 0.000284069352869353 0
 0.000284569474969475 0
 0.000285069597069597 0
 0.000285569719169719 0
 0.000286069841269841 0
 0.000286569963369963 0
 0.000287070085470085 0
 0.000287570207570208 0
 0.00028807032967033 0
 0.000288570451770452 0
 0.000289070573870574 0
 0.000289570695970696 0
 0.000290070818070818 0
 0.00029057094017094 0
 0.000291071062271062 0
 0.000291571184371184 0
 0.000292071306471306 0
 0.000292571428571429 0
 0.000293071550671551 0
 0.000293571672771673 0
 0.000294071794871795 0
 0.000294571916971917 0
 0.000295072039072039 0
 0.000295572161172161 0
 0.000296072283272283 0
 0.000296572405372405 0
 0.000297072527472527 0
 0.00029757264957265 0
 0.000298072771672772 0
 0.000298572893772894 0
 0.000299073015873016 0
 0.000299573137973138 0
 0.00030007326007326 0
 0.000300573382173382 0
 0.000301073504273504 0
 0.000301573626373626 0
 0.000302073748473748 0
 0.000302573870573871 0
 0.000303073992673993 0
 0.000303574114774115 0
 0.000304074236874237 0
 0.000304574358974359 0
 0.000305074481074481 0
 0.000305574603174603 0
 0.000306074725274725 0
 0.000306574847374847 0
 0.000307074969474969 0
 0.000307575091575092 0
 0.000308075213675214 0
 0.000308575335775336 0
 0.000309075457875458 0
 0.00030957557997558 0
 0.000310075702075702 0
 0.000310575824175824 0
 0.000311075946275946 0
 0.000311576068376068 0
 0.00031207619047619 0
 0.000312576312576313 0
 0.000313076434676435 0
 0.000313576556776557 0
 0.000314076678876679 0
 0.000314576800976801 0
 0.000315076923076923 0
 0.000315577045177045 0
 0.000316077167277167 0
 0.000316577289377289 0
 0.000317077411477411 0
 0.000317577533577534 0
 0.000318077655677656 0
 0.000318577777777778 0
 0.0003190778998779 0
 0.000319578021978022 0
 0.000320078144078144 0
 0.000320578266178266 0
 0.000321078388278388 0
 0.00032157851037851 0
 0.000322078632478632 0
 0.000322578754578755 0
 0.000323078876678877 0
 0.000323578998778999 0
 0.000324079120879121 0
 0.000324579242979243 0
 0.000325079365079365 0
 0.000325579487179487 0
 0.000326079609279609 0
 0.000326579731379731 0
 0.000327079853479853 0
 0.000327579975579976 0
 0.000328080097680098 0
 0.00032858021978022 0
 0.000329080341880342 0
 0.000329580463980464 0
 0.000330080586080586 0
 0.000330580708180708 0
 0.00033108083028083 0
 0.000331580952380952 0
 0.000332081074481074 0
 0.000332581196581197 0
 0.000333081318681319 0
 0.000333581440781441 0
 0.000334081562881563 0
 0.000334581684981685 0
 0.000335081807081807 0
 0.000335581929181929 0
 0.000336082051282051 0
 0.000336582173382173 0
 0.000337082295482295 0
 0.000337582417582418 0
 0.00033808253968254 0
 0.000338582661782662 0
 0.000339082783882784 0
 0.000339582905982906 0
 0.000340083028083028 0
 0.00034058315018315 0
 0.000341083272283272 0
 0.000341583394383394 0
 0.000342083516483516 0
 0.000342583638583639 0
 0.000343083760683761 0
 0.000343583882783883 0
 0.000344084004884005 0
 0.000344584126984127 0
 0.000345084249084249 0
 0.000345584371184371 0
 0.000346084493284493 0
 0.000346584615384615 0
 0.000347084737484738 0
 0.00034758485958486 0
 0.000348084981684982 0
 0.000348585103785104 0
 0.000349085225885226 0
 0.000349585347985348 0
 0.00035008547008547 0
 0.000350585592185592 0
 0.000351085714285714 0
 0.000351585836385836 0
 0.000352085958485958 0
 0.000352586080586081 0
 0.000353086202686203 0
 0.000353586324786325 0
 0.000354086446886447 0
 0.000354586568986569 0
 0.000355086691086691 0
 0.000355586813186813 0
 0.000356086935286935 0
 0.000356587057387057 0
 0.000357087179487179 0
 0.000357587301587302 0
 0.000358087423687424 0
 0.000358587545787546 0
 0.000359087667887668 0
 0.00035958778998779 0
 0.000360087912087912 0
 0.000360588034188034 0
 0.000361088156288156 0
 0.000361588278388278 0
 0.000362088400488401 0
 0.000362588522588523 0
 0.000363088644688645 0
 0.000363588766788767 0
 0.000364088888888889 0
 0.000364589010989011 0
 0.000365089133089133 0
 0.000365589255189255 0
 0.000366089377289377 0
 0.000366589499389499 0
 0.000367089621489621 0
 0.000367589743589744 0
 0.000368089865689866 0
 0.000368589987789988 0
 0.00036909010989011 0
 0.000369590231990232 0
 0.000370090354090354 0
 0.000370590476190476 0
 0.000371090598290598 0
 0.00037159072039072 0
 0.000372090842490842 0
 0.000372590964590965 0
 0.000373091086691087 0
 0.000373591208791209 0
 0.000374091330891331 0
 0.000374591452991453 0
 0.000375091575091575 0
 0.000375591697191697 0
 0.000376091819291819 0
 0.000376591941391941 0
 0.000377092063492063 0
 0.000377592185592186 0
 0.000378092307692308 0
 0.00037859242979243 0
 0.000379092551892552 0
 0.000379592673992674 0
 0.000380092796092796 0
 0.000380592918192918 0
 0.00038109304029304 0
 0.000381593162393162 0
 0.000382093284493284 0
 0.000382593406593407 0
 0.000383093528693529 0
 0.000383593650793651 0
 0.000384093772893773 0
 0.000384593894993895 0
 0.000385094017094017 0
 0.000385594139194139 0
 0.000386094261294261 0
 0.000386594383394383 0
 0.000387094505494505 0
 0.000387594627594628 0
 0.00038809474969475 0
 0.000388594871794872 0
 0.000389094993894994 0
 0.000389595115995116 0
 0.000390095238095238 0
 0.00039059536019536 0
 0.000391095482295482 0
 0.000391595604395604 0
 0.000392095726495726 0
 0.000392595848595849 0
 0.000393095970695971 0
 0.000393596092796093 0
 0.000394096214896215 0
 0.000394596336996337 0
 0.000395096459096459 0
 0.000395596581196581 0
 0.000396096703296703 0
 0.000396596825396825 0
 0.000397096947496947 0
 0.00039759706959707 0
 0.000398097191697192 0
 0.000398597313797314 0
 0.000399097435897436 0
 0.000399597557997558 0
 0.00040009768009768 0
 0.000400597802197802 0
 0.000401097924297924 0
 0.000401598046398046 0
 0.000402098168498168 0
 0.000402598290598291 0
 0.000403098412698413 0
 0.000403598534798535 0
 0.000404098656898657 0
 0.000404598778998779 0
 0.000405098901098901 0
 0.000405599023199023 0
 0.000406099145299145 0
 0.000406599267399267 0
 0.000407099389499389 0
 0.000407599511599512 0
 0.000408099633699634 0
 0.000408599755799756 0
 0.000409099877899878 0
 0.0004096 0
 0.000410100122100122 0
 0.000410600244200244 0
 0.000411100366300366 0
 0.000411600488400488 0
 0.000412100610500611 0
 0.000412600732600733 0
 0.000413100854700855 0
 0.000413600976800977 0
 0.000414101098901099 0
 0.000414601221001221 0
 0.000415101343101343 0
 0.000415601465201465 0
 0.000416101587301587 0
 0.000416601709401709 0
 0.000417101831501831 0
 0.000417601953601954 0
 0.000418102075702076 0
 0.000418602197802198 0
 0.00041910231990232 0
 0.000419602442002442 0
 0.000420102564102564 0
 0.000420602686202686 0
 0.000421102808302808 0
 0.00042160293040293 0
 0.000422103052503052 0
 0.000422603174603175 0
 0.000423103296703297 0
 0.000423603418803419 0
 0.000424103540903541 0
 0.000424603663003663 0
 0.000425103785103785 0
 0.000425603907203907 0
 0.000426104029304029 0
 0.000426604151404151 0
 0.000427104273504274 0
 0.000427604395604396 0
 0.000428104517704518 0
 0.00042860463980464 0
 0.000429104761904762 0
 0.000429604884004884 0
 0.000430105006105006 0
 0.000430605128205128 0
 0.00043110525030525 0
 0.000431605372405372 0
 0.000432105494505495 0
 0.000432605616605617 0
 0.000433105738705739 0
 0.000433605860805861 0
 0.000434105982905983 0
 0.000434606105006105 0
 0.000435106227106227 0
 0.000435606349206349 0
 0.000436106471306471 0
 0.000436606593406593 0
 0.000437106715506715 0
 0.000437606837606838 0
 0.00043810695970696 0
 0.000438607081807082 0
 0.000439107203907204 0
 0.000439607326007326 0
 0.000440107448107448 0
 0.00044060757020757 0
 0.000441107692307692 0
 0.000441607814407814 0
 0.000442107936507937 0
 0.000442608058608059 0
 0.000443108180708181 0
 0.000443608302808303 0
 0.000444108424908425 0
 0.000444608547008547 0
 0.000445108669108669 0
 0.000445608791208791 0
 0.000446108913308913 0
 0.000446609035409035 0
 0.000447109157509157 0
 0.00044760927960928 0
 0.000448109401709402 0
 0.000448609523809524 0
 0.000449109645909646 0
 0.000449609768009768 0
 0.00045010989010989 0
 0.000450610012210012 0
 0.000451110134310134 0
 0.000451610256410256 0
 0.000452110378510378 0
 0.000452610500610501 0
 0.000453110622710623 0
 0.000453610744810745 0
 0.000454110866910867 0
 0.000454610989010989 0
 0.000455111111111111 0
 0.000455611233211233 0
 0.000456111355311355 0
 0.000456611477411477 0
 0.000457111599511599 0
 0.000457611721611722 0
 0.000458111843711844 0
 0.000458611965811966 0
 0.000459112087912088 0
 0.00045961221001221 0
 0.000460112332112332 0
 0.000460612454212454 0
 0.000461112576312576 0
 0.000461612698412698 0
 0.00046211282051282 0
 0.000462612942612943 0
 0.000463113064713065 0
 0.000463613186813187 0
 0.000464113308913309 0
 0.000464613431013431 0
 0.000465113553113553 0
 0.000465613675213675 0
 0.000466113797313797 0
 0.000466613919413919 0
 0.000467114041514041 0
 0.000467614163614164 0
 0.000468114285714286 0
 0.000468614407814408 0
 0.00046911452991453 0
 0.000469614652014652 0
 0.000470114774114774 0
 0.000470614896214896 0
 0.000471115018315018 0
 0.00047161514041514 0
 0.000472115262515263 0
 0.000472615384615385 0
 0.000473115506715507 0
 0.000473615628815629 0
 0.000474115750915751 0
 0.000474615873015873 0
 0.000475115995115995 0
 0.000475616117216117 0
 0.000476116239316239 0
 0.000476616361416361 0
 0.000477116483516484 0
 0.000477616605616606 0
 0.000478116727716728 0
 0.00047861684981685 0
 0.000479116971916972 0
 0.000479617094017094 0
 0.000480117216117216 0
 0.000480617338217338 0
 0.00048111746031746 0
 0.000481617582417582 0
 0.000482117704517704 0
 0.000482617826617827 0
 0.000483117948717949 0
 0.000483618070818071 0
 0.000484118192918193 0
 0.000484618315018315 0
 0.000485118437118437 0
 0.000485618559218559 0
 0.000486118681318681 0
 0.000486618803418803 0
 0.000487118925518925 0
 0.000487619047619048 0
 0.00048811916971917 0
 0.000488619291819292 0
 0.000489119413919414 0
 0.000489619536019536 0
 0.000490119658119658 0
 0.00049061978021978 0
 0.000491119902319902 0
 0.000491620024420024 0
 0.000492120146520146 0
 0.000492620268620269 0
 0.000493120390720391 0
 0.000493620512820513 0
 0.000494120634920635 0
 0.000494620757020757 0
 0.000495120879120879 0
 0.000495621001221001 0
 0.000496121123321123 0
 0.000496621245421245 0
 0.000497121367521368 0
 0.00049762148962149 0
 0.000498121611721612 0
 0.000498621733821734 0
 0.000499121855921856 0
 0.000499621978021978 0
 0.0005001221001221 0
 0.000500622222222222 0
 0.000501122344322344 0
 0.000501622466422466 0
 0.000502122588522588 0
 0.000502622710622711 0
 0.000503122832722833 0
 0.000503622954822955 0
 0.000504123076923077 0
 0.000504623199023199 0
 0.000505123321123321 0
 0.000505623443223443 0
 0.000506123565323565 0
 0.000506623687423687 0
 0.000507123809523809 0
 0.000507623931623932 0
 0.000508124053724054 0
 0.000508624175824176 0
 0.000509124297924298 0
 0.00050962442002442 0
 0.000510124542124542 0
 0.000510624664224664 0
 0.000511124786324786 0
 0.000511624908424908 0
 0.000512125030525031 0
 0.000512625152625153 0
 0.000513125274725275 0
 0.000513625396825397 0
 0.000514125518925519 0
 0.000514625641025641 0
 0.000515125763125763 0
 0.000515625885225885 0
 0.000516126007326007 0
 0.000516626129426129 0
 0.000517126251526251 0
 0.000517626373626374 0
 0.000518126495726496 0
 0.000518626617826618 0
 0.00051912673992674 0
 0.000519626862026862 0
 0.000520126984126984 0
 0.000520627106227106 0
 0.000521127228327228 0
 0.00052162735042735 0
 0.000522127472527472 0
 0.000522627594627595 0
 0.000523127716727717 0
 0.000523627838827839 0
 0.000524127960927961 0
 0.000524628083028083 0
 0.000525128205128205 0
 0.000525628327228327 0
 0.000526128449328449 0
 0.000526628571428571 0
 0.000527128693528693 0
 0.000527628815628816 0
 0.000528128937728938 0
 0.00052862905982906 0
 0.000529129181929182 0
 0.000529629304029304 0
 0.000530129426129426 0
 0.000530629548229548 0
 0.00053112967032967 0
 0.000531629792429792 0
 0.000532129914529915 0
 0.000532630036630037 0
 0.000533130158730159 0
 0.000533630280830281 0
 0.000534130402930403 0
 0.000534630525030525 0
 0.000535130647130647 0
 0.000535630769230769 0
 0.000536130891330891 0
 0.000536631013431013 0
 0.000537131135531136 0
 0.000537631257631258 0
 0.00053813137973138 0
 0.000538631501831502 0
 0.000539131623931624 0
 0.000539631746031746 0
 0.000540131868131868 0
 0.00054063199023199 0
 0.000541132112332112 0
 0.000541632234432234 0
 0.000542132356532357 0
 0.000542632478632479 0
 0.000543132600732601 0
 0.000543632722832723 0
 0.000544132844932845 0
 0.000544632967032967 0
 0.000545133089133089 0
 0.000545633211233211 0
 0.000546133333333333 0
 0.000546633455433455 0
 0.000547133577533577 0
 0.0005476336996337 0
 0.000548133821733822 0
 0.000548633943833944 0
 0.000549134065934066 0
 0.000549634188034188 0
 0.00055013431013431 0
 0.000550634432234432 0
 0.000551134554334554 0
 0.000551634676434676 0
 0.000552134798534799 0
 0.000552634920634921 0
 0.000553135042735043 0
 0.000553635164835165 0
 0.000554135286935287 0
 0.000554635409035409 0
 0.000555135531135531 0
 0.000555635653235653 0
 0.000556135775335775 0
 0.000556635897435897 0
 0.000557136019536019 0
 0.000557636141636142 0
 0.000558136263736264 0
 0.000558636385836386 0
 0.000559136507936508 0
 0.00055963663003663 0
 0.000560136752136752 0
 0.000560636874236874 0
 0.000561136996336996 0
 0.000561637118437118 0
 0.000562137240537241 0
 0.000562637362637363 0
 0.000563137484737485 0
 0.000563637606837607 0
 0.000564137728937729 0
 0.000564637851037851 0
 0.000565137973137973 0
 0.000565638095238095 0
 0.000566138217338217 0
 0.000566638339438339 0
 0.000567138461538462 0
 0.000567638583638584 0
 0.000568138705738706 0
 0.000568638827838828 0
 0.00056913894993895 0
 0.000569639072039072 0
 0.000570139194139194 0
 0.000570639316239316 0
 0.000571139438339438 0
 0.00057163956043956 0
 0.000572139682539682 0
 0.000572639804639805 0
 0.000573139926739927 0
 0.000573640048840049 0
 0.000574140170940171 0
 0.000574640293040293 0
 0.000575140415140415 0
 0.000575640537240537 0
 0.000576140659340659 0
 0.000576640781440781 0
 0.000577140903540904 0
 0.000577641025641026 0
 0.000578141147741148 0
 0.00057864126984127 0
 0.000579141391941392 0
 0.000579641514041514 0
 0.000580141636141636 0
 0.000580641758241758 0
 0.00058114188034188 0
 0.000581642002442002 0
 0.000582142124542124 0
 0.000582642246642247 0
 0.000583142368742369 0
 0.000583642490842491 0
 0.000584142612942613 0
 0.000584642735042735 0
 0.000585142857142857 0
 0.000585642979242979 0
 0.000586143101343101 0
 0.000586643223443223 0
 0.000587143345543345 0
 0.000587643467643468 0
 0.00058814358974359 0
 0.000588643711843712 0
 0.000589143833943834 0
 0.000589643956043956 0
 0.000590144078144078 0
 0.0005906442002442 0
 0.000591144322344322 0
 0.000591644444444444 0
 0.000592144566544566 0
 0.000592644688644689 0
 0.000593144810744811 0
 0.000593644932844933 0
 0.000594145054945055 0
 0.000594645177045177 0
 0.000595145299145299 0
 0.000595645421245421 0
 0.000596145543345543 0
 0.000596645665445666 0
 0.000597145787545788 0
 0.00059764590964591 0
 0.000598146031746032 0
 0.000598646153846154 0
 0.000599146275946276 0
 0.000599646398046398 0
 0.00060014652014652 0
 0.000600646642246642 0
 0.000601146764346764 0
 0.000601646886446886 0
 0.000602147008547009 0
 0.000602647130647131 0
 0.000603147252747253 0
 0.000603647374847375 0
 0.000604147496947497 0
 0.000604647619047619 0
 0.000605147741147741 0
 0.000605647863247863 0
 0.000606147985347985 0
 0.000606648107448107 0
 0.00060714822954823 0
 0.000607648351648352 0
 0.000608148473748474 0
 0.000608648595848596 0
 0.000609148717948718 0
 0.00060964884004884 0
 0.000610148962148962 0
 0.000610649084249084 0
 0.000611149206349206 0
 0.000611649328449328 0
 0.00061214945054945 0
 0.000612649572649573 0
 0.000613149694749695 0
 0.000613649816849817 0
 0.000614149938949939 0
 0.000614650061050061 0
 0.000615150183150183 0
 0.000615650305250305 0
 0.000616150427350427 0
 0.000616650549450549 0
 0.000617150671550672 0
 0.000617650793650794 0
 0.000618150915750916 0
 0.000618651037851038 0
 0.00061915115995116 0
 0.000619651282051282 0
 0.000620151404151404 0
 0.000620651526251526 0
 0.000621151648351648 0
 0.00062165177045177 0
 0.000622151892551892 0
 0.000622652014652015 0
 0.000623152136752137 0
 0.000623652258852259 0
 0.000624152380952381 0
 0.000624652503052503 0
 0.000625152625152625 0
 0.000625652747252747 0
 0.000626152869352869 0
 0.000626652991452991 0
 0.000627153113553114 0
 0.000627653235653236 0
 0.000628153357753358 0
 0.00062865347985348 0
 0.000629153601953602 0
 0.000629653724053724 0
 0.000630153846153846 0
 0.000630653968253968 0
 0.00063115409035409 0
 0.000631654212454212 0
 0.000632154334554335 0
 0.000632654456654457 0
 0.000633154578754579 0
 0.000633654700854701 0
 0.000634154822954823 0
 0.000634654945054945 0
 0.000635155067155067 0
 0.000635655189255189 0
 0.000636155311355311 0
 0.000636655433455433 0
 0.000637155555555556 0
 0.000637655677655678 0
 0.0006381557997558 0
 0.000638655921855922 0
 0.000639156043956044 0
 0.000639656166056166 0
 0.000640156288156288 0
 0.00064065641025641 0
 0.000641156532356532 0
 0.000641656654456654 0
 0.000642156776556777 0
 0.000642656898656899 0
 0.000643157020757021 0
 0.000643657142857143 0
 0.000644157264957265 0
 0.000644657387057387 0
 0.000645157509157509 0
 0.000645657631257631 0
 0.000646157753357753 0
 0.000646657875457875 0
 0.000647157997557997 0
 0.00064765811965812 0
 0.000648158241758242 0
 0.000648658363858364 0
 0.000649158485958486 0
 0.000649658608058608 0
 0.00065015873015873 0
 0.000650658852258852 0
 0.000651158974358974 0
 0.000651659096459096 0
 0.000652159218559218 0
 0.000652659340659341 0
 0.000653159462759463 0
 0.000653659584859585 0
 0.000654159706959707 0
 0.000654659829059829 0
 0.000655159951159951 0
 0.000655660073260073 0
 0.000656160195360195 0
 0.000656660317460317 0
 0.00065716043956044 0
 0.000657660561660562 0
 0.000658160683760684 0
 0.000658660805860806 0
 0.000659160927960928 0
 0.00065966105006105 0
 0.000660161172161172 0
 0.000660661294261294 0
 0.000661161416361416 0
 0.000661661538461539 0
 0.000662161660561661 0
 0.000662661782661783 0
 0.000663161904761905 0
 0.000663662026862027 0
 0.000664162148962149 0
 0.000664662271062271 0
 0.000665162393162393 0
 0.000665662515262515 0
 0.000666162637362637 0
 0.000666662759462759 0
 0.000667162881562882 0
 0.000667663003663004 0
 0.000668163125763126 0
 0.000668663247863248 0
 0.00066916336996337 0
 0.000669663492063492 0
 0.000670163614163614 0
 0.000670663736263736 0
 0.000671163858363858 0
 0.00067166398046398 0
 0.000672164102564103 0
 0.000672664224664225 0
 0.000673164346764347 0
 0.000673664468864469 0
 0.000674164590964591 0
 0.000674664713064713 0
 0.000675164835164835 0
 0.000675664957264957 0
 0.000676165079365079 0
 0.000676665201465201 0
 0.000677165323565323 0
 0.000677665445665446 0
 0.000678165567765568 0
 0.00067866568986569 0
 0.000679165811965812 0
 0.000679665934065934 0
 0.000680166056166056 0
 0.000680666178266178 0
 0.0006811663003663 0
 0.000681666422466422 0
 0.000682166544566545 0
 0.000682666666666667 0
 0.000683166788766789 0
 0.000683666910866911 0
 0.000684167032967033 0
 0.000684667155067155 0
 0.000685167277167277 0
 0.000685667399267399 0
 0.000686167521367521 0
 0.000686667643467643 0
 0.000687167765567765 0
 0.000687667887667888 0
 0.00068816800976801 0
 0.000688668131868132 0
 0.000689168253968254 0
 0.000689668376068376 0
 0.000690168498168498 0
 0.00069066862026862 0
 0.000691168742368742 0
 0.000691668864468864 0
 0.000692168986568987 0
 0.000692669108669109 0
 0.000693169230769231 0
 0.000693669352869353 0
 0.000694169474969475 0
 0.000694669597069597 0
 0.000695169719169719 0
 0.000695669841269841 0
 0.000696169963369963 0
 0.000696670085470085 0
 0.000697170207570208 0
 0.00069767032967033 0
 0.000698170451770452 0
 0.000698670573870574 0
 0.000699170695970696 0
 0.000699670818070818 0
 0.00070017094017094 0
 0.000700671062271062 0
 0.000701171184371184 0
 0.000701671306471306 0
 0.000702171428571429 0
 0.000702671550671551 0
 0.000703171672771673 0
 0.000703671794871795 0
 0.000704171916971917 0
 0.000704672039072039 0
 0.000705172161172161 0
 0.000705672283272283 0
 0.000706172405372405 0
 0.000706672527472527 0
 0.00070717264957265 0
 0.000707672771672772 0
 0.000708172893772894 0
 0.000708673015873016 0
 0.000709173137973138 0
 0.00070967326007326 0
 0.000710173382173382 0
 0.000710673504273504 0
 0.000711173626373626 0
 0.000711673748473748 0
 0.000712173870573871 0
 0.000712673992673993 0
 0.000713174114774115 0
 0.000713674236874237 0
 0.000714174358974359 0
 0.000714674481074481 0
 0.000715174603174603 0
 0.000715674725274725 0
 0.000716174847374847 0
 0.000716674969474969 0
 0.000717175091575091 0
 0.000717675213675214 0
 0.000718175335775336 0
 0.000718675457875458 0
 0.00071917557997558 0
 0.000719675702075702 0
 0.000720175824175824 0
 0.000720675946275946 0
 0.000721176068376068 0
 0.00072167619047619 0
 0.000722176312576313 0
 0.000722676434676435 0
 0.000723176556776557 0
 0.000723676678876679 0
 0.000724176800976801 0
 0.000724676923076923 0
 0.000725177045177045 0
 0.000725677167277167 0
 0.000726177289377289 0
 0.000726677411477412 0
 0.000727177533577534 0
 0.000727677655677656 0
 0.000728177777777778 0
 0.0007286778998779 0
 0.000729178021978022 0
 0.000729678144078144 0
 0.000730178266178266 0
 0.000730678388278388 0
 0.00073117851037851 0
 0.000731678632478632 0
 0.000732178754578755 0
 0.000732678876678877 0
 0.000733178998778999 0
 0.000733679120879121 0
 0.000734179242979243 0
 0.000734679365079365 0
 0.000735179487179487 0
 0.000735679609279609 0
 0.000736179731379731 0
 0.000736679853479853 0
 0.000737179975579976 0
 0.000737680097680098 0
 0.00073818021978022 0
 0.000738680341880342 0
 0.000739180463980464 0
 0.000739680586080586 0
 0.000740180708180708 0
 0.00074068083028083 0
 0.000741180952380952 0
 0.000741681074481074 0
 0.000742181196581196 0
 0.000742681318681319 0
 0.000743181440781441 0
 0.000743681562881563 0
 0.000744181684981685 0
 0.000744681807081807 0
 0.000745181929181929 0
 0.000745682051282051 0
 0.000746182173382173 0
 0.000746682295482295 0
 0.000747182417582418 0
 0.00074768253968254 0
 0.000748182661782662 0
 0.000748682783882784 0
 0.000749182905982906 0
 0.000749683028083028 0
 0.00075018315018315 0
 0.000750683272283272 0
 0.000751183394383394 0
 0.000751683516483516 0
 0.000752183638583639 0
 0.000752683760683761 0
 0.000753183882783883 0
 0.000753684004884005 0
 0.000754184126984127 0
 0.000754684249084249 0
 0.000755184371184371 0
 0.000755684493284493 0
 0.000756184615384615 0
 0.000756684737484738 0
 0.00075718485958486 0
 0.000757684981684982 0
 0.000758185103785104 0
 0.000758685225885226 0
 0.000759185347985348 0
 0.00075968547008547 0
 0.000760185592185592 0
 0.000760685714285714 0
 0.000761185836385836 0
 0.000761685958485958 0
 0.000762186080586081 0
 0.000762686202686203 0
 0.000763186324786325 0
 0.000763686446886447 0
 0.000764186568986569 0
 0.000764686691086691 0
 0.000765186813186813 0
 0.000765686935286935 0
 0.000766187057387057 0
 0.000766687179487179 0
 0.000767187301587302 0
 0.000767687423687424 0
 0.000768187545787546 0
 0.000768687667887668 0
 0.00076918778998779 0
 0.000769687912087912 0
 0.000770188034188034 0
 0.000770688156288156 0
 0.000771188278388278 0
 0.0007716884004884 0
 0.000772188522588523 0
 0.000772688644688645 0
 0.000773188766788767 0
 0.000773688888888889 0
 0.000774189010989011 0
 0.000774689133089133 0
 0.000775189255189255 0
 0.000775689377289377 0
 0.000776189499389499 0
 0.000776689621489621 0
 0.000777189743589744 0
 0.000777689865689866 0
 0.000778189987789988 0
 0.00077869010989011 0
 0.000779190231990232 0
 0.000779690354090354 0
 0.000780190476190476 0
 0.000780690598290598 0
 0.00078119072039072 0
 0.000781690842490842 0
 0.000782190964590964 0
 0.000782691086691087 0
 0.000783191208791209 0
 0.000783691330891331 0
 0.000784191452991453 0
 0.000784691575091575 0
 0.000785191697191697 0
 0.000785691819291819 0
 0.000786191941391941 0
 0.000786692063492063 0
 0.000787192185592186 0
 0.000787692307692308 0
 0.00078819242979243 0
 0.000788692551892552 0
 0.000789192673992674 0
 0.000789692796092796 0
 0.000790192918192918 0
 0.00079069304029304 0
 0.000791193162393162 0
 0.000791693284493285 0
 0.000792193406593407 0
 0.000792693528693529 0
 0.000793193650793651 0
 0.000793693772893773 0
 0.000794193894993895 0
 0.000794694017094017 0
 0.000795194139194139 0
 0.000795694261294261 0
 0.000796194383394383 0
 0.000796694505494505 0
 0.000797194627594628 0
 0.00079769474969475 0
 0.000798194871794872 0
 0.000798694993894994 0
 0.000799195115995116 0
 0.000799695238095238 0
 0.00080019536019536 0
 0.000800695482295482 0
 0.000801195604395604 0
 0.000801695726495726 0
 0.000802195848595849 0
 0.000802695970695971 0
 0.000803196092796093 0
 0.000803696214896215 0
 0.000804196336996337 0
 0.000804696459096459 0
 0.000805196581196581 0
 0.000805696703296703 0
 0.000806196825396825 0
 0.000806696947496947 0
 0.000807197069597069 0
 0.000807697191697192 0
 0.000808197313797314 0
 0.000808697435897436 0
 0.000809197557997558 0
 0.00080969768009768 0
 0.000810197802197802 0
 0.000810697924297924 0
 0.000811198046398046 0
 0.000811698168498168 0
 0.000812198290598291 0
 0.000812698412698413 0
 0.000813198534798535 0
 0.000813698656898657 0
 0.000814198778998779 0
 0.000814698901098901 0
 0.000815199023199023 0
 0.000815699145299145 0
 0.000816199267399267 0
 0.000816699389499389 0
 0.000817199511599512 0
 0.000817699633699634 0
 0.000818199755799756 0
 0.000818699877899878 0
 0.0008192 0
 0.000819700122100122 0
 0.000820200244200244 0
 0.000820700366300366 0
 0.000821200488400488 0
 0.000821700610500611 0
 0.000822200732600733 0
 0.000822700854700855 0
 0.000823200976800977 0
 0.000823701098901099 0
 0.000824201221001221 0
 0.000824701343101343 0
 0.000825201465201465 0
 0.000825701587301587 0
 0.000826201709401709 0
 0.000826701831501831 0
 0.000827201953601954 0
 0.000827702075702076 0
 0.000828202197802198 0
 0.00082870231990232 0
 0.000829202442002442 0
 0.000829702564102564 0
 0.000830202686202686 0
 0.000830702808302808 0
 0.00083120293040293 0
 0.000831703052503053 0
 0.000832203174603175 0
 0.000832703296703297 0
 0.000833203418803419 0
 0.000833703540903541 0
 0.000834203663003663 0
 0.000834703785103785 0
 0.000835203907203907 0
 0.000835704029304029 0
 0.000836204151404151 0
 0.000836704273504273 0
 0.000837204395604396 0
 0.000837704517704518 0
 0.00083820463980464 0
 0.000838704761904762 0
 0.000839204884004884 0
 0.000839705006105006 0
 0.000840205128205128 0
 0.00084070525030525 0
 0.000841205372405372 0
 0.000841705494505494 0
 0.000842205616605617 0
 0.000842705738705739 0
 0.000843205860805861 0
 0.000843705982905983 0
 0.000844206105006105 0
 0.000844706227106227 0
 0.000845206349206349 0
 0.000845706471306471 0
 0.000846206593406593 0
 0.000846706715506715 0
 0.000847206837606837 0
 0.00084770695970696 0
 0.000848207081807082 0
 0.000848707203907204 0
 0.000849207326007326 0
 0.000849707448107448 0
 0.00085020757020757 0
 0.000850707692307692 0
 0.000851207814407814 0
 0.000851707936507936 0
 0.000852208058608059 0
 0.000852708180708181 0
 0.000853208302808303 0
 0.000853708424908425 0
 0.000854208547008547 0
 0.000854708669108669 0
 0.000855208791208791 0
 0.000855708913308913 0
 0.000856209035409035 0
 0.000856709157509158 0
 0.00085720927960928 0
 0.000857709401709402 0
 0.000858209523809524 0
 0.000858709645909646 0
 0.000859209768009768 0
 0.00085970989010989 0
 0.000860210012210012 0
 0.000860710134310134 0
 0.000861210256410256 0
 0.000861710378510378 0
 0.000862210500610501 0
 0.000862710622710623 0
 0.000863210744810745 0
 0.000863710866910867 0
 0.000864210989010989 0
 0.000864711111111111 0
 0.000865211233211233 0
 0.000865711355311355 0
 0.000866211477411477 0
 0.000866711599511599 0
 0.000867211721611722 0
 0.000867711843711844 0
 0.000868211965811966 0
 0.000868712087912088 0
 0.00086921221001221 0
 0.000869712332112332 0
 0.000870212454212454 0
 0.000870712576312576 0
 0.000871212698412698 0
 0.00087171282051282 0
 0.000872212942612943 0
 0.000872713064713065 0
 0.000873213186813187 0
 0.000873713308913309 0
 0.000874213431013431 0
 0.000874713553113553 0
 0.000875213675213675 0
 0.000875713797313797 0
 0.000876213919413919 0
 0.000876714041514041 0
 0.000877214163614164 0
 0.000877714285714286 0
 0.000878214407814408 0
 0.00087871452991453 0
 0.000879214652014652 0
 0.000879714774114774 0
 0.000880214896214896 0
 0.000880715018315018 0
 0.00088121514041514 0
 0.000881715262515262 0
 0.000882215384615385 0
 0.000882715506715507 0
 0.000883215628815629 0
 0.000883715750915751 0
 0.000884215873015873 0
 0.000884715995115995 0
 0.000885216117216117 0
 0.000885716239316239 0
 0.000886216361416361 0
 0.000886716483516484 0
 0.000887216605616606 0
 0.000887716727716728 0
 0.00088821684981685 0
 0.000888716971916972 0
 0.000889217094017094 0
 0.000889717216117216 0
 0.000890217338217338 0
 0.00089071746031746 0
 0.000891217582417582 0
 0.000891717704517704 0
 0.000892217826617827 0
 0.000892717948717949 0
 0.000893218070818071 0
 0.000893718192918193 0
 0.000894218315018315 0
 0.000894718437118437 0
 0.000895218559218559 0
 0.000895718681318681 0
 0.000896218803418803 0
 0.000896718925518926 0
 0.000897219047619048 0
 0.00089771916971917 0
 0.000898219291819292 0
 0.000898719413919414 0
 0.000899219536019536 0
 0.000899719658119658 0
 0.00090021978021978 0
 0.000900719902319902 0
 0.000901220024420024 0
 0.000901720146520146 0
 0.000902220268620269 0
 0.000902720390720391 0
 0.000903220512820513 0
 0.000903720634920635 0
 0.000904220757020757 0
 0.000904720879120879 0
 0.000905221001221001 0
 0.000905721123321123 0
 0.000906221245421245 0
 0.000906721367521367 0
 0.00090722148962149 0
 0.000907721611721612 0
 0.000908221733821734 0
 0.000908721855921856 0
 0.000909221978021978 0
 0.0009097221001221 0
 0.000910222222222222 0
 0.000910722344322344 0
 0.000911222466422466 0
 0.000911722588522588 0
 0.00091222271062271 0
 0.000912722832722833 0
 0.000913222954822955 0
 0.000913723076923077 0
 0.000914223199023199 0
 0.000914723321123321 0
 0.000915223443223443 0
 0.000915723565323565 0
 0.000916223687423687 0
 0.00091672380952381 0
 0.000917223931623932 0
 0.000917724053724054 0
 0.000918224175824176 0
 0.000918724297924298 0
 0.00091922442002442 0
 0.000919724542124542 0
 0.000920224664224664 0
 0.000920724786324786 0
 0.000921224908424908 0
 0.000921725030525031 0
 0.000922225152625153 0
 0.000922725274725275 0
 0.000923225396825397 0
 0.000923725518925519 0
 0.000924225641025641 0
 0.000924725763125763 0
 0.000925225885225885 0
 0.000925726007326007 0
 0.000926226129426129 0
 0.000926726251526251 0
 0.000927226373626374 0
 0.000927726495726496 0
 0.000928226617826618 0
 0.00092872673992674 0
 0.000929226862026862 0
 0.000929726984126984 0
 0.000930227106227106 0
 0.000930727228327228 0
 0.00093122735042735 0
 0.000931727472527472 0
 0.000932227594627595 0
 0.000932727716727717 0
 0.000933227838827839 0
 0.000933727960927961 0
 0.000934228083028083 0
 0.000934728205128205 0
 0.000935228327228327 0
 0.000935728449328449 0
 0.000936228571428571 0
 0.000936728693528693 0
 0.000937228815628816 0
 0.000937728937728938 0
 0.00093822905982906 0
 0.000938729181929182 0
 0.000939229304029304 0
 0.000939729426129426 0
 0.000940229548229548 0
 0.00094072967032967 0
 0.000941229792429792 0
 0.000941729914529914 0
 0.000942230036630037 0
 0.000942730158730159 0
 0.000943230280830281 0
 0.000943730402930403 0
 0.000944230525030525 0
 0.000944730647130647 0
 0.000945230769230769 0
 0.000945730891330891 0
 0.000946231013431013 0
 0.000946731135531135 0
 0.000947231257631258 0
 0.00094773137973138 0
 0.000948231501831502 0
 0.000948731623931624 0
 0.000949231746031746 0
 0.000949731868131868 0
 0.00095023199023199 0
 0.000950732112332112 0
 0.000951232234432234 0
 0.000951732356532357 0
 0.000952232478632479 0
 0.000952732600732601 0
 0.000953232722832723 0
 0.000953732844932845 0
 0.000954232967032967 0
 0.000954733089133089 0
 0.000955233211233211 0
 0.000955733333333333 0
 0.000956233455433455 0
 0.000956733577533577 0
 0.0009572336996337 0
 0.000957733821733822 0
 0.000958233943833944 0
 0.000958734065934066 0
 0.000959234188034188 0
 0.00095973431013431 0
 0.000960234432234432 0
 0.000960734554334554 0
 0.000961234676434676 0
 0.000961734798534799 0
 0.000962234920634921 0
 0.000962735042735043 0
 0.000963235164835165 0
 0.000963735286935287 0
 0.000964235409035409 0
 0.000964735531135531 0
 0.000965235653235653 0
 0.000965735775335775 0
 0.000966235897435897 0
 0.000966736019536019 0
 0.000967236141636142 0
 0.000967736263736264 0
 0.000968236385836386 0
 0.000968736507936508 0
 0.00096923663003663 0
 0.000969736752136752 0
 0.000970236874236874 0
 0.000970736996336996 0
 0.000971237118437118 0
 0.00097173724053724 0
 0.000972237362637363 0
 0.000972737484737485 0
 0.000973237606837607 0
 0.000973737728937729 0
 0.000974237851037851 0
 0.000974737973137973 0
 0.000975238095238095 0
 0.000975738217338217 0
 0.000976238339438339 0
 0.000976738461538462 0
 0.000977238583638584 0
 0.000977738705738706 0
 0.000978238827838828 0
 0.00097873894993895 0
 0.000979239072039072 0
 0.000979739194139194 0
 0.000980239316239316 0
 0.000980739438339438 0
 0.00098123956043956 0
 0.000981739682539682 0
 0.000982239804639805 0
 0.000982739926739927 0
 0.000983240048840049 0
 0.000983740170940171 0
 0.000984240293040293 0
 0.000984740415140415 0
 0.000985240537240537 0
 0.000985740659340659 0
 0.000986240781440781 0
 0.000986740903540904 0
 0.000987241025641026 0
 0.000987741147741148 0
 0.00098824126984127 0
 0.000988741391941392 0
 0.000989241514041514 0
 0.000989741636141636 0
 0.000990241758241758 0
 0.00099074188034188 0
 0.000991242002442002 0
 0.000991742124542125 0
 0.000992242246642247 0
 0.000992742368742369 0
 0.000993242490842491 0
 0.000993742612942613 0
 0.000994242735042735 0
 0.000994742857142857 0
 0.000995242979242979 0
 0.000995743101343101 0
 0.000996243223443223 0
 0.000996743345543345 0
 0.000997243467643468 0
 0.00099774358974359 0
 0.000998243711843712 0
 0.000998743833943834 0
 0.000999243956043956 0
 0.000999744078144078 0
 0.0010002442002442 0
 0.00100074432234432 0
 0.00100124444444444 0
 0.00100174456654457 0
 0.00100224468864469 0
 0.00100274481074481 0
 0.00100324493284493 0
 0.00100374505494505 0
 0.00100424517704518 0
 0.0010047452991453 0
 0.00100524542124542 0
 0.00100574554334554 0
 0.00100624566544567 0
 0.00100674578754579 0
 0.00100724590964591 0
 0.00100774603174603 0
 0.00100824615384615 0
 0.00100874627594628 0
 0.0010092463980464 0
 0.00100974652014652 0
 0.00101024664224664 0
 0.00101074676434676 0
 0.00101124688644689 0
 0.00101174700854701 0
 0.00101224713064713 0
 0.00101274725274725 0
 0.00101324737484737 0
 0.0010137474969475 0
 0.00101424761904762 0
 0.00101474774114774 0
 0.00101524786324786 0
 0.00101574798534799 0
 0.00101624810744811 0
 0.00101674822954823 0
 0.00101724835164835 0
 0.00101774847374847 0
 0.0010182485958486 0
 0.00101874871794872 0
 0.00101924884004884 0
 0.00101974896214896 0
 0.00102024908424908 0
 0.00102074920634921 0
 0.00102124932844933 0
 0.00102174945054945 0
 0.00102224957264957 0
 0.00102274969474969 0
 0.00102324981684982 0
 0.00102374993894994 0
 0.00102425006105006 0
 0.00102475018315018 0
 0.00102525030525031 0
 0.00102575042735043 0
 0.00102625054945055 0
 0.00102675067155067 0
 0.00102725079365079 0
 0.00102775091575092 0
 0.00102825103785104 0
 0.00102875115995116 0
 0.00102925128205128 0
 0.0010297514041514 0
 0.00103025152625153 0
 0.00103075164835165 0
 0.00103125177045177 0
 0.00103175189255189 0
 0.00103225201465201 0
 0.00103275213675214 0
 0.00103325225885226 0
 0.00103375238095238 0
 0.0010342525030525 0
 0.00103475262515263 0
 0.00103525274725275 0
 0.00103575286935287 0
 0.00103625299145299 0
 0.00103675311355311 0
 0.00103725323565324 0
 0.00103775335775336 0
 0.00103825347985348 0
 0.0010387536019536 0
 0.00103925372405372 0
 0.00103975384615385 0
 0.00104025396825397 0
 0.00104075409035409 0
 0.00104125421245421 0
 0.00104175433455433 0
 0.00104225445665446 0
 0.00104275457875458 0
 0.0010432547008547 0
 0.00104375482295482 0
 0.00104425494505494 0
 0.00104475506715507 0
 0.00104525518925519 0
 0.00104575531135531 0
 0.00104625543345543 0
 0.00104675555555556 0
 0.00104725567765568 0
 0.0010477557997558 0
 0.00104825592185592 0
 0.00104875604395604 0
 0.00104925616605617 0
 0.00104975628815629 0
 0.00105025641025641 0
 0.00105075653235653 0
 0.00105125665445665 0
 0.00105175677655678 0
 0.0010522568986569 0
 0.00105275702075702 0
 0.00105325714285714 0
 0.00105375726495726 0
 0.00105425738705739 0
 0.00105475750915751 0
 0.00105525763125763 0
 0.00105575775335775 0
 0.00105625787545788 0
 0.001056757997558 0
 0.00105725811965812 0
 0.00105775824175824 0
 0.00105825836385836 0
 0.00105875848595849 0
 0.00105925860805861 0
 0.00105975873015873 0
 0.00106025885225885 0
 0.00106075897435897 0
 0.0010612590964591 0
 0.00106175921855922 0
 0.00106225934065934 0
 0.00106275946275946 0
 0.00106325958485958 0
 0.00106375970695971 0
 0.00106425982905983 0
 0.00106475995115995 0
 0.00106526007326007 0
 0.0010657601953602 0
 0.00106626031746032 0
 0.00106676043956044 0
 0.00106726056166056 0
 0.00106776068376068 0
 0.00106826080586081 0
 0.00106876092796093 0
 0.00106926105006105 0
 0.00106976117216117 0
 0.00107026129426129 0
 0.00107076141636142 0
 0.00107126153846154 0
 0.00107176166056166 0
 0.00107226178266178 0
 0.0010727619047619 0
 0.00107326202686203 0
 0.00107376214896215 0
 0.00107426227106227 0
 0.00107476239316239 0
 0.00107526251526252 0
 0.00107576263736264 0
 0.00107626275946276 0
 0.00107676288156288 0
 0.001077263003663 0
 0.00107776312576313 0
 0.00107826324786325 0
 0.00107876336996337 0
 0.00107926349206349 0
 0.00107976361416361 0
 0.00108026373626374 0
 0.00108076385836386 0
 0.00108126398046398 0
 0.0010817641025641 0
 0.00108226422466422 0
 0.00108276434676435 0
 0.00108326446886447 0
 0.00108376459096459 0
 0.00108426471306471 0
 0.00108476483516484 0
 0.00108526495726496 0
 0.00108576507936508 0
 0.0010862652014652 0
 0.00108676532356532 0
 0.00108726544566545 0
 0.00108776556776557 0
 0.00108826568986569 0
 0.00108876581196581 0
 0.00108926593406593 0
 0.00108976605616606 0
 0.00109026617826618 0
 0.0010907663003663 0
 0.00109126642246642 0
 0.00109176654456654 0
 0.00109226666666667 0
 0.00109276678876679 0
 0.00109326691086691 0
 0.00109376703296703 0
 0.00109426715506715 0
 0.00109476727716728 0
 0.0010952673992674 0
 0.00109576752136752 0
 0.00109626764346764 0
 0.00109676776556777 0
 0.00109726788766789 0
 0.00109776800976801 0
 0.00109826813186813 0
 0.00109876825396825 0
 0.00109926837606838 0
 0.0010997684981685 0
 0.00110026862026862 0
 0.00110076874236874 0
 0.00110126886446886 0
 0.00110176898656899 0
 0.00110226910866911 0
 0.00110276923076923 0
 0.00110326935286935 0
 0.00110376947496947 0
 0.0011042695970696 0
 0.00110476971916972 0
 0.00110526984126984 0
 0.00110576996336996 0
 0.00110627008547009 0
 0.00110677020757021 0
 0.00110727032967033 0
 0.00110777045177045 0
 0.00110827057387057 0
 0.0011087706959707 0
 0.00110927081807082 0
 0.00110977094017094 0
 0.00111027106227106 0
 0.00111077118437118 0
 0.00111127130647131 0
 0.00111177142857143 0
 0.00111227155067155 0
 0.00111277167277167 0
 0.00111327179487179 0
 0.00111377191697192 0
 0.00111427203907204 0
 0.00111477216117216 0
 0.00111527228327228 0
 0.00111577240537241 0
 0.00111627252747253 0
 0.00111677264957265 0
 0.00111727277167277 0
 0.00111777289377289 0
 0.00111827301587302 0
 0.00111877313797314 0
 0.00111927326007326 0
 0.00111977338217338 0
 0.0011202735042735 0
 0.00112077362637363 0
 0.00112127374847375 0
 0.00112177387057387 0
 0.00112227399267399 0
 0.00112277411477411 0
 0.00112327423687424 0
 0.00112377435897436 0
 0.00112427448107448 0
 0.0011247746031746 0
 0.00112527472527473 0
 0.00112577484737485 0
 0.00112627496947497 0
 0.00112677509157509 0
 0.00112727521367521 0
 0.00112777533577534 0
 0.00112827545787546 0
 0.00112877557997558 0
 0.0011292757020757 0
 0.00112977582417582 0
 0.00113027594627595 0
 0.00113077606837607 0
 0.00113127619047619 0
 0.00113177631257631 0
 0.00113227643467643 0
 0.00113277655677656 0
 0.00113327667887668 0
 0.0011337768009768 0
 0.00113427692307692 0
 0.00113477704517705 0
 0.00113527716727717 0
 0.00113577728937729 0
 0.00113627741147741 0
 0.00113677753357753 0
 0.00113727765567766 0
 0.00113777777777778 0
 0.0011382778998779 0
 0.00113877802197802 0
 0.00113927814407814 0
 0.00113977826617827 0
 0.00114027838827839 0
 0.00114077851037851 0
 0.00114127863247863 0
 0.00114177875457875 0
 0.00114227887667888 0
 0.001142778998779 0
 0.00114327912087912 0
 0.00114377924297924 0
 0.00114427936507936 0
 0.00114477948717949 0
 0.00114527960927961 0
 0.00114577973137973 0
 0.00114627985347985 0
 0.00114677997557998 0
 0.0011472800976801 0
 0.00114778021978022 0
 0.00114828034188034 0
 0.00114878046398046 0
 0.00114928058608059 0
 0.00114978070818071 0
 0.00115028083028083 0
 0.00115078095238095 0
 0.00115128107448107 0
 0.0011517811965812 0
 0.00115228131868132 0
 0.00115278144078144 0
 0.00115328156288156 0
 0.00115378168498168 0
 0.00115428180708181 0
 0.00115478192918193 0
 0.00115528205128205 0
 0.00115578217338217 0
 0.0011562822954823 0
 0.00115678241758242 0
 0.00115728253968254 0
 0.00115778266178266 0
 0.00115828278388278 0
 0.00115878290598291 0
 0.00115928302808303 0
 0.00115978315018315 0
 0.00116028327228327 0
 0.00116078339438339 0
 0.00116128351648352 0
 0.00116178363858364 0
 0.00116228376068376 0
 0.00116278388278388 0
 0.001163284004884 0
 0.00116378412698413 0
 0.00116428424908425 0
 0.00116478437118437 0
 0.00116528449328449 0
 0.00116578461538462 0
 0.00116628473748474 0
 0.00116678485958486 0
 0.00116728498168498 0
 0.0011677851037851 0
 0.00116828522588523 0
 0.00116878534798535 0
 0.00116928547008547 0
 0.00116978559218559 0
 0.00117028571428571 0
 0.00117078583638584 0
 0.00117128595848596 0
 0.00117178608058608 0
 0.0011722862026862 0
 0.00117278632478632 0
 0.00117328644688645 0
 0.00117378656898657 0
 0.00117428669108669 0
 0.00117478681318681 0
 0.00117528693528694 0
 0.00117578705738706 0
 0.00117628717948718 0
 0.0011767873015873 0
 0.00117728742368742 0
 0.00117778754578755 0
 0.00117828766788767 0
 0.00117878778998779 0
 0.00117928791208791 0
 0.00117978803418803 0
 0.00118028815628816 0
 0.00118078827838828 0
 0.0011812884004884 0
 0.00118178852258852 0
 0.00118228864468864 0
 0.00118278876678877 0
 0.00118328888888889 0
 0.00118378901098901 0
 0.00118428913308913 0
 0.00118478925518926 0
 0.00118528937728938 0
 0.0011857894993895 0
 0.00118628962148962 0
 0.00118678974358974 0
 0.00118728986568987 0
 0.00118778998778999 0
 0.00118829010989011 0
 0.00118879023199023 0
 0.00118929035409035 0
 0.00118979047619048 0
 0.0011902905982906 0
 0.00119079072039072 0
 0.00119129084249084 0
 0.00119179096459096 0
 0.00119229108669109 0
 0.00119279120879121 0
 0.00119329133089133 0
 0.00119379145299145 0
 0.00119429157509158 0
 0.0011947916971917 0
 0.00119529181929182 0
 0.00119579194139194 0
 0.00119629206349206 0
 0.00119679218559219 0
 0.00119729230769231 0
 0.00119779242979243 0
 0.00119829255189255 0
 0.00119879267399267 0
 0.0011992927960928 0
 0.00119979291819292 0
 0.00120029304029304 0
 0.00120079316239316 0
 0.00120129328449328 0
 0.00120179340659341 0
 0.00120229352869353 0
 0.00120279365079365 0
 0.00120329377289377 0
 0.0012037938949939 0
 0.00120429401709402 0
 0.00120479413919414 0
 0.00120529426129426 0
 0.00120579438339438 0
 0.00120629450549451 0
 0.00120679462759463 0
 0.00120729474969475 0
 0.00120779487179487 0
 0.00120829499389499 0
 0.00120879511599512 0
 0.00120929523809524 0
 0.00120979536019536 0
 0.00121029548229548 0
 0.0012107956043956 0
 0.00121129572649573 0
 0.00121179584859585 0
 0.00121229597069597 0
 0.00121279609279609 0
 0.00121329621489621 0
 0.00121379633699634 0
 0.00121429645909646 0
 0.00121479658119658 0
 0.0012152967032967 0
 0.00121579682539683 0
 0.00121629694749695 0
 0.00121679706959707 0
 0.00121729719169719 0
 0.00121779731379731 0
 0.00121829743589744 0
 0.00121879755799756 0
 0.00121929768009768 0
 0.0012197978021978 0
 0.00122029792429792 0
 0.00122079804639805 0
 0.00122129816849817 0
 0.00122179829059829 0
 0.00122229841269841 0
 0.00122279853479853 0
 0.00122329865689866 0
 0.00122379877899878 0
 0.0012242989010989 0
 0.00122479902319902 0
 0.00122529914529915 0
 0.00122579926739927 0
 0.00122629938949939 0
 0.00122679951159951 0
 0.00122729963369963 0
 0.00122779975579976 0
 0.00122829987789988 0
 0.0012288 0
 0.00122930012210012 0
 0.00122980024420024 0
 0.00123030036630037 0
 0.00123080048840049 0
 0.00123130061050061 0
 0.00123180073260073 0
 0.00123230085470085 0
 0.00123280097680098 0
 0.0012333010989011 0
 0.00123380122100122 0
 0.00123430134310134 0
 0.00123480146520147 0
 0.00123530158730159 0
 0.00123580170940171 0
 0.00123630183150183 0
 0.00123680195360195 0
 0.00123730207570208 0
 0.0012378021978022 0
 0.00123830231990232 0
 0.00123880244200244 0
 0.00123930256410256 0
 0.00123980268620269 0
 0.00124030280830281 0
 0.00124080293040293 0
 0.00124130305250305 0
 0.00124180317460317 0
 0.0012423032967033 0
 0.00124280341880342 0
 0.00124330354090354 0
 0.00124380366300366 0
 0.00124430378510378 0
 0.00124480390720391 0
 0.00124530402930403 0
 0.00124580415140415 0
 0.00124630427350427 0
 0.0012468043956044 0
 0.00124730451770452 0
 0.00124780463980464 0
 0.00124830476190476 0
 0.00124880488400488 0
 0.00124930500610501 0
 0.00124980512820513 0
 0.00125030525030525 0
 0.00125080537240537 0
 0.00125130549450549 0
 0.00125180561660562 0
 0.00125230573870574 0
 0.00125280586080586 0
 0.00125330598290598 0
 0.00125380610500611 0
 0.00125430622710623 0
 0.00125480634920635 0
 0.00125530647130647 0
 0.00125580659340659 0
 0.00125630671550672 0
 0.00125680683760684 0
 0.00125730695970696 0
 0.00125780708180708 0
 0.0012583072039072 0
 0.00125880732600733 0
 0.00125930744810745 0
 0.00125980757020757 0
 0.00126030769230769 0
 0.00126080781440781 0
 0.00126130793650794 0
 0.00126180805860806 0
 0.00126230818070818 0
 0.0012628083028083 0
 0.00126330842490842 0
 0.00126380854700855 0
 0.00126430866910867 0
 0.00126480879120879 0
 0.00126530891330891 0
 0.00126580903540904 0
 0.00126630915750916 0
 0.00126680927960928 0
 0.0012673094017094 0
 0.00126780952380952 0
 0.00126830964590965 0
 0.00126880976800977 0
 0.00126930989010989 0
 0.00126981001221001 0
 0.00127031013431013 0
 0.00127081025641026 0
 0.00127131037851038 0
 0.0012718105006105 0
 0.00127231062271062 0
 0.00127281074481074 0
 0.00127331086691087 0
 0.00127381098901099 0
 0.00127431111111111 0
 0.00127481123321123 0
 0.00127531135531136 0
 0.00127581147741148 0
 0.0012763115995116 0
 0.00127681172161172 0
 0.00127731184371184 0
 0.00127781196581197 0
 0.00127831208791209 0
 0.00127881221001221 0
 0.00127931233211233 0
 0.00127981245421245 0
 0.00128031257631258 0
 0.0012808126984127 0
 0.00128131282051282 0
 0.00128181294261294 0
 0.00128231306471306 0
 0.00128281318681319 0
 0.00128331330891331 0
 0.00128381343101343 0
 0.00128431355311355 0
 0.00128481367521368 0
 0.0012853137973138 0
 0.00128581391941392 0
 0.00128631404151404 0
 0.00128681416361416 0
 0.00128731428571429 0
 0.00128781440781441 0
 0.00128831452991453 0
 0.00128881465201465 0
 0.00128931477411477 0
 0.0012898148962149 0
 0.00129031501831502 0
 0.00129081514041514 0
 0.00129131526251526 0
 0.00129181538461538 0
 0.00129231550671551 0
 0.00129281562881563 0
 0.00129331575091575 0
 0.00129381587301587 0
 0.00129431599511599 0
 0.00129481611721612 0
 0.00129531623931624 0
 0.00129581636141636 0
 0.00129631648351648 0
 0.00129681660561661 0
 0.00129731672771673 0
 0.00129781684981685 0
 0.00129831697191697 0
 0.00129881709401709 0
 0.00129931721611722 0
 0.00129981733821734 0
 0.00130031746031746 0
 0.00130081758241758 0
 0.0013013177045177 0
 0.00130181782661783 0
 0.00130231794871795 0
 0.00130281807081807 0
 0.00130331819291819 0
 0.00130381831501831 0
 0.00130431843711844 0
 0.00130481855921856 0
 0.00130531868131868 0
 0.0013058188034188 0
 0.00130631892551893 0
 0.00130681904761905 0
 0.00130731916971917 0
 0.00130781929181929 0
 0.00130831941391941 0
 0.00130881953601954 0
 0.00130931965811966 0
 0.00130981978021978 0
 0.0013103199023199 0
 0.00131082002442002 0
 0.00131132014652015 0
 0.00131182026862027 0
 0.00131232039072039 0
 0.00131282051282051 0
 0.00131332063492063 0
 0.00131382075702076 0
 0.00131432087912088 0
 0.001314821001221 0
 0.00131532112332112 0
 0.00131582124542125 0
 0.00131632136752137 0
 0.00131682148962149 0
 0.00131732161172161 0
 0.00131782173382173 0
 0.00131832185592186 0
 0.00131882197802198 0
 0.0013193221001221 0
 0.00131982222222222 0
 0.00132032234432234 0
 0.00132082246642247 0
 0.00132132258852259 0
 0.00132182271062271 0
 0.00132232283272283 0
 0.00132282295482295 0
 0.00132332307692308 0
 0.0013238231990232 0
 0.00132432332112332 0
 0.00132482344322344 0
 0.00132532356532357 0
 0.00132582368742369 0
 0.00132632380952381 0
 0.00132682393162393 0
 0.00132732405372405 0
 0.00132782417582418 0
 0.0013283242979243 0
 0.00132882442002442 0
 0.00132932454212454 0
 0.00132982466422466 0
 0.00133032478632479 0
 0.00133082490842491 0
 0.00133132503052503 0
 0.00133182515262515 0
 0.00133232527472527 0
 0.0013328253968254 0
 0.00133332551892552 0
 0.00133382564102564 0
 0.00133432576312576 0
 0.00133482588522589 0
 0.00133532600732601 0
 0.00133582612942613 0
 0.00133632625152625 0
 0.00133682637362637 0
 0.0013373264957265 0
 0.00133782661782662 0
 0.00133832673992674 0
 0.00133882686202686 0
 0.00133932698412698 0
 0.00133982710622711 0
 0.00134032722832723 0
 0.00134082735042735 0
 0.00134132747252747 0
 0.00134182759462759 0
 0.00134232771672772 0
 0.00134282783882784 0
 0.00134332796092796 0
 0.00134382808302808 0
 0.00134432820512821 0
 0.00134482832722833 0
 0.00134532844932845 0
 0.00134582857142857 0
 0.00134632869352869 0
 0.00134682881562882 0
 0.00134732893772894 0
 0.00134782905982906 0
 0.00134832918192918 0
 0.0013488293040293 0
 0.00134932942612943 0
 0.00134982954822955 0
 0.00135032967032967 0
 0.00135082979242979 0
 0.00135132991452991 0
 0.00135183003663004 0
 0.00135233015873016 0
 0.00135283028083028 0
 0.0013533304029304 0
 0.00135383052503053 0
 0.00135433064713065 0
 0.00135483076923077 0
 0.00135533089133089 0
 0.00135583101343101 0
 0.00135633113553114 0
 0.00135683125763126 0
 0.00135733137973138 0
 0.0013578315018315 0
 0.00135833162393162 0
 0.00135883174603175 0
 0.00135933186813187 0
 0.00135983199023199 0
 0.00136033211233211 0
 0.00136083223443223 0
 0.00136133235653236 0
 0.00136183247863248 0
 0.0013623326007326 0
 0.00136283272283272 0
 0.00136333284493284 0
 0.00136383296703297 0
 0.00136433308913309 0
 0.00136483321123321 0
 0.00136533333333333 0
 0.00136583345543346 0
 0.00136633357753358 0
 0.0013668336996337 0
 0.00136733382173382 0
 0.00136783394383394 0
 0.00136833406593407 0
 0.00136883418803419 0
 0.00136933431013431 0
 0.00136983443223443 0
 0.00137033455433455 0
 0.00137083467643468 0
 0.0013713347985348 0
 0.00137183492063492 0
 0.00137233504273504 0
 0.00137283516483516 0
 0.00137333528693529 0
 0.00137383540903541 0
 0.00137433553113553 0
 0.00137483565323565 0
 0.00137533577533578 0
 0.0013758358974359 0
 0.00137633601953602 0
 0.00137683614163614 0
 0.00137733626373626 0
 0.00137783638583639 0
 0.00137833650793651 0
 0.00137883663003663 0
 0.00137933675213675 0
 0.00137983687423687 0
 0.001380336996337 0
 0.00138083711843712 0
 0.00138133724053724 0
 0.00138183736263736 0
 0.00138233748473748 0
 0.00138283760683761 0
 0.00138333772893773 0
 0.00138383785103785 0
 0.00138433797313797 0
 0.0013848380952381 0
 0.00138533821733822 0
 0.00138583833943834 0
 0.00138633846153846 0
 0.00138683858363858 0
 0.00138733870573871 0
 0.00138783882783883 0
 0.00138833894993895 0
 0.00138883907203907 0
 0.00138933919413919 0
 0.00138983931623932 0
 0.00139033943833944 0
 0.00139083956043956 0
 0.00139133968253968 0
 0.0013918398046398 0
 0.00139233992673993 0
 0.00139284004884005 0
 0.00139334017094017 0
 0.00139384029304029 0
 0.00139434041514042 0
 0.00139484053724054 0
 0.00139534065934066 0
 0.00139584078144078 0
 0.0013963409035409 0
 0.00139684102564103 0
 0.00139734114774115 0
 0.00139784126984127 0
 0.00139834139194139 0
 0.00139884151404151 0
 0.00139934163614164 0
 0.00139984175824176 0
 0.00140034188034188 0
 0.001400842002442 0
 0.00140134212454212 0
 0.00140184224664225 0
 0.00140234236874237 0
 0.00140284249084249 0
 0.00140334261294261 0
 0.00140384273504273 0
 0.00140434285714286 0
 0.00140484297924298 0
 0.0014053431013431 0
 0.00140584322344322 0
 0.00140634334554335 0
 0.00140684346764347 0
 0.00140734358974359 0
 0.00140784371184371 0
 0.00140834383394383 0
 0.00140884395604396 0
 0.00140934407814408 0
 0.0014098442002442 0
 0.00141034432234432 0
 0.00141084444444444 0
 0.00141134456654457 0
 0.00141184468864469 0
 0.00141234481074481 0
 0.00141284493284493 0
 0.00141334505494505 0
 0.00141384517704518 0
 0.0014143452991453 0
 0.00141484542124542 0
 0.00141534554334554 0
 0.00141584566544567 0
 0.00141634578754579 0
 0.00141684590964591 0
 0.00141734603174603 0
 0.00141784615384615 0
 0.00141834627594628 0
 0.0014188463980464 0
 0.00141934652014652 0
 0.00141984664224664 0
 0.00142034676434676 0
 0.00142084688644689 0
 0.00142134700854701 0
 0.00142184713064713 0
 0.00142234725274725 0
 0.00142284737484737 0
 0.0014233474969475 0
 0.00142384761904762 0
 0.00142434774114774 0
 0.00142484786324786 0
 0.00142534798534799 0
 0.00142584810744811 0
 0.00142634822954823 0
 0.00142684835164835 0
 0.00142734847374847 0
 0.0014278485958486 0
 0.00142834871794872 0
 0.00142884884004884 0
 0.00142934896214896 0
 0.00142984908424908 0
 0.00143034920634921 0
 0.00143084932844933 0
 0.00143134945054945 0
 0.00143184957264957 0
 0.00143234969474969 0
 0.00143284981684982 0
 0.00143334993894994 0
 0.00143385006105006 0
 0.00143435018315018 0
 0.00143485030525031 0
 0.00143535042735043 0
 0.00143585054945055 0
 0.00143635067155067 0
 0.00143685079365079 0
 0.00143735091575092 0
 0.00143785103785104 0
 0.00143835115995116 0
 0.00143885128205128 0
 0.0014393514041514 0
 0.00143985152625153 0
 0.00144035164835165 0
 0.00144085177045177 0
 0.00144135189255189 0
 0.00144185201465201 0
 0.00144235213675214 0
 0.00144285225885226 0
 0.00144335238095238 0
 0.0014438525030525 0
 0.00144435262515263 0
 0.00144485274725275 0
 0.00144535286935287 0
 0.00144585299145299 0
 0.00144635311355311 0
 0.00144685323565324 0
 0.00144735335775336 0
 0.00144785347985348 0
 0.0014483536019536 0
 0.00144885372405372 0
 0.00144935384615385 0
 0.00144985396825397 0
 0.00145035409035409 0
 0.00145085421245421 0
 0.00145135433455433 0
 0.00145185445665446 0
 0.00145235457875458 0
 0.0014528547008547 0
 0.00145335482295482 0
 0.00145385494505494 0
 0.00145435506715507 0
 0.00145485518925519 0
 0.00145535531135531 0
 0.00145585543345543 0
 0.00145635555555556 0
 0.00145685567765568 0
 0.0014573557997558 0
 0.00145785592185592 0
 0.00145835604395604 0
 0.00145885616605617 0
 0.00145935628815629 0
 0.00145985641025641 0
 0.00146035653235653 0
 0.00146085665445665 0
 0.00146135677655678 0
 0.0014618568986569 0
 0.00146235702075702 0
 0.00146285714285714 0
 0.00146335726495726 0
 0.00146385738705739 0
 0.00146435750915751 0
 0.00146485763125763 0
 0.00146535775335775 0
 0.00146585787545788 0
 0.001466357997558 0
 0.00146685811965812 0
 0.00146735824175824 0
 0.00146785836385836 0
 0.00146835848595849 0
 0.00146885860805861 0
 0.00146935873015873 0
 0.00146985885225885 0
 0.00147035897435897 0
 0.0014708590964591 0
 0.00147135921855922 0
 0.00147185934065934 0
 0.00147235946275946 0
 0.00147285958485958 0
 0.00147335970695971 0
 0.00147385982905983 0
 0.00147435995115995 0
 0.00147486007326007 0
 0.0014753601953602 0
 0.00147586031746032 0
 0.00147636043956044 0
 0.00147686056166056 0
 0.00147736068376068 0
 0.00147786080586081 0
 0.00147836092796093 0
 0.00147886105006105 0
 0.00147936117216117 0
 0.00147986129426129 0
 0.00148036141636142 0
 0.00148086153846154 0
 0.00148136166056166 0
 0.00148186178266178 0
 0.0014823619047619 0
 0.00148286202686203 0
 0.00148336214896215 0
 0.00148386227106227 0
 0.00148436239316239 0
 0.00148486251526252 0
 0.00148536263736264 0
 0.00148586275946276 0
 0.00148636288156288 0
 0.001486863003663 0
 0.00148736312576313 0
 0.00148786324786325 0
 0.00148836336996337 0
 0.00148886349206349 0
 0.00148936361416361 0
 0.00148986373626374 0
 0.00149036385836386 0
 0.00149086398046398 0
 0.0014913641025641 0
 0.00149186422466422 0
 0.00149236434676435 0
 0.00149286446886447 0
 0.00149336459096459 0
 0.00149386471306471 0
 0.00149436483516484 0
 0.00149486495726496 0
 0.00149536507936508 0
 0.0014958652014652 0
 0.00149636532356532 0
 0.00149686544566545 0
 0.00149736556776557 0
 0.00149786568986569 0
 0.00149836581196581 0
 0.00149886593406593 0
 0.00149936605616606 0
 0.00149986617826618 0
 0.0015003663003663 0
 0.00150086642246642 0
 0.00150136654456654 0
 0.00150186666666667 0
 0.00150236678876679 0
 0.00150286691086691 0
 0.00150336703296703 0
 0.00150386715506715 0
 0.00150436727716728 0
 0.0015048673992674 0
 0.00150536752136752 0
 0.00150586764346764 0
 0.00150636776556777 0
 0.00150686788766789 0
 0.00150736800976801 0
 0.00150786813186813 0
 0.00150836825396825 0
 0.00150886837606838 0
 0.0015093684981685 0
 0.00150986862026862 0
 0.00151036874236874 0
 0.00151086886446886 0
 0.00151136898656899 0
 0.00151186910866911 0
 0.00151236923076923 0
 0.00151286935286935 0
 0.00151336947496948 0
 0.0015138695970696 0
 0.00151436971916972 0
 0.00151486984126984 0
 0.00151536996336996 0
 0.00151587008547009 0
 0.00151637020757021 0
 0.00151687032967033 0
 0.00151737045177045 0
 0.00151787057387057 0
 0.0015183706959707 0
 0.00151887081807082 0
 0.00151937094017094 0
 0.00151987106227106 0
 0.00152037118437118 0
 0.00152087130647131 0
 0.00152137142857143 0
 0.00152187155067155 0
 0.00152237167277167 0
 0.00152287179487179 0
 0.00152337191697192 0
 0.00152387203907204 0
 0.00152437216117216 0
 0.00152487228327228 0
 0.00152537240537241 0
 0.00152587252747253 0
 0.00152637264957265 0
 0.00152687277167277 0
 0.00152737289377289 0
 0.00152787301587302 0
 0.00152837313797314 0
 0.00152887326007326 0
 0.00152937338217338 0
 0.0015298735042735 0
 0.00153037362637363 0
 0.00153087374847375 0
 0.00153137387057387 0
 0.00153187399267399 0
 0.00153237411477411 0
 0.00153287423687424 0
 0.00153337435897436 0
 0.00153387448107448 0
 0.0015343746031746 0
 0.00153487472527473 0
 0.00153537484737485 0
 0.00153587496947497 0
 0.00153637509157509 0
 0.00153687521367521 0
 0.00153737533577534 0
 0.00153787545787546 0
 0.00153837557997558 0
 0.0015388757020757 0
 0.00153937582417582 0
 0.00153987594627595 0
 0.00154037606837607 0
 0.00154087619047619 0
 0.00154137631257631 0
 0.00154187643467643 0
 0.00154237655677656 0
 0.00154287667887668 0
 0.0015433768009768 0
 0.00154387692307692 0
 0.00154437704517705 0
 0.00154487716727717 0
 0.00154537728937729 0
 0.00154587741147741 0
 0.00154637753357753 0
 0.00154687765567766 0
 0.00154737777777778 0
 0.0015478778998779 0
 0.00154837802197802 0
 0.00154887814407814 0
 0.00154937826617827 0
 0.00154987838827839 0
 0.00155037851037851 0
 0.00155087863247863 0
 0.00155137875457875 0
 0.00155187887667888 0
 0.001552378998779 0
 0.00155287912087912 0
 0.00155337924297924 0
 0.00155387936507936 0
 0.00155437948717949 0
 0.00155487960927961 0
 0.00155537973137973 0
 0.00155587985347985 0
 0.00155637997557998 0
 0.0015568800976801 0
 0.00155738021978022 0
 0.00155788034188034 0
 0.00155838046398046 0
 0.00155888058608059 0
 0.00155938070818071 0
 0.00155988083028083 0
 0.00156038095238095 0
 0.00156088107448107 0
 0.0015613811965812 0
 0.00156188131868132 0
 0.00156238144078144 0
 0.00156288156288156 0
 0.00156338168498168 0
 0.00156388180708181 0
 0.00156438192918193 0
 0.00156488205128205 0
 0.00156538217338217 0
 0.0015658822954823 0
 0.00156638241758242 0
 0.00156688253968254 0
 0.00156738266178266 0
 0.00156788278388278 0
 0.00156838290598291 0
 0.00156888302808303 0
 0.00156938315018315 0
 0.00156988327228327 0
 0.00157038339438339 0
 0.00157088351648352 0
 0.00157138363858364 0
 0.00157188376068376 0
 0.00157238388278388 0
 0.001572884004884 0
 0.00157338412698413 0
 0.00157388424908425 0
 0.00157438437118437 0
 0.00157488449328449 0
 0.00157538461538462 0
 0.00157588473748474 0
 0.00157638485958486 0
 0.00157688498168498 0
 0.0015773851037851 0
 0.00157788522588523 0
 0.00157838534798535 0
 0.00157888547008547 0
 0.00157938559218559 0
 0.00157988571428571 0
 0.00158038583638584 0
 0.00158088595848596 0
 0.00158138608058608 0
 0.0015818862026862 0
 0.00158238632478632 0
 0.00158288644688645 0
 0.00158338656898657 0
 0.00158388669108669 0
 0.00158438681318681 0
 0.00158488693528694 0
 0.00158538705738706 0
 0.00158588717948718 0
 0.0015863873015873 0
 0.00158688742368742 0
 0.00158738754578755 0
 0.00158788766788767 0
 0.00158838778998779 0
 0.00158888791208791 0
 0.00158938803418803 0
 0.00158988815628816 0
 0.00159038827838828 0
 0.0015908884004884 0
 0.00159138852258852 0
 0.00159188864468864 0
 0.00159238876678877 0
 0.00159288888888889 0
 0.00159338901098901 0
 0.00159388913308913 0
 0.00159438925518926 0
 0.00159488937728938 0
 0.0015953894993895 0
 0.00159588962148962 0
 0.00159638974358974 0
 0.00159688986568987 0
 0.00159738998778999 0
 0.00159789010989011 0
 0.00159839023199023 0
 0.00159889035409035 0
 0.00159939047619048 0
 0.0015998905982906 0
 0.00160039072039072 0
 0.00160089084249084 0
 0.00160139096459096 0
 0.00160189108669109 0
 0.00160239120879121 0
 0.00160289133089133 0
 0.00160339145299145 0
 0.00160389157509157 0
 0.0016043916971917 0
 0.00160489181929182 0
 0.00160539194139194 0
 0.00160589206349206 0
 0.00160639218559219 0
 0.00160689230769231 0
 0.00160739242979243 0
 0.00160789255189255 0
 0.00160839267399267 0
 0.0016088927960928 0
 0.00160939291819292 0
 0.00160989304029304 0
 0.00161039316239316 0
 0.00161089328449328 0
 0.00161139340659341 0
 0.00161189352869353 0
 0.00161239365079365 0
 0.00161289377289377 0
 0.00161339389499389 0
 0.00161389401709402 0
 0.00161439413919414 0
 0.00161489426129426 0
 0.00161539438339438 0
 0.00161589450549451 0
 0.00161639462759463 0
 0.00161689474969475 0
 0.00161739487179487 0
 0.00161789499389499 0
 0.00161839511599512 0
 0.00161889523809524 0
 0.00161939536019536 0
 0.00161989548229548 0
 0.0016203956043956 0
 0.00162089572649573 0
 0.00162139584859585 0
 0.00162189597069597 0
 0.00162239609279609 0
 0.00162289621489621 0
 0.00162339633699634 0
 0.00162389645909646 0
 0.00162439658119658 0
 0.0016248967032967 0
 0.00162539682539683 0
 0.00162589694749695 0
 0.00162639706959707 0
 0.00162689719169719 0
 0.00162739731379731 0
 0.00162789743589744 0
 0.00162839755799756 0
 0.00162889768009768 0
 0.0016293978021978 0
 0.00162989792429792 0
 0.00163039804639805 0
 0.00163089816849817 0
 0.00163139829059829 0
 0.00163189841269841 0
 0.00163239853479853 0
 0.00163289865689866 0
 0.00163339877899878 0
 0.0016338989010989 0
 0.00163439902319902 0
 0.00163489914529915 0
 0.00163539926739927 0
 0.00163589938949939 0
 0.00163639951159951 0
 0.00163689963369963 0
 0.00163739975579976 0
 0.00163789987789988 0
 0.0016384 0
 0.00163890012210012 0
 0.00163940024420024 0
 0.00163990036630037 0
 0.00164040048840049 0
 0.00164090061050061 0
 0.00164140073260073 0
 0.00164190085470085 0
 0.00164240097680098 0
 0.0016429010989011 0
 0.00164340122100122 0
 0.00164390134310134 0
 0.00164440146520147 0
 0.00164490158730159 0
 0.00164540170940171 0
 0.00164590183150183 0
 0.00164640195360195 0
 0.00164690207570208 0
 0.0016474021978022 0
 0.00164790231990232 0
 0.00164840244200244 0
 0.00164890256410256 0
 0.00164940268620269 0
 0.00164990280830281 0
 0.00165040293040293 0
 0.00165090305250305 0
 0.00165140317460317 0
 0.0016519032967033 0
 0.00165240341880342 0
 0.00165290354090354 0
 0.00165340366300366 0
 0.00165390378510379 0
 0.00165440390720391 0
 0.00165490402930403 0
 0.00165540415140415 0
 0.00165590427350427 0
 0.0016564043956044 0
 0.00165690451770452 0
 0.00165740463980464 0
 0.00165790476190476 0
 0.00165840488400488 0
 0.00165890500610501 0
 0.00165940512820513 0
 0.00165990525030525 0
 0.00166040537240537 0
 0.00166090549450549 0
 0.00166140561660562 0
 0.00166190573870574 0
 0.00166240586080586 0
 0.00166290598290598 0
 0.00166340610500611 0
 0.00166390622710623 0
 0.00166440634920635 0
 0.00166490647130647 0
 0.00166540659340659 0
 0.00166590671550672 0
 0.00166640683760684 0
 0.00166690695970696 0
 0.00166740708180708 0
 0.0016679072039072 0
 0.00166840732600733 0
 0.00166890744810745 0
 0.00166940757020757 0
 0.00166990769230769 0
 0.00167040781440781 0
 0.00167090793650794 0
 0.00167140805860806 0
 0.00167190818070818 0
 0.0016724083028083 0
 0.00167290842490842 0
 0.00167340854700855 0
 0.00167390866910867 0
 0.00167440879120879 0
 0.00167490891330891 0
 0.00167540903540904 0
 0.00167590915750916 0
 0.00167640927960928 0
 0.0016769094017094 0
 0.00167740952380952 0
 0.00167790964590965 0
 0.00167840976800977 0
 0.00167890989010989 0
 0.00167941001221001 0
 0.00167991013431013 0
 0.00168041025641026 0
 0.00168091037851038 0
 0.0016814105006105 0
 0.00168191062271062 0
 0.00168241074481074 0
 0.00168291086691087 0
 0.00168341098901099 0
 0.00168391111111111 0
 0.00168441123321123 0
 0.00168491135531136 0
 0.00168541147741148 0
 0.0016859115995116 0
 0.00168641172161172 0
 0.00168691184371184 0
 0.00168741196581197 0
 0.00168791208791209 0
 0.00168841221001221 0
 0.00168891233211233 0
 0.00168941245421245 0
 0.00168991257631258 0
 0.0016904126984127 0
 0.00169091282051282 0
 0.00169141294261294 0
 0.00169191306471306 0
 0.00169241318681319 0
 0.00169291330891331 0
 0.00169341343101343 0
 0.00169391355311355 0
 0.00169441367521367 0
 0.0016949137973138 0
 0.00169541391941392 0
 0.00169591404151404 0
 0.00169641416361416 0
 0.00169691428571429 0
 0.00169741440781441 0
 0.00169791452991453 0
 0.00169841465201465 0
 0.00169891477411477 0
 0.0016994148962149 0
 0.00169991501831502 0
 0.00170041514041514 0
 0.00170091526251526 0
 0.00170141538461538 0
 0.00170191550671551 0
 0.00170241562881563 0
 0.00170291575091575 0
 0.00170341587301587 0
 0.001703915995116 0
 0.00170441611721612 0
 0.00170491623931624 0
 0.00170541636141636 0
 0.00170591648351648 0
 0.00170641660561661 0
 0.00170691672771673 0
 0.00170741684981685 0
 0.00170791697191697 0
 0.00170841709401709 0
 0.00170891721611722 0
 0.00170941733821734 0
 0.00170991746031746 0
 0.00171041758241758 0
 0.0017109177045177 0
 0.00171141782661783 0
 0.00171191794871795 0
 0.00171241807081807 0
 0.00171291819291819 0
 0.00171341831501832 0
 0.00171391843711844 0
 0.00171441855921856 0
 0.00171491868131868 0
 0.0017154188034188 0
 0.00171591892551893 0
 0.00171641904761905 0
 0.00171691916971917 0
 0.00171741929181929 0
 0.00171791941391941 0
 0.00171841953601954 0
 0.00171891965811966 0
 0.00171941978021978 0
 0.0017199199023199 0
 0.00172042002442002 0
 0.00172092014652015 0
 0.00172142026862027 0
 0.00172192039072039 0
 0.00172242051282051 0
 0.00172292063492063 0
 0.00172342075702076 0
 0.00172392087912088 0
 0.001724421001221 0
 0.00172492112332112 0
 0.00172542124542125 0
 0.00172592136752137 0
 0.00172642148962149 0
 0.00172692161172161 0
 0.00172742173382173 0
 0.00172792185592186 0
 0.00172842197802198 0
 0.0017289221001221 0
 0.00172942222222222 0
 0.00172992234432234 0
 0.00173042246642247 0
 0.00173092258852259 0
 0.00173142271062271 0
 0.00173192283272283 0
 0.00173242295482295 0
 0.00173292307692308 0
 0.0017334231990232 0
 0.00173392332112332 0
 0.00173442344322344 0
 0.00173492356532357 0
 0.00173542368742369 0
 0.00173592380952381 0
 0.00173642393162393 0
 0.00173692405372405 0
 0.00173742417582418 0
 0.0017379242979243 0
 0.00173842442002442 0
 0.00173892454212454 0
 0.00173942466422466 0
 0.00173992478632479 0
 0.00174042490842491 0
 0.00174092503052503 0
 0.00174142515262515 0
 0.00174192527472527 0
 0.0017424253968254 0
 0.00174292551892552 0
 0.00174342564102564 0
 0.00174392576312576 0
 0.00174442588522589 0
 0.00174492600732601 0
 0.00174542612942613 0
 0.00174592625152625 0
 0.00174642637362637 0
 0.0017469264957265 0
 0.00174742661782662 0
 0.00174792673992674 0
 0.00174842686202686 0
 0.00174892698412698 0
 0.00174942710622711 0
 0.00174992722832723 0
 0.00175042735042735 0
 0.00175092747252747 0
 0.00175142759462759 0
 0.00175192771672772 0
 0.00175242783882784 0
 0.00175292796092796 0
 0.00175342808302808 0
 0.0017539282051282 0
 0.00175442832722833 0
 0.00175492844932845 0
 0.00175542857142857 0
 0.00175592869352869 0
 0.00175642881562882 0
 0.00175692893772894 0
 0.00175742905982906 0
 0.00175792918192918 0
 0.0017584293040293 0
 0.00175892942612943 0
 0.00175942954822955 0
 0.00175992967032967 0
 0.00176042979242979 0
 0.00176092991452991 0
 0.00176143003663004 0
 0.00176193015873016 0
 0.00176243028083028 0
 0.0017629304029304 0
 0.00176343052503052 0
 0.00176393064713065 0
 0.00176443076923077 0
 0.00176493089133089 0
 0.00176543101343101 0
 0.00176593113553114 0
 0.00176643125763126 0
 0.00176693137973138 0
 0.0017674315018315 0
 0.00176793162393162 0
 0.00176843174603175 0
 0.00176893186813187 0
 0.00176943199023199 0
 0.00176993211233211 0
 0.00177043223443223 0
 0.00177093235653236 0
 0.00177143247863248 0
 0.0017719326007326 0
 0.00177243272283272 0
 0.00177293284493284 0
 0.00177343296703297 0
 0.00177393308913309 0
 0.00177443321123321 0
 0.00177493333333333 0
 0.00177543345543346 0
 0.00177593357753358 0
 0.0017764336996337 0
 0.00177693382173382 0
 0.00177743394383394 0
 0.00177793406593407 0
 0.00177843418803419 0
 0.00177893431013431 0
 0.00177943443223443 0
 0.00177993455433455 0
 0.00178043467643468 0
 0.0017809347985348 0
 0.00178143492063492 0
 0.00178193504273504 0
 0.00178243516483516 0
 0.00178293528693529 0
 0.00178343540903541 0
 0.00178393553113553 0
 0.00178443565323565 0
 0.00178493577533578 0
 0.0017854358974359 0
 0.00178593601953602 0
 0.00178643614163614 0
 0.00178693626373626 0
 0.00178743638583639 0
 0.00178793650793651 0
 0.00178843663003663 0
 0.00178893675213675 0
 0.00178943687423687 0
 0.001789936996337 0
 0.00179043711843712 0
 0.00179093724053724 0
 0.00179143736263736 0
 0.00179193748473748 0
 0.00179243760683761 0
 0.00179293772893773 0
 0.00179343785103785 0
 0.00179393797313797 0
 0.0017944380952381 0
 0.00179493821733822 0
 0.00179543833943834 0
 0.00179593846153846 0
 0.00179643858363858 0
 0.00179693870573871 0
 0.00179743882783883 0
 0.00179793894993895 0
 0.00179843907203907 0
 0.00179893919413919 0
 0.00179943931623932 0
 0.00179993943833944 0
 0.00180043956043956 0
 0.00180093968253968 0
 0.0018014398046398 0
 0.00180193992673993 0
 0.00180244004884005 0
 0.00180294017094017 0
 0.00180344029304029 0
 0.00180394041514042 0
 0.00180444053724054 0
 0.00180494065934066 0
 0.00180544078144078 0
 0.0018059409035409 0
 0.00180644102564103 0
 0.00180694114774115 0
 0.00180744126984127 0
 0.00180794139194139 0
 0.00180844151404151 0
 0.00180894163614164 0
 0.00180944175824176 0
 0.00180994188034188 0
 0.001810442002442 0
 0.00181094212454212 0
 0.00181144224664225 0
 0.00181194236874237 0
 0.00181244249084249 0
 0.00181294261294261 0
 0.00181344273504273 0
 0.00181394285714286 0
 0.00181444297924298 0
 0.0018149431013431 0
 0.00181544322344322 0
 0.00181594334554335 0
 0.00181644346764347 0
 0.00181694358974359 0
 0.00181744371184371 0
 0.00181794383394383 0
 0.00181844395604396 0
 0.00181894407814408 0
 0.0018194442002442 0
 0.00181994432234432 0
 0.00182044444444444 0
 0.00182094456654457 0
 0.00182144468864469 0
 0.00182194481074481 0
 0.00182244493284493 0
 0.00182294505494505 0
 0.00182344517704518 0
 0.0018239452991453 0
 0.00182444542124542 0
 0.00182494554334554 0
 0.00182544566544567 0
 0.00182594578754579 0
 0.00182644590964591 0
 0.00182694603174603 0
 0.00182744615384615 0
 0.00182794627594628 0
 0.0018284463980464 0
 0.00182894652014652 0
 0.00182944664224664 0
 0.00182994676434676 0
 0.00183044688644689 0
 0.00183094700854701 0
 0.00183144713064713 0
 0.00183194725274725 0
 0.00183244737484737 0
 0.0018329474969475 0
 0.00183344761904762 0
 0.00183394774114774 0
 0.00183444786324786 0
 0.00183494798534799 0
 0.00183544810744811 0
 0.00183594822954823 0
 0.00183644835164835 0
 0.00183694847374847 0
 0.0018374485958486 0
 0.00183794871794872 0
 0.00183844884004884 0
 0.00183894896214896 0
 0.00183944908424908 0
 0.00183994920634921 0
 0.00184044932844933 0
 0.00184094945054945 0
 0.00184144957264957 0
 0.00184194969474969 0
 0.00184244981684982 0
 0.00184294993894994 0
 0.00184345006105006 0
 0.00184395018315018 0
 0.00184445030525031 0
 0.00184495042735043 0
 0.00184545054945055 0
 0.00184595067155067 0
 0.00184645079365079 0
 0.00184695091575092 0
 0.00184745103785104 0
 0.00184795115995116 0
 0.00184845128205128 0
 0.0018489514041514 0
 0.00184945152625153 0
 0.00184995164835165 0
 0.00185045177045177 0
 0.00185095189255189 0
 0.00185145201465201 0
 0.00185195213675214 0
 0.00185245225885226 0
 0.00185295238095238 0
 0.0018534525030525 0
 0.00185395262515263 0
 0.00185445274725275 0
 0.00185495286935287 0
 0.00185545299145299 0
 0.00185595311355311 0
 0.00185645323565324 0
 0.00185695335775336 0
 0.00185745347985348 0
 0.0018579536019536 0
 0.00185845372405372 0
 0.00185895384615385 0
 0.00185945396825397 0
 0.00185995409035409 0
 0.00186045421245421 0
 0.00186095433455433 0
 0.00186145445665446 0
 0.00186195457875458 0
 0.0018624547008547 0
 0.00186295482295482 0
 0.00186345494505494 0
 0.00186395506715507 0
 0.00186445518925519 0
 0.00186495531135531 0
 0.00186545543345543 0
 0.00186595555555556 0
 0.00186645567765568 0
 0.0018669557997558 0
 0.00186745592185592 0
 0.00186795604395604 0
 0.00186845616605617 0
 0.00186895628815629 0
 0.00186945641025641 0
 0.00186995653235653 0
 0.00187045665445665 0
 0.00187095677655678 0
 0.0018714568986569 0
 0.00187195702075702 0
 0.00187245714285714 0
 0.00187295726495726 0
 0.00187345738705739 0
 0.00187395750915751 0
 0.00187445763125763 0
 0.00187495775335775 0
 0.00187545787545788 0
 0.001875957997558 0
 0.00187645811965812 0
 0.00187695824175824 0
 0.00187745836385836 0
 0.00187795848595849 0
 0.00187845860805861 0
 0.00187895873015873 0
 0.00187945885225885 0
 0.00187995897435897 0
 0.0018804590964591 0
 0.00188095921855922 0
 0.00188145934065934 0
 0.00188195946275946 0
 0.00188245958485958 0
 0.00188295970695971 0
 0.00188345982905983 0
 0.00188395995115995 0
 0.00188446007326007 0
 0.0018849601953602 0
 0.00188546031746032 0
 0.00188596043956044 0
 0.00188646056166056 0
 0.00188696068376068 0
 0.00188746080586081 0
 0.00188796092796093 0
 0.00188846105006105 0
 0.00188896117216117 0
 0.00188946129426129 0
 0.00188996141636142 0
 0.00189046153846154 0
 0.00189096166056166 0
 0.00189146178266178 0
 0.0018919619047619 0
 0.00189246202686203 0
 0.00189296214896215 0
 0.00189346227106227 0
 0.00189396239316239 0
 0.00189446251526252 0
 0.00189496263736264 0
 0.00189546275946276 0
 0.00189596288156288 0
 0.001896463003663 0
 0.00189696312576313 0
 0.00189746324786325 0
 0.00189796336996337 0
 0.00189846349206349 0
 0.00189896361416361 0
 0.00189946373626374 0
 0.00189996385836386 0
 0.00190046398046398 0
 0.0019009641025641 0
 0.00190146422466422 0
 0.00190196434676435 0
 0.00190246446886447 0
 0.00190296459096459 0
 0.00190346471306471 0
 0.00190396483516484 0
 0.00190446495726496 0
 0.00190496507936508 0
 0.0019054652014652 0
 0.00190596532356532 0
 0.00190646544566545 0
 0.00190696556776557 0
 0.00190746568986569 0
 0.00190796581196581 0
 0.00190846593406593 0
 0.00190896605616606 0
 0.00190946617826618 0
 0.0019099663003663 0
 0.00191046642246642 0
 0.00191096654456654 0
 0.00191146666666667 0
 0.00191196678876679 0
 0.00191246691086691 0
 0.00191296703296703 0
 0.00191346715506715 0
 0.00191396727716728 0
 0.0019144673992674 0
 0.00191496752136752 0
 0.00191546764346764 0
 0.00191596776556777 0
 0.00191646788766789 0
 0.00191696800976801 0
 0.00191746813186813 0
 0.00191796825396825 0
 0.00191846837606838 0
 0.0019189684981685 0
 0.00191946862026862 0
 0.00191996874236874 0
 0.00192046886446886 0
 0.00192096898656899 0
 0.00192146910866911 0
 0.00192196923076923 0
 0.00192246935286935 0
 0.00192296947496947 0
 0.0019234695970696 0
 0.00192396971916972 0
 0.00192446984126984 0
 0.00192496996336996 0
 0.00192547008547009 0
 0.00192597020757021 0
 0.00192647032967033 0
 0.00192697045177045 0
 0.00192747057387057 0
 0.0019279706959707 0
 0.00192847081807082 0
 0.00192897094017094 0
 0.00192947106227106 0
 0.00192997118437118 0
 0.00193047130647131 0
 0.00193097142857143 0
 0.00193147155067155 0
 0.00193197167277167 0
 0.00193247179487179 0
 0.00193297191697192 0
 0.00193347203907204 0
 0.00193397216117216 0
 0.00193447228327228 0
 0.00193497240537241 0
 0.00193547252747253 0
 0.00193597264957265 0
 0.00193647277167277 0
 0.00193697289377289 0
 0.00193747301587302 0
 0.00193797313797314 0
 0.00193847326007326 0
 0.00193897338217338 0
 0.0019394735042735 0
 0.00193997362637363 0
 0.00194047374847375 0
 0.00194097387057387 0
 0.00194147399267399 0
 0.00194197411477411 0
 0.00194247423687424 0
 0.00194297435897436 0
 0.00194347448107448 0
 0.0019439746031746 0
 0.00194447472527473 0
 0.00194497484737485 0
 0.00194547496947497 0
 0.00194597509157509 0
 0.00194647521367521 0
 0.00194697533577534 0
 0.00194747545787546 0
 0.00194797557997558 0
 0.0019484757020757 0
 0.00194897582417582 0
 0.00194947594627595 0
 0.00194997606837607 0
 0.00195047619047619 0
 0.00195097631257631 0
 0.00195147643467643 0
 0.00195197655677656 0
 0.00195247667887668 0
 0.0019529768009768 0
 0.00195347692307692 0
 0.00195397704517705 0
 0.00195447716727717 0
 0.00195497728937729 0
 0.00195547741147741 0
 0.00195597753357753 0
 0.00195647765567766 0
 0.00195697777777778 0
 0.0019574778998779 0
 0.00195797802197802 0
 0.00195847814407814 0
 0.00195897826617827 0
 0.00195947838827839 0
 0.00195997851037851 0
 0.00196047863247863 0
 0.00196097875457875 0
 0.00196147887667888 0
 0.001961978998779 0
 0.00196247912087912 0
 0.00196297924297924 0
 0.00196347936507936 0
 0.00196397948717949 0
 0.00196447960927961 0
 0.00196497973137973 0
 0.00196547985347985 0
 0.00196597997557998 0
 0.0019664800976801 0
 0.00196698021978022 0
 0.00196748034188034 0
 0.00196798046398046 0
 0.00196848058608059 0
 0.00196898070818071 0
 0.00196948083028083 0
 0.00196998095238095 0
 0.00197048107448107 0
 0.0019709811965812 0
 0.00197148131868132 0
 0.00197198144078144 0
 0.00197248156288156 0
 0.00197298168498169 0
 0.00197348180708181 0
 0.00197398192918193 0
 0.00197448205128205 0
 0.00197498217338217 0
 0.0019754822954823 0
 0.00197598241758242 0
 0.00197648253968254 0
 0.00197698266178266 0
 0.00197748278388278 0
 0.00197798290598291 0
 0.00197848302808303 0
 0.00197898315018315 0
 0.00197948327228327 0
 0.00197998339438339 0
 0.00198048351648352 0
 0.00198098363858364 0
 0.00198148376068376 0
 0.00198198388278388 0
 0.001982484004884 0
 0.00198298412698413 0
 0.00198348424908425 0
 0.00198398437118437 0
 0.00198448449328449 0
 0.00198498461538462 0
 0.00198548473748474 0
 0.00198598485958486 0
 0.00198648498168498 0
 0.0019869851037851 0
 0.00198748522588523 0
 0.00198798534798535 0
 0.00198848547008547 0
 0.00198898559218559 0
 0.00198948571428571 0
 0.00198998583638584 0
 0.00199048595848596 0
 0.00199098608058608 0
 0.0019914862026862 0
 0.00199198632478632 0
 0.00199248644688645 0
 0.00199298656898657 0
 0.00199348669108669 0
 0.00199398681318681 0
 0.00199448693528694 0
 0.00199498705738706 0
 0.00199548717948718 0
 0.0019959873015873 0
 0.00199648742368742 0
 0.00199698754578755 0
 0.00199748766788767 0
 0.00199798778998779 0
 0.00199848791208791 0
 0.00199898803418803 0
 0.00199948815628816 0
 0.00199998827838828 0
 0.0020004884004884 0
 0.00200098852258852 0
 0.00200148864468864 0
 0.00200198876678877 0
 0.00200248888888889 0
 0.00200298901098901 0
 0.00200348913308913 0
 0.00200398925518926 0
 0.00200448937728938 0
 0.0020049894993895 0
 0.00200548962148962 0
 0.00200598974358974 0
 0.00200648986568987 0
 0.00200698998778999 0
 0.00200749010989011 0
 0.00200799023199023 0
 0.00200849035409035 0
 0.00200899047619048 0
 0.0020094905982906 0
 0.00200999072039072 0
 0.00201049084249084 0
 0.00201099096459096 0
 0.00201149108669109 0
 0.00201199120879121 0
 0.00201249133089133 0
 0.00201299145299145 0
 0.00201349157509157 0
 0.0020139916971917 0
 0.00201449181929182 0
 0.00201499194139194 0
 0.00201549206349206 0
 0.00201599218559219 0
 0.00201649230769231 0
 0.00201699242979243 0
 0.00201749255189255 0
 0.00201799267399267 0
 0.0020184927960928 0
 0.00201899291819292 0
 0.00201949304029304 0
 0.00201999316239316 0
 0.00202049328449328 0
 0.00202099340659341 0
 0.00202149352869353 0
 0.00202199365079365 0
 0.00202249377289377 0
 0.00202299389499389 0
 0.00202349401709402 0
 0.00202399413919414 0
 0.00202449426129426 0
 0.00202499438339438 0
 0.00202549450549451 0
 0.00202599462759463 0
 0.00202649474969475 0
 0.00202699487179487 0
 0.00202749499389499 0
 0.00202799511599512 0
 0.00202849523809524 0
 0.00202899536019536 0
 0.00202949548229548 0
 0.0020299956043956 0
 0.00203049572649573 0
 0.00203099584859585 0
 0.00203149597069597 0
 0.00203199609279609 0
 0.00203249621489621 0
 0.00203299633699634 0
 0.00203349645909646 0
 0.00203399658119658 0
 0.0020344967032967 0
 0.00203499682539683 0
 0.00203549694749695 0
 0.00203599706959707 0
 0.00203649719169719 0
 0.00203699731379731 0
 0.00203749743589744 0
 0.00203799755799756 0
 0.00203849768009768 0
 0.0020389978021978 0
 0.00203949792429792 0
 0.00203999804639805 0
 0.00204049816849817 0
 0.00204099829059829 0
 0.00204149841269841 0
 0.00204199853479853 0
 0.00204249865689866 0
 0.00204299877899878 0
 0.0020434989010989 0
 0.00204399902319902 0
 0.00204449914529915 0
 0.00204499926739927 0
 0.00204549938949939 0
 0.00204599951159951 0
 0.00204649963369963 0
 0.00204699975579976 0
 0.00204749987789988 0
 0.002048 0
