0	1.9554
0.0009773	1.9496
0.0019546	1.9321
0.0029319	1.9023
0.0039092	1.8598
0.0048865	1.8033
0.0058638	1.7317
0.0068411	1.6435
0.0078184	1.5371
0.0087957	1.4108
0.009773	1.2631
0.01075	1.093
0.011728	0.90031
0.012705	0.68609
0.013682	0.45301
0.01466	0.20546
0.015637	-0.050605
0.016614	-0.30817
0.017591	-0.55997
0.018569	-0.79927
0.019546	-1.0206
0.020523	-1.2199
0.021501	-1.3954
0.022478	-1.5463
0.023455	-1.6728
0.024432	-1.7758
0.02541	-1.8563
0.026387	-1.9155
0.027364	-1.9544
0.028342	-1.9737
0.029319	-1.9736
0.030296	-1.9543
0.031274	-1.9154
0.032251	-1.8559
0.033228	-1.775
0.034205	-1.6714
0.035183	-1.5439
0.03616	-1.3914
0.037137	-1.2136
0.038115	-1.0109
0.039092	-0.78537
0.040069	-0.54008
0.041047	-0.28106
0.042024	-0.014972
0.043001	0.25059
0.043979	0.50814
0.044956	0.75114
0.045933	0.97457
0.04691	1.1751
0.047888	1.3513
0.048865	1.5027
0.049842	1.6301
0.05082	1.7347
0.051797	1.818
0.052774	1.8814
0.053752	1.9263
0.054729	1.9535
0.055706	1.9641
0.056683	1.9583
0.057661	1.9366
0.058638	1.899
0.059615	1.8455
0.060593	1.776
0.06157	1.6908
0.062547	1.5905
0.063524	1.4765
0.064502	1.351
0.065479	1.2171
0.066456	1.0788
0.067434	0.94062
0.068411	0.80715
0.069388	0.68235
0.070366	0.56918
0.071343	0.46936
0.07232	0.38339
0.073298	0.31081
0.074275	0.25049
0.075252	0.20099
0.076229	0.16073
0.077207	0.12823
0.078184	0.10213
0.079161	0.081457
0.080139	0.064742
0.081116	0.051426
0.082093	0.040833
0.083071	0.032416
0.084048	0.025733
0.085025	0.020432
0.086002	0.016229
0.08698	0.012901
0.087957	0.010268
0.088934	0.0081892
0.089912	0.0065525
0.090889	0.0052697
0.091866	0.0042716
0.092843	0.0035042
0.093821	0.0029262
0.094798	0.0025062
0.095775	0.0022217
0.096753	0.0020592
0.09773	0.0020058
