2.6242500e-02  7.8727500e-02   1   3 
0.000000000000000000000e+00 6.677482805208577561406e-17 
2.624249999999999955098e-04 4.397756352988977952140e-04 
5.248499999999999910197e-04 8.839971367128889208342e-04 
7.872750000000000407396e-04 1.317444072500184755470e-03 
1.049699999999999982039e-03 1.768889869374413656433e-03 
1.312124999999999923339e-03 2.232896420638335634179e-03 
1.574550000000000081479e-03 2.712876548175036529181e-03 
1.836975000000000022779e-03 3.212247455537882261101e-03 
2.099399999999999964079e-03 3.734543701724991372759e-03 
2.361825000000000122219e-03 4.283462246844548307334e-03 
2.624249999999999846678e-03 4.862891112777224453256e-03 
2.886675000000000004818e-03 5.476935627810047488295e-03 
3.149100000000000162959e-03 6.129945551095694611377e-03 
3.411524999999999887418e-03 6.826544469994140322544e-03 
3.673950000000000045558e-03 7.571660628876311291413e-03 
3.936374999999999770017e-03 8.376015119534618857955e-03 
4.198799999999999928157e-03 9.234755914221433673039e-03 
4.461225000000000086298e-03 1.015903424160458784486e-02 
4.723650000000000244438e-03 1.115535944820924413312e-02 
4.986074999999999535216e-03 1.223073539831247280585e-02 
5.248499999999999693356e-03 1.339270575702176772903e-02 
5.510924999999999851497e-03 1.464940245050094964896e-02 
5.773350000000000009637e-03 1.600959684946524907989e-02 
6.035775000000000167777e-03 1.748275419965115637377e-02 
6.298200000000000325917e-03 1.907909105486516043726e-02 
6.560624999999999616696e-03 2.080963623631686479354e-02 
6.823049999999999774836e-03 2.268629416608428095437e-02 
7.085474999999999932976e-03 2.472191228548284783195e-02 
7.347900000000000091116e-03 2.693035000963758113235e-02 
7.610325000000000249256e-03 2.934236463892788207564e-02 
7.872749999999999540035e-03 3.194366187308912002907e-02 
8.135174999999999698175e-03 3.476631822693557888337e-02 
8.397599999999999856315e-03 3.782899640380434080900e-02 
8.660025000000000014455e-03 4.115174406397844458771e-02 
8.922450000000000172595e-03 4.475606658485314220952e-02 
9.184875000000000330735e-03 4.866499304784292073700e-02 
9.447300000000000488876e-03 5.290313971150160943235e-02 
9.709725000000000647016e-03 5.749676028726104226596e-02 
9.972149999999999070432e-03 6.247378364623509816589e-02 
1.023457499999999922857e-02 6.786383616399242757478e-02 
1.049699999999999938671e-02 7.369823788004861708778e-02 
1.075942499999999954485e-02 8.000997351948911651132e-02 
1.102184999999999970299e-02 8.683362685519920021182e-02 
1.128427499999999986113e-02 9.424326627005998047171e-02 
1.154670000000000001927e-02 1.022017788422206752141e-01 
1.180912500000000017741e-02 1.107841857496379422976e-01 
1.207155000000000033555e-02 1.200297687536675123043e-01 
1.233397500000000049369e-02 1.299782366103068853569e-01 
1.259640000000000065183e-02 1.406692593213384190332e-01 
1.285882499999999907525e-02 1.521418976443497939055e-01 
1.312125000000000096811e-02 1.644339275124958033025e-01 
1.338367500000000286098e-02 1.775810485407508798605e-01 
1.364610000000000128439e-02 1.916159783643386071983e-01 
1.390852500000000144253e-02 2.065674363007089231470e-01 
1.417095000000000160068e-02 2.224590271583116174448e-01 
1.443337500000000175882e-02 2.393080443947062097010e-01 
1.469580000000000191696e-02 2.571242209041102455558e-01 
1.495822500000000207510e-02 2.759084682834245239036e-01 
1.522065000000000223324e-02 2.956513500558074492020e-01 
1.548307500000000239138e-02 3.163245983380460479850e-01 
1.574550000000000254952e-02 3.379031779070975072266e-01 
1.600792500000000270766e-02 3.603417801974311829305e-01 
1.627035000000000286580e-02 3.835818241976404197047e-01 
1.653277499999999955449e-02 4.075514145539940180640e-01 
1.679520000000000318208e-02 4.321656969919773771949e-01 
1.705762499999999987077e-02 4.573276672668937781197e-01 
1.732005000000000349836e-02 4.829294664624093069705e-01 
1.758247500000000018705e-02 5.088540673226217281311e-01 
1.784490000000000381464e-02 5.349773760572463787710e-01 
1.810732500000000050333e-02 5.611706134564634629314e-01 
1.836975000000000413092e-02 5.873029264362318313530e-01 
1.863217500000000081961e-02 6.132440344973125734285e-01 
1.889460000000000097775e-02 6.387949644211166067009e-01 
1.915702500000000113589e-02 6.639834097603698470635e-01 
1.941945000000000129403e-02 6.886193456796954048826e-01 
1.968187500000000145217e-02 7.125987432964633327970e-01 
1.994430000000000161031e-02 7.358286239164425479586e-01 
2.020672500000000176845e-02 7.582279877384177080302e-01 
2.046915000000000192659e-02 7.797283305770590366990e-01 
2.073157500000000208473e-02 8.002736787766303594438e-01 
2.099400000000000224287e-02 8.198203133926998953385e-01 
2.125642500000000240101e-02 8.383360998489576276782e-01 
2.151885000000000255915e-02 8.557996185859014781627e-01 
2.178127500000000271729e-02 8.721990722617939395533e-01 
2.204370000000000287543e-02 8.875311126520933902029e-01 
2.230612500000000303357e-02 9.017995628077625225316e-01 
2.256855000000000319171e-02 9.150381144564618818293e-01 
2.283097500000000334985e-02 9.272147831508235071851e-01 
2.309340000000000003855e-02 9.383694019396435770375e-01 
2.335582500000000366613e-02 9.485224407295824722297e-01 
2.361825000000000035483e-02 9.576958218375295484037e-01 
2.388067500000000051297e-02 9.659120506392879779156e-01 
2.414310000000000067111e-02 9.731934474680118407619e-01 
2.440552500000000082925e-02 9.795615086933594506391e-01 
2.466795000000000098739e-02 9.850363341366931146936e-01 
2.493037500000000114553e-02 9.896361662101396117208e-01 
2.519280000000000130367e-02 9.933769988830686292758e-01 
2.545522500000000146181e-02 9.962723437602514220401e-01 
2.571765000000000161995e-02 9.983339842179427270352e-01 
2.598007500000000177809e-02 9.995806724083979855067e-01 
2.624250000000000193623e-02 1.000000000000000000000e+00 
2.650492500000000209437e-02 9.994055459282813469457e-01 
2.676735000000000225251e-02 9.976448007810377882620e-01 
2.702977500000000241065e-02 9.947342578985565175742e-01 
2.729220000000000256879e-02 9.906453122329588190098e-01 
2.755462500000000272693e-02 9.853579787125652522661e-01 
2.781705000000000288507e-02 9.788495648540990190511e-01 
2.807947500000000304321e-02 9.710930644154155411130e-01 
2.834190000000000320135e-02 9.620573308508405530048e-01 
2.860432500000000335949e-02 9.517075373448968811374e-01 
2.886675000000000351763e-02 9.400058027598313659112e-01 
2.912917500000000020632e-02 9.269118477492895857850e-01 
2.939160000000000383391e-02 9.123838846596202811767e-01 
2.965402500000000052260e-02 8.963796054711553606964e-01 
2.991645000000000068074e-02 8.788574110686556695171e-01 
3.017887500000000083888e-02 8.597330096988532455171e-01 
3.044130000000000099702e-02 8.390628573038582116439e-01 
3.070372500000000115516e-02 8.167698793808163548746e-01 
3.096615000000000131331e-02 7.928308555388973166700e-01 
3.122857500000000147145e-02 7.672318037694619841105e-01 
3.149100000000000509903e-02 7.399700694516686549917e-01 
3.175342500000000178773e-02 7.110563774045491891584e-01 
3.201584999999999847642e-02 6.805168794141649435403e-01 
3.227827500000000210401e-02 6.483949732522062969764e-01 
3.254070000000000573159e-02 6.147528720697340576251e-01 
3.280312500000000242029e-02 5.796727695645669253821e-01 
3.306554999999999910898e-02 5.432574991115692863985e-01 
3.332797500000000273657e-02 5.056305812743316918656e-01 
3.359039999999999942526e-02 4.669355842828768476949e-01 
3.385282500000000305285e-02 4.274478549132664784160e-01 
3.411524999999999974154e-02 3.871288491266908771138e-01 
3.437767500000000336913e-02 3.462736732789501448160e-01 
3.464010000000000005782e-02 3.050847060098669794037e-01 
3.490252500000000368541e-02 2.637705560225526157936e-01 
3.516495000000000037410e-02 2.225417709491477602501e-01 
3.542737500000000400169e-02 1.816064308310560426740e-01 
3.568980000000000069038e-02 1.411658253102320292882e-01 
3.595222500000000431797e-02 1.014104143822409931364e-01 
3.621465000000000100666e-02 6.251626946977734133881e-02 
3.647707499999999769535e-02 2.464211578288682744087e-02 
3.673950000000000132294e-02 -1.207290374660063489443e-02 
3.700192500000000495053e-02 -4.751070502249889887514e-02 
3.726435000000000163922e-02 -8.157497659069368189932e-02 
3.752677499999999832792e-02 -1.141879506548821310297e-01 
3.778920000000000195550e-02 -1.453154373577581481847e-01 
3.805162500000000558309e-02 -1.749067304246260390332e-01 
3.831405000000000227178e-02 -2.029467037957623787303e-01 
3.857647499999999896048e-02 -2.294366787483589076313e-01 
3.883890000000000258806e-02 -2.543923439407607678397e-01 
3.910132499999999927676e-02 -2.778415879748813432926e-01 
3.936375000000000290434e-02 -2.998223568456871990229e-01 
3.962617499999999959304e-02 -3.203805981183534545842e-01 
3.988860000000000322062e-02 -3.395683446238429992192e-01 
4.015102499999999990932e-02 -3.574419761347474300273e-01 
4.041345000000000353690e-02 -3.740606793835372645418e-01 
4.067587500000000022560e-02 -3.894851162272190969738e-01 
4.093830000000000385318e-02 -4.037762894002483449185e-01 
4.120072500000000054188e-02 -4.169946133972348700780e-01 
4.146315000000000416946e-02 -4.292556750853894209641e-01 
4.172557500000000085816e-02 -4.405010863809549204184e-01 
4.198799999999999754685e-02 -4.508446686774514322593e-01 
4.225042500000000117444e-02 -4.603385143839800464072e-01 
4.251285000000000480203e-02 -4.690318011057914016071e-01 
4.277527500000000149072e-02 -4.769706724880088399843e-01 
4.303769999999999817941e-02 -4.841982005079466522268e-01 
4.330012500000000180700e-02 -4.907544065914115072324e-01 
4.356255000000000543459e-02 -4.966763309948385995973e-01 
4.382497500000000212328e-02 -5.019981504532606830793e-01 
4.408739999999999881197e-02 -5.067513252402692236487e-01 
4.434982500000000243956e-02 -5.109647779024293345884e-01 
4.461225000000000606715e-02 -5.146650953724574151238e-01 
4.487467500000000275584e-02 -5.178767529528546242901e-01 
4.513709999999999944453e-02 -5.206412381441202219534e-01 
4.539952500000000307212e-02 -5.229406443220292466378e-01 
4.566195000000000669971e-02 -5.248150019622324080615e-01 
4.592437500000000338840e-02 -5.262829929589047939231e-01 
4.618680000000000007709e-02 -5.273626129264016304532e-01 
4.644922499999999676579e-02 -5.280715060434781893406e-01 
4.671165000000000039337e-02 -5.284273247845794330146e-01 
4.697407500000000402096e-02 -5.284480911594383600871e-01 
4.723650000000000070965e-02 -5.281525783148216524054e-01 
4.749892499999999739835e-02 -5.275606853488926661910e-01 
4.776135000000000102593e-02 -5.266938053381921003293e-01 
4.802377500000000465352e-02 -5.255751775273916903686e-01 
4.828620000000000134222e-02 -5.242301927615217183032e-01 
4.854862499999999803091e-02 -5.226866551772866298364e-01 
4.881105000000000165850e-02 -5.210013140825660027389e-01 
4.907347500000000528608e-02 -5.191564506373932408323e-01 
4.933590000000000197478e-02 -5.172121776749192267886e-01 
4.959832499999999866347e-02 -5.152065105722462012849e-01 
4.986075000000000229106e-02 -5.131795167585534445109e-01 
5.012317500000000591864e-02 -5.111727764952389563291e-01 
5.038560000000000260734e-02 -5.092286747256430379238e-01 
5.064802499999999929603e-02 -5.073895111737440899446e-01 
5.091045000000000292362e-02 -5.056964754493500358024e-01 
5.117287500000000655120e-02 -5.041884894222484758686e-01 
5.143530000000000323990e-02 -5.029010247092862151419e-01 
5.169772499999999992859e-02 -5.018655423382084590500e-01 
5.196014999999999661728e-02 -5.010979187516186872386e-01 
5.222257500000000024487e-02 -5.006489280980408462796e-01 
5.248500000000000387246e-02 -5.005007504809200202800e-01 
5.274742500000000750005e-02 -5.006489280980408462796e-01 
5.300985000000001112763e-02 -5.010979187516186872386e-01 
5.327227500000000781633e-02 -5.018655423382084590500e-01 
5.353470000000000450502e-02 -5.029010247092862151419e-01 
5.379712500000000119371e-02 -5.041884894222484758686e-01 
5.405955000000000482130e-02 -5.056964754493500358024e-01 
5.432197500000000844889e-02 -5.073895111737440899446e-01 
5.458440000000000513758e-02 -5.092286747256430379238e-01 
5.484682500000000182627e-02 -5.111727764952389563291e-01 
5.510925000000000545386e-02 -5.131795167585534445109e-01 
5.537167500000000908145e-02 -5.152065105722462012849e-01 
5.563410000000000577014e-02 -5.172121776749192267886e-01 
5.589652500000000245883e-02 -5.191564506373932408323e-01 
5.615895000000000608642e-02 -5.210013140825660027389e-01 
5.642137500000000971401e-02 -5.226866551772866298364e-01 
5.668380000000000640270e-02 -5.242301927615217183032e-01 
5.694622500000000309139e-02 -5.255751775273916903686e-01 
5.720865000000000671898e-02 -5.266938053381921003293e-01 
5.747107500000001034657e-02 -5.275606853488926661910e-01 
5.773350000000000703526e-02 -5.281525783148216524054e-01 
5.799592500000000372395e-02 -5.284480911594383600871e-01 
5.825835000000000735154e-02 -5.284273247845794330146e-01 
5.852077500000001097913e-02 -5.280715060434781893406e-01 
5.878320000000000766782e-02 -5.273626129264016304532e-01 
5.904562500000000435652e-02 -5.262829929589047939231e-01 
5.930805000000000104521e-02 -5.248150019622324080615e-01 
5.957047500000000467280e-02 -5.229406443220292466378e-01 
5.983290000000000830038e-02 -5.206412381441202219534e-01 
6.009532500000000498908e-02 -5.178767529528546242901e-01 
6.035775000000000167777e-02 -5.146650953724574151238e-01 
6.062017500000000530536e-02 -5.109647779024293345884e-01 
6.088260000000000893294e-02 -5.067513252402692236487e-01 
6.114502500000000562164e-02 -5.019981504532606830793e-01 
6.140745000000000231033e-02 -4.966763309948385995973e-01 
6.166987500000000593792e-02 -4.907544065914115072324e-01 
6.193230000000000956550e-02 -4.841982005079466522268e-01 
6.219472500000000625420e-02 -4.769706724880088399843e-01 
6.245715000000000294289e-02 -4.690318011057914016071e-01 
6.271957499999999963158e-02 -4.603385143839800464072e-01 
6.298200000000001019806e-02 -4.508446686774514322593e-01 
6.324442500000000688676e-02 -4.405010863809549204184e-01 
6.350685000000000357545e-02 -4.292556750853894209641e-01 
6.376927500000000026414e-02 -4.169946133972348700780e-01 
6.403170000000001083063e-02 -4.037762894002483449185e-01 
6.429412500000000751932e-02 -3.894851162272190969738e-01 
6.455655000000000420801e-02 -3.740606793835372645418e-01 
6.481897500000000089670e-02 -3.574419761347474300273e-01 
6.508140000000001146319e-02 -3.395683446238429992192e-01 
6.534382500000000815188e-02 -3.203805981183534545842e-01 
6.560625000000000484057e-02 -2.998223568456871990229e-01 
6.586867500000000152927e-02 -2.778415879748813432926e-01 
6.613109999999999821796e-02 -2.543923439407607678397e-01 
6.639352500000000878444e-02 -2.294366787483589076313e-01 
6.665595000000000547313e-02 -2.029467037957623787303e-01 
6.691837500000000216183e-02 -1.749067304246260390332e-01 
6.718080000000001272831e-02 -1.453154373577581481847e-01 
6.744322500000000941700e-02 -1.141879506548821310297e-01 
6.770565000000000610569e-02 -8.157497659069368189932e-02 
6.796807500000000279439e-02 -4.751070502249889887514e-02 
6.823049999999999948308e-02 -1.207290374660063489443e-02 
6.849292500000001004956e-02 2.464211578288682744087e-02 
6.875535000000000673825e-02 6.251626946977734133881e-02 
6.901777500000000342695e-02 1.014104143822409931364e-01 
6.928020000000000011564e-02 1.411658253102320292882e-01 
6.954262500000001068212e-02 1.816064308310560426740e-01 
6.980505000000000737082e-02 2.225417709491477602501e-01 
7.006747500000000405951e-02 2.637705560225526157936e-01 
7.032990000000000074820e-02 3.050847060098669794037e-01 
7.059232500000001131468e-02 3.462736732789501448160e-01 
7.085475000000000800338e-02 3.871288491266908771138e-01 
7.111717500000000469207e-02 4.274478549132664784160e-01 
7.137960000000000138076e-02 4.669355842828768476949e-01 
7.164202500000001194724e-02 5.056305812743316918656e-01 
7.190445000000000863594e-02 5.432574991115692863985e-01 
7.216687500000000532463e-02 5.796727695645669253821e-01 
7.242930000000000201332e-02 6.147528720697340576251e-01 
7.269172500000001257980e-02 6.483949732522062969764e-01 
7.295415000000000926850e-02 6.805168794141649435403e-01 
7.321657500000000595719e-02 7.110563774045491891584e-01 
7.347900000000000264588e-02 7.399700694516686549917e-01 
7.374142499999999933458e-02 7.672318037694619841105e-01 
7.400385000000000990106e-02 7.928308555388973166700e-01 
7.426627500000000658975e-02 8.167698793808163548746e-01 
7.452870000000000327844e-02 8.390628573038582116439e-01 
7.479112499999999996714e-02 8.597330096988532455171e-01 
7.505355000000001053362e-02 8.788574110686556695171e-01 
7.531597500000000722231e-02 8.963796054711553606964e-01 
7.557840000000000391100e-02 9.123838846596202811767e-01 
7.584082500000000059970e-02 9.269118477492895857850e-01 
7.610325000000001116618e-02 9.400058027598313659112e-01 
7.636567500000000785487e-02 9.517075373448968811374e-01 
7.662810000000000454357e-02 9.620573308508405530048e-01 
7.689052500000000123226e-02 9.710930644154155411130e-01 
7.715295000000001179874e-02 9.788495648540990190511e-01 
7.741537500000000848743e-02 9.853579787125652522661e-01 
7.767780000000000517613e-02 9.906453122329588190098e-01 
7.794022500000000186482e-02 9.947342578985565175742e-01 
7.820265000000001243130e-02 9.976448007810377882620e-01 
7.846507500000000911999e-02 9.994055459282813469457e-01 
7.872750000000000580869e-02 1.000000000000000000000e+00 
7.898992500000000249738e-02 9.995806724083979855067e-01 
7.925234999999999918607e-02 9.983339842179427270352e-01 
7.951477500000000975255e-02 9.962723437602514220401e-01 
7.977720000000000644125e-02 9.933769988830686292758e-01 
8.003962500000000312994e-02 9.896361662101396117208e-01 
8.030204999999999981863e-02 9.850363341366931146936e-01 
8.056447500000001038511e-02 9.795615086933594506391e-01 
8.082690000000000707381e-02 9.731934474680118407619e-01 
8.108932500000000376250e-02 9.659120506392879779156e-01 
8.135175000000000045119e-02 9.576958218375295484037e-01 
8.161417500000001101768e-02 9.485224407295824722297e-01 
8.187660000000000770637e-02 9.383694019396435770375e-01 
8.213902500000000439506e-02 9.272147831508235071851e-01 
8.240145000000000108376e-02 9.150381144564618818293e-01 
8.266387500000001165024e-02 9.017995628077625225316e-01 
8.292630000000000833893e-02 8.875311126520933902029e-01 
8.318872500000000502762e-02 8.721990722617939395533e-01 
8.345115000000000171632e-02 8.557996185859014781627e-01 
8.371357500000001228280e-02 8.383360998489576276782e-01 
8.397600000000000897149e-02 8.198203133926998953385e-01 
8.423842500000000566018e-02 8.002736787766303594438e-01 
8.450085000000000234888e-02 7.797283305770590366990e-01 
8.476327499999999903757e-02 7.582279877384177080302e-01 
8.502570000000000960405e-02 7.358286239164425479586e-01 
8.528812500000000629274e-02 7.125987432964633327970e-01 
8.555055000000000298144e-02 6.886193456796954048826e-01 
8.581297499999999967013e-02 6.639834097603698470635e-01 
8.607540000000001023661e-02 6.387949644211166067009e-01 
8.633782500000000692530e-02 6.132440344973125734285e-01 
8.660025000000000361400e-02 5.873029264362318313530e-01 
8.686267500000000030269e-02 5.611706134564634629314e-01 
8.712510000000001086917e-02 5.349773760572463787710e-01 
8.738752500000000755787e-02 5.088540673226217281311e-01 
8.764995000000000424656e-02 4.829294664624093069705e-01 
8.791237500000000093525e-02 4.573276672668937781197e-01 
8.817480000000001150173e-02 4.321656969919773771949e-01 
8.843722500000000819043e-02 4.075514145539940180640e-01 
8.869965000000000487912e-02 3.835818241976404197047e-01 
8.896207500000000156781e-02 3.603417801974311829305e-01 
8.922450000000001213429e-02 3.379031779070975072266e-01 
8.948692500000000882299e-02 3.163245983380460479850e-01 
8.974935000000000551168e-02 2.956513500558074492020e-01 
9.001177500000000220037e-02 2.759084682834245239036e-01 
9.027419999999999888907e-02 2.571242209041102455558e-01 
9.053662500000000945555e-02 2.393080443947062097010e-01 
9.079905000000000614424e-02 2.224590271583116174448e-01 
9.106147500000000283293e-02 2.065674363007089231470e-01 
9.132390000000001339941e-02 1.916159783643386071983e-01 
9.158632500000001008811e-02 1.775810485407508798605e-01 
9.184875000000000677680e-02 1.644339275124958033025e-01 
9.211117500000000346549e-02 1.521418976443497939055e-01 
9.237360000000000015419e-02 1.406692593213384190332e-01 
9.263602500000001072067e-02 1.299782366103068853569e-01 
9.289845000000000740936e-02 1.200297687536675123043e-01 
9.316087500000000409806e-02 1.107841857496379422976e-01 
9.342330000000001466454e-02 1.022017788422206752141e-01 
9.368572500000001135323e-02 9.424326627005998047171e-02 
9.394815000000000804192e-02 8.683362685519920021182e-02 
9.421057500000000473062e-02 8.000997351948911651132e-02 
9.447300000000000141931e-02 7.369823788004861708778e-02 
9.473542500000001198579e-02 6.786383616399242757478e-02 
9.499785000000000867448e-02 6.247378364623509816589e-02 
9.526027500000000536318e-02 5.749676028726104226596e-02 
9.552270000000000205187e-02 5.290313971150160943235e-02 
9.578512500000001261835e-02 4.866499304784292073700e-02 
9.604755000000000930704e-02 4.475606658485314220952e-02 
9.630997500000000599574e-02 4.115174406397844458771e-02 
9.657240000000000268443e-02 3.782899640380434080900e-02 
9.683482500000001325091e-02 3.476631822693557888337e-02 
9.709725000000000993960e-02 3.194366187308912002907e-02 
9.735967500000000662830e-02 2.934236463892788207564e-02 
9.762210000000000331699e-02 2.693035000963758113235e-02 
9.788452500000001388347e-02 2.472191228548284783195e-02 
9.814695000000001057217e-02 2.268629416608428095437e-02 
9.840937500000000726086e-02 2.080963623631686479354e-02 
9.867180000000000394955e-02 1.907909105486516043726e-02 
9.893422500000001451603e-02 1.748275419965115637377e-02 
9.919665000000001120473e-02 1.600959684946524907989e-02 
9.945907500000000789342e-02 1.464940245050094964896e-02 
9.972150000000000458211e-02 1.339270575702176772903e-02 
9.998392500000000127081e-02 1.223073539831247280585e-02 
1.002463500000000118373e-01 1.115535944820924413312e-02 
1.005087750000000085260e-01 1.015903424160458784486e-02 
1.007712000000000052147e-01 9.234755914221433673039e-03 
1.010336250000000019034e-01 8.376015119534618857955e-03 
1.012960500000000124698e-01 7.571660628876311291413e-03 
1.015584750000000091585e-01 6.826544469994140322544e-03 
1.018209000000000058472e-01 6.129945551095694611377e-03 
1.020833250000000025359e-01 5.476935627810047488295e-03 
1.023457500000000131024e-01 4.862891112777224453256e-03 
1.026081750000000097911e-01 4.283462246844548307334e-03 
1.028706000000000064798e-01 3.734543701724991372759e-03 
1.031330250000000031685e-01 3.212247455537882261101e-03 
1.033954500000000137350e-01 2.712876548175036529181e-03 
1.036578750000000104237e-01 2.232896420638335634179e-03 
1.039203000000000071124e-01 1.768889869374413656433e-03 
1.041827250000000038010e-01 1.317444072500184755470e-03 
1.044451500000000143675e-01 8.839971367128889208342e-04 
1.047075750000000110562e-01 4.397756352988977952140e-04 
1.049700000000000077449e-01 6.677482805208577561406e-17 
