# Created by Octave 5.1.0, Mon May 27 20:44:41 2019 CEST <alatina@pc31.home>
# name: T
# type: matrix
# rows: 182
# columns: 11
 -0.40301100128940004 0.063857898542784841 0.063857896738565137 0.063857890982767729 0.25001249869551351 0.25001245497791685 0.50043774494836013 0.00013051876930074888 0.00013051875016563589 0 1.2505033564202961e-08
 9.5969889987105823 1.7699285672752405 1.7690786441118627 0.23986362491990926 0.27826761109625614 0.27833699350067509 0.56083994096063072 0.029508552920191986 0.029500296597510477 0.10315006098124917 1.1522629027248958
 19.596988998710611 6.3275573311519997 6.3262756770530251 0.40667715200412774 0.33619381299052464 0.33624525111281645 0.6796459030657358 0.010577841531393593 0.010577842375694304 0.10823773751533834 2.5043112139889558
 29.596988998710753 12.415914380572611 12.414757800562604 0.37266565395433088 0.37782493373641352 0.37773695571131016 0.76410459535542707 0.021925879296619238 0.021943185831415687 0.10903976571899772 3.5759717986208761
 39.596988998710891 17.54175322392609 17.541000550073143 0.48536816124093712 0.39926265768990471 0.39908762591200236 0.80739248375231309 0.023199979410349375 0.023192592868536623 0.10925388445943074 4.6511068755543121
 49.596988998711034 19.916116862448156 19.915311285866437 0.52869764005769138 0.40017077365972142 0.40003680784997075 0.8095249933883778 0.032154222602848975 0.032160463302003089 0.10931561854184227 6.0119938169765383
 59.596988998711176 20.246104556147245 20.245314299621654 0.46979018047805299 0.39084502677630789 0.39089308116502541 0.79091303691608006 0.032128462746300102 0.032123955002141956 0.10931262597752883 7.631861350393323
 69.596988998710927 23.93981026732531 23.939220724505788 0.42323676806021771 0.41800426953385122 0.41805349494877392 0.84593683452204704 0.036094428810621207 0.036090416269891845 0.10926704271114265 7.6391372975523888
 79.596988998710358 27.301998686055686 27.301416588757768 0.42952772471061668 0.44254369275820538 0.44234571226006847 0.89521494233927357 0.036593836756508506 0.036589514767948313 0.10922696795871993 7.6392223682291851
 89.59698899870979 30.248789083197792 30.248476345265281 0.43576166510585629 0.46370044736920563 0.46337262786910055 0.93785502187305503 0.036907054090649025 0.036881258500340033 0.10919121822208165 7.6392983674912225
 99.596988998709222 32.733416076987396 32.733341720624352 0.44191604971334764 0.48110327485756954 0.48137000166493599 0.973386496934045 0.037047258850627568 0.037065353320519842 0.10915963046178703 7.6393597750428688
 109.59698899870865 34.635103891734026 34.635264469610547 0.44787331584605078 0.4951527815269417 0.49495993034538305 1.0014650588946885 0.037074389455615316 0.037058333317843598 0.10913207267657765 7.6394075755326396
 119.59698899870808 35.915608542851011 35.915979987121716 0.45373990413340487 0.50510054005844096 0.50535920076928154 1.0218682002146633 0.036922054039497471 0.03694337292663312 0.10910843464243063 7.6394428047773895
 129.59698899870753 36.44008457438941 36.440710166284518 0.45944452334458669 0.51128024283468898 0.51163687446201578 1.0345035540173189 0.036565926675914628 0.036592093295765481 0.10908861843812034 7.6394666653930345
 139.59698899870696 36.103035477858548 36.103833042182465 0.46503325822583313 0.51406208277493193 0.51390329695724457 1.0394329973597669 0.035902761825218246 0.03589103737427355 0.10907252509818484 7.6394808157458707
 149.59698899870639 34.658270137226317 34.659271147618703 0.47049976514578939 0.51280708606764858 0.51253407534071205 1.0369208818336568 0.034642383508338391 0.034621694651409692 0.10906003196188553 7.6394877817577607
 149.59698899870639 34.658270137226317 34.659271147618703 0.47049976514578939 0.51280708606764858 0.51253407534071205 1.0369208818336568 0.034642383508338391 0.034621694651409692 0.10906003196188553 7.6394877817577607
 159.59698899870639 31.80179874169367 31.802975186506227 0.4786262056130956 0.50804515328162336 0.5078601847639409 1.0275184170082381 0.032392023470301769 0.032378022836501041 0.10905095440144036 7.6394806790065006
 169.59698899870639 27.153934515044842 27.155103456054846 0.48485282418641701 0.50042876813987014 0.50023670890023153 1.0121832685452943 0.028647729265147616 0.028632942827984054 0.10904501538531566 7.6394791441523138
 179.59698899870639 20.731712545738731 20.733046635725636 0.49119601442427629 0.49044271068192635 0.49055643387346742 0.99235381831476932 0.023249191477427298 0.023254375909611186 0.10904187164891933 7.6394771367477956
 189.59698899870639 13.695813173815054 13.697271442980666 0.49573729284572138 0.47928955717277899 0.47933220598800141 0.96976343460469883 0.017356448051565339 0.017349981706138936 0.1090413521915692 7.6394660205511729
 199.59698899870639 7.8965114489188393 7.898120704674243 0.4984947779793889 0.46748963037741997 0.46768712939674678 0.94591821449925406 0.012954013665375911 0.012941563310313204 0.10904373035760848 7.6394396084108545
 209.59698899870639 4.1936089619121883 4.194901006810845 0.49931889934345103 0.45541397389151272 0.4554783717069571 0.92170695736320252 0.010769229248867578 0.010767664319614451 0.10904952327840736 7.6394017513613806
 219.59698899870639 2.2243090746058249 2.2278850862891524 0.50086748381100155 0.44323377758433813 0.44340040586485974 0.89749781201769796 0.009976872202941035 0.0099679046260820314 0.10905911479519294 7.6393584912215244
 229.59698899870639 1.2805527957266531 1.2830798271488848 0.50008259597337157 0.43114155896758394 0.43162667422511175 0.87341152927267585 0.0096900796318264183 0.009676437820879031 0.1090727038626764 7.639312956822665
 239.59698899870639 0.85178292291444035 0.85525789228887661 0.50399035092773281 0.41937536060041208 0.41986873327244972 0.84948605402401944 0.0095495723120475346 0.0095357866846975409 0.10909040270682734 7.6392661110403735
 249.59698899870639 0.66333632797851139 0.66866526966707984 0.50714224509412009 0.40778776715210974 0.40822457308567883 0.82573593051541072 0.0094485986674108496 0.0094346645214926535 0.1091122976109678 7.6392181579797169
 259.59698899870637 0.5810497652617358 0.58614206087264364 0.50817279480097088 0.39607815040532873 0.39660177525061591 0.80216927638568469 0.0093529630756034304 0.0093372205028031258 0.10913846928176495 7.6391689893591943
 269.59698899870637 0.54650189948839245 0.55129612443892473 0.51129617750927547 0.38461242635285464 0.38507177903397743 0.77879237955611191 0.0092604136804332413 0.0092466102345100023 0.10916899627377007 7.6391189881838164
 279.59698899870637 0.53098424705079739 0.53619882306878419 0.51388959421589042 0.37328311480137399 0.37363605025257751 0.75562625766712532 0.0091668893711108843 0.0091550899512739328 0.10920396190424408 7.6390679473283418
 289.59698899870637 0.52468793267410596 0.52905960915273487 0.51614201936262138 0.36205102872719691 0.36235369063034739 0.73278275329650366 0.0090717213882550579 0.0090614820547287207 0.10924344920585767 7.639015847469417
 299.59698899870637 0.52240524038921354 0.52717478940733931 0.51878488316870763 0.35092086161507791 0.35120331242356034 0.71014920409495086 0.0089755082109420868 0.0089653015372826109 0.10928754290335539 7.6389626676271343
 309.59698899870637 0.52117940930162299 0.52752741188702068 0.52093056465710963 0.33982363007023619 0.34029612799297027 0.68773156396251756 0.0088800391535099939 0.0088627587891214055 0.10933632947748856 7.6389083873248653
 319.59698899870637 0.52151238520125287 0.52658122377396588 0.52208195882250541 0.32899635680391426 0.32932277493830764 0.665647326542122 0.0087738482173640737 0.0087618989418497099 0.10938989720602145 7.6388529856981764
 329.59698899870637 0.52234960178010281 0.52601438074810902 0.52305799166914269 0.3183094700137567 0.31843076026337286 0.64382659330067826 0.0086631775455179114 0.0086581713704831122 0.10944833619740729 7.638796443313832
 339.59698899870637 0.52056280125675403 0.52428021086569832 0.52178028154396405 0.30768672286995902 0.30782126958073203 0.62241287131678114 0.0085518117628490438 0.0085464092925220878 0.10951173841241164 7.6387387743635164
 349.59698899870637 0.52135235343324537 0.5250561454299153 0.52284820797611209 0.29720263833485999 0.29732526288851535 0.60128035662260115 0.0084388247088821675 0.0084335444933109245 0.10958019765906112 7.6386798957448425
 359.59698899870637 0.52162132664218064 0.52522948517804013 0.52323716260574149 0.28687966671274245 0.28686636951342137 0.58040229635445673 0.0083185541543530812 0.0083170160319699215 0.10965380969105858 7.638619856052034
 369.59698899870637 0.51950723951094047 0.52279722551460162 0.52105234072290474 0.27662687550595638 0.27665860385982505 0.55978637021892697 0.0081943745612850366 0.0081920860329482269 0.10973267209000258 7.6385583363873364
 379.59698899870637 0.5193943327670697 0.52251603112782807 0.52090326643938267 0.26651014867804562 0.26666924952387239 0.53944055841069083 0.0080709939277008175 0.0080651083915232735 0.10981688208843642 7.6384958383076169
 389.59698899870637 0.5180087299996905 0.52004823257848731 0.5190044079582572 0.25667381400727274 0.25681994659609575 0.51937314771198406 0.007940972948446692 0.0079366955670631695 0.10990654323711686 7.6384321188935731
 399.59698899870637 0.51731427721160606 0.51876470780482864 0.51802870787070732 0.24702688791986324 0.24697966183722453 0.4995927365191466 0.0078031453589001839 0.00780517995246666 0.11000175864179768 7.638366923478686
 409.59698899870637 0.51639369891239584 0.51690600962820499 0.51663612162661454 0.23745705191489763 0.23741350550778073 0.48047288201810101 0.0076627169734800682 0.0076666121376256441 0.11010263081439933 7.638300761838372
 419.59698899870637 0.51322804376533171 0.51410788399966734 0.51365062922008409 0.22806449174236429 0.22810358425284707 0.46201823888838112 0.0075191107116024409 0.0075203464528357479 0.1102092688987599 7.6382333895651184
 429.59698899870637 0.50707020067554032 0.50777098687700906 0.50736144484622092 0.21895732540756865 0.21890703053712401 0.44387734835809661 0.0073650651471559372 0.0073698081367309732 0.11032178131959547 7.6381648429290392
 439.59698899870637 0.50058960941168584 0.50237865903146017 0.50144049645217781 0.20992489140652076 0.20993803661199562 0.4262918164511566 0.0072090050733617525 0.0072091928712033756 0.11044027793788451 7.6380951137398059
 449.59698899870637 0.49573262543712732 0.49667678317345532 0.49615621677389832 0.20113884036916563 0.20100489531585802 0.40939363605722268 0.0070390785126832481 0.0070457253775666152 0.11056487005732597 7.6380239746248835
 459.59698899870637 0.48791432984448596 0.487917684533826 0.48789210342958472 0.19262115611111652 0.19243934533395735 0.39284052202294256 0.0068645900834410105 0.0068736870235572975 0.11069566774358254 7.6379517431788324
 469.59698899870637 0.47976417203765664 0.47984706976459296 0.47979016550913056 0.18429307871734915 0.18409015298738698 0.37664419737360294 0.0066865862497329188 0.0066957309864209185 0.11083278506324666 7.6378788101349224
 479.59698899870637 0.47046615678332493 0.471129673713715 0.47079589599578414 0.17611193372952888 0.17589863789846713 0.36081685016396137 0.006496267201491799 0.0065063325782652847 0.11097634015717663 7.6378048948072257
 489.59698899870637 0.46141787432900228 0.46251931650114869 0.46196618407729612 0.16830535201887342 0.16788309778103808 0.34562737723052817 0.0062995612483631508 0.0063181993222170647 0.11112644960304852 7.6377301504087987
 499.59698899870637 0.44952027112912935 0.45284563257377697 0.45117656495456032 0.16037557486805157 0.1602903482606271 0.33112947753416644 0.0060996896880422848 0.0061034033282133925 0.11128323080095683 7.63765465365399
 509.59698899870637 0.43892834704200784 0.44322559098442055 0.44105443210880979 0.15293974335744073 0.15280261129507205 0.31714184017017955 0.0058882165084573916 0.0058952274107416363 0.11144680148868986 7.6375785852340501
 519.59698899870637 0.42720291170382096 0.43025244665163126 0.4286985007102298 0.14572826776226808 0.14576991609897977 0.3041106562517038 0.0056746660026012188 0.0056767399748309608 0.11161727960629236 7.6375021334785727
 529.59698899870637 0.41607855874841776 0.42029430269733253 0.41816012009526349 0.1387350526955265 0.13886181384010232 0.29151916948307599 0.0054498548792528828 0.0054481086749731374 0.11179478287030585 7.6374252038996024
 539.59698899870637 0.40278446916643534 0.40419029690730485 0.40348297856713544 0.13209016110628286 0.13214625935167845 0.27938376242350477 0.0052043854776482349 0.0052116223506803033 0.11197942511280587 7.6373487803589422
 549.59698899870637 0.38444962905644298 0.3847323155674956 0.38458420070436317 0.12584178812552702 0.12597849856410895 0.26772135796901114 0.0049551000170980396 0.0049611533562062635 0.11217132526319003 7.6372729274770306
 559.59698899870637 0.37043599230560825 0.36956260480988723 0.36997705051856244 0.1198704506508602 0.11999926295046227 0.25724924293960716 0.0046977313041149799 0.0047051187424694023 0.11237059736577858 7.6371981438769145
 569.59698899870637 0.35141038868654451 0.35171457365447106 0.35148189997130136 0.11407901064795198 0.11442930917392316 0.24797026895346452 0.0044316019231046789 0.0044321662037065382 0.11257735284028131 7.6371250328743754
 579.59698899870637 0.33343005813468996 0.33559921876211896 0.33446664376034857 0.10885435538031565 0.10923494878909948 0.23931470756822959 0.0041635273013935518 0.0041638864402116548 0.11279169987311845 7.6370543118077192
 589.59698899870637 0.31194605599793895 0.31411177559482828 0.31300401755296431 0.10394246207465938 0.10442621533502131 0.23121802318745921 0.0038810150999914533 0.0038716782195915484 0.11301374204798226 7.6369867552812307
 599.59698899870637 0.29504947166361506 0.29616221556260486 0.29558431109437189 0.099453878874600346 0.099799128936867279 0.25368604968116309 0.0035889266211007252 0.0035907575627308038 0.11324357703317034 7.6369230430033754
 609.59698899870637 0.27823432646849444 0.28169476722455916 0.27993089779549696 0.095282902931334526 0.095817403804219284 0.2773573776192973 0.0033083328372826059 0.0033032855190834815 0.11348128315805978 7.6368642398303406
 619.59698899870637 0.26274040379915015 0.26728832396062363 0.26496415480807911 0.091686569528143566 0.092211152783091152 0.30117039631261411 0.0030288303250434485 0.0030152932857018034 0.11372693297412054 7.6368112922032862
 629.59698899870637 0.24814210632900913 0.25226109151813991 0.25013495421544024 0.088572613396204744 0.088908576098236713 0.3251202476048925 0.0027500366944645826 0.0027422518641933469 0.11398059204250272 7.6367643027525949
 639.59698899870637 0.23669387829742775 0.24193948653069275 0.23920643408595238 0.085730462919956479 0.086243249755084475 0.34920242935186246 0.0024943761983591121 0.0024751548267420683 0.11424229253555251 7.6367241863765747
 649.59698899870637 0.22887967715821064 0.23467695281516884 0.23158288737528451 0.083377162590954373 0.083791280743748253 0.37341253972237209 0.0022599869187362601 0.0022369644956817692 0.11451204931280541 7.6366906308816533
 659.59698899870637 0.22337826861180823 0.227892377813042 0.22534156396826943 0.081388545216329919 0.081858893139080666 0.39774637062013535 0.0020417640641887487 0.002021577636289915 0.11478985988007426 7.6366631265697942
 669.59698899870637 0.22166080840558608 0.22490637859246804 0.22266930256538262 0.079717933133070101 0.08030334097423511 0.42219981667820133 0.0018557494698481173 0.0018382995214257037 0.11507570580522564 7.6366421300226657
 679.59698899870637 0.22215907033132792 0.22499306131936053 0.22205875711123074 0.078382908545898008 0.078964134507170422 0.4467685442948704 0.0017130668463378579 0.0016981036796164708 0.11536956242744195 7.6366270302009296
 689.59698899870637 0.22696783048602615 0.22884553415773806 0.22354841990923974 0.077489179858239901 0.07786474766217906 0.47144686792517709 0.0016274260749269071 0.0016159806275693575 0.11567138976532225 7.6366174744297366
 699.59698899870637 0.24017795056085073 0.24201558833462547 0.22759845119523289 0.076926357915903576 0.077167413592504161 0.49622358371707925 0.0016425516453359259 0.0016294282967537518 0.11598113658896388 7.6366130613854368
 709.59698899870637 0.27562123876618355 0.27588377823153748 0.237847583308198 0.076262976073751529 0.07646266852122785 0.52127657769423341 0.0018437871818784981 0.0018473607837993713 0.11629845011562819 7.6309339724974441
 719.59698899870637 0.34486460939572988 0.34836606794768515 0.27022201420875402 0.074498702631424524 0.074803832545993473 0.5328240577823089 0.0030834821351254193 0.0030414698697718823 0.11661391911909874 8.0447513015021102
 729.59698899870637 0.38711213811912948 0.39077368481887692 0.25893288348032317 0.072232827089419277 0.072509221515074246 0.53948315141337044 0.0030091974367163869 0.0029770684392618316 0.11686501215772394 8.6026033788283698
 739.59698899870637 0.43463435062268413 0.43874161800803002 0.27171581209000906 0.070429885047948781 0.070546213088620191 0.54562906730360639 0.0034519996863977115 0.0034114497217752992 0.11706435345419655 9.1418981202633098
 749.59698899870637 0.46579663536056387 0.47117702503335723 0.28784620776261 0.068944495968816188 0.069150352493107678 0.54912942569065337 0.0039420292699549374 0.0039011212065892201 0.11722519764797816 9.7429874420059228
 759.59698899870637 0.47167040855382042 0.47672559481920113 0.28737783855029364 0.067586750221374059 0.067636315047347559 0.55113993767926128 0.0040718451659028541 0.004022833278473718 0.11735355376517424 10.36762477015025
 769.59698899870637 0.46262014803589313 0.46858154604144547 0.27636005729929608 0.066262324495210731 0.066302021205003336 0.55295743874745051 0.0038951810857631255 0.0038461918534792236 0.11745809786009806 10.96898735740999
 779.59698899870637 0.45086639903084874 0.45400737406397051 0.26397827037788618 0.065118995648602726 0.06502291019058172 0.55496370876969836 0.0036728326112646669 0.0036340999231768453 0.11754158694726653 11.528877900030015
 789.59698899870637 0.44564529937690156 0.44809677910174617 0.26423613297918441 0.064260538030537787 0.064013162088185069 0.55644901005152148 0.0037400036618532302 0.0036950094926253029 0.11760966890957637 12.06879409629288
 799.59698899870637 0.44456515601107754 0.44711139780904896 0.27316528832637865 0.063424436192929076 0.063131391645193269 0.55588628254292871 0.0039645346208139649 0.0039146555585358334 0.11766590097730883 12.670484850930261
 809.59698899870637 0.43594193983555685 0.43738034371060874 0.27229896180253194 0.062489709000368411 0.062059727553172454 0.55428355662400852 0.0039846417041361137 0.0039359525639084021 0.11771137880850721 13.295875771708662
 819.59698899870637 0.41839703861224203 0.42249264154638394 0.26325537816492356 0.061299477957023313 0.061004182300269223 0.55271328375414908 0.0037757460138911833 0.0037240490882866936 0.11774883334554245 13.898459042731112
 829.59698899870637 0.39951396268826217 0.40515294620675146 0.25168193754920859 0.060305039849478909 0.059965935367239757 0.55152490417921662 0.0035398485550901335 0.0034741638897093558 0.11777861180390349 14.458898440315505
 839.59698899870637 0.38971272788724676 0.39392493890762659 0.25108080160539559 0.059559858443973594 0.059207859700477358 0.5501460393725659 0.0035416580235284566 0.0034858788660066496 0.11780275104982421 14.99889872534045
 849.59698899870637 0.38470609159054681 0.38877196510819523 0.26051038077162886 0.059033264849697578 0.058617707539731882 0.54733451680432654 0.0036904304917012008 0.0036373346101884647 0.1178225229540559 15.600686760957146
 859.59698899870637 0.36629137288528529 0.37107084220288494 0.25976105634859842 0.058266154360504772 0.057851655840997739 0.54388675682146459 0.0036162537284350807 0.0035624570182636803 0.11783807426021026 16.226615176392531
 869.59698899870637 0.33127489813212502 0.33532988605213504 0.24548206289780306 0.0574282879092292 0.056997588899234453 0.54070676878622648 0.0032396814427463482 0.0031846563839799066 0.11785048514268329 16.828814480688145
 879.59698899870637 0.28003212893130408 0.28385798446867616 0.21899902587904249 0.056749688400315759 0.056413583327755056 0.53809432300879034 0.002688328547400609 0.0026389027443502341 0.11785966332020559 17.389079217289343
 889.59698899870637 0.23992187460811279 0.24490745950822057 0.20791066733018831 0.056671272436805427 0.056342416134538484 0.53562015779880234 0.0024328829965303213 0.0023755873423079053 0.11786650973900238 17.929036916273681
 899.59698899870637 0.22430608303215582 0.22803279127074663 0.212674001562589 0.056756650699576472 0.056387565815144675 0.532284446251171 0.0025012171015219467 0.0024476384088165321 0.11787157704769324 18.530732895683663
 909.59698899870637 0.21112605369880466 0.21398800244515162 0.20814974164552558 0.056322362161356422 0.055936179241993879 0.52872035805835593 0.0024327404321679382 0.0023831642754996805 0.11787481168000899 19.156274440457622
 919.59698899870637 0.18960242257422666 0.19567569004066437 0.19108294767112302 0.055607111675472096 0.055351564470305613 0.52562438512334608 0.0021340397256099726 0.0020686496141931452 0.11787673122367807 19.757867474338774
 929.59698899870637 0.1818645481940899 0.18445669606961676 0.18253801366303377 0.054595110360797297 0.054285125639243613 0.52318062836666501 0.0018559694857197147 0.0018143288144527345 0.11787716945429184 20.317548453375057
 939.59698899870637 0.1795772811509676 0.18496816187673171 0.18191914497992315 0.054332152035030438 0.054010872631698188 0.52095715512190699 0.0019305060454364094 0.0018631927754266967 0.11787659038738807 20.85722770889576
 949.59698899870637 0.18906736140020211 0.19290436154140742 0.19074861819364211 0.054361544737525386 0.054001335011958064 0.51804796045936408 0.0021826046478330809 0.0021272850721345644 0.11787527091802173 21.459308229573651
 959.59698899870637 0.1906787801815624 0.19295867611693457 0.19159616051095887 0.05402395029491646 0.053552799505952528 0.51496357378686586 0.0022126846172966959 0.0021645957638366155 0.117873113875336 22.084307554144814
 969.59698899870637 0.1791248727921331 0.18286277991723712 0.18066876729784248 0.05326273274714427 0.052821386120405149 0.51227205734690417 0.0019930164264790932 0.0019358417041838106 0.11787039815572792 22.685216345184617
 979.59698899870637 0.1763545579664354 0.17765780387312216 0.17646168919270078 0.052353130271634137 0.051830974730358061 0.51013138223379051 0.0018091775883879184 0.0017702982987204592 0.11786696698621277 23.244080195929616
 989.59698899870637 0.1756769446147792 0.18069480836347129 0.17685352804746066 0.052193475632386549 0.051741423563481742 0.50816381073698236 0.0018841932696615953 0.0018161490911899206 0.11786308812495602 23.783942859142254
 999.59698899870637 0.18571962557544389 0.18979117554438607 0.18403853582688162 0.052368409638243067 0.051833764543838902 0.50620928322003278 0.0021144445195694439 0.0020564111423572013 0.11785891106068083 24.385218740762376
 1009.5969889987064 0.1977473468638635 0.20181311396009433 0.18935619255691954 0.051913911835857626 0.051377722472967027 0.5043991724018061 0.0022376716882790216 0.0021837974207882622 0.11785435055169913 25.009653352383445
 1019.5969889987064 0.21267040865941853 0.21457332013386879 0.18877819695707448 0.051029541038864534 0.050403480391080405 0.50288742230593986 0.0022675081499159864 0.0022239660476950154 0.11784957227040646 25.609687318926774
 1029.5969889987064 0.23731899542345944 0.24038743345465902 0.19441950046120365 0.050368301915636807 0.04981999854891709 0.50180251395769548 0.0024676035336486553 0.0024109609836933106 0.11784444811400327 26.167486232971196
 1039.5969889987064 0.26602443670297077 0.26769918175582974 0.20404010497692188 0.050333319440570928 0.049779919753534255 0.50078862116026335 0.0027552305012221862 0.0027109793440174197 0.11783914712608713 26.706635907794002
 1049.5969889987064 0.29218466656334274 0.29453955951751198 0.2176224453303352 0.050644853494732515 0.050199420637864027 0.49915994884172543 0.0030407852588627839 0.0030031654434073572 0.11783375688733237 27.307114463990828
 1059.5969889987064 0.30281162089666042 0.3056540450391651 0.22056538633724937 0.050617832774543528 0.0502306242779684 0.4972655347703982 0.0031537300078272436 0.0031175055891581875 0.11782820468437563 27.930962827526965
 1069.5969889987064 0.30074293845697719 0.30265970979884099 0.21385937319486131 0.050152308961950755 0.049813257140863793 0.49553679416741186 0.0031147141531368923 0.0030810578253414617 0.1178225945175346 28.531122744123763
 1079.5969889987064 0.29521828480610196 0.29778043680955574 0.20729970550193505 0.04961367494812554 0.049296387230217953 0.49411761854766817 0.0030901333619185434 0.0030412402967813575 0.11781681838760084 29.087781781256382
 1089.5969889987064 0.29918578785003924 0.3021354510855721 0.21021984313885411 0.04961667156178879 0.04951983834590179 0.49270679925011029 0.003117870607838288 0.00308392703233565 0.11781098878400424 29.626178552665891
 1099.5969889987064 0.30886788511255059 0.3108428191544324 0.2185129425798783 0.05008349676181427 0.049950435390934564 0.49072058384369638 0.0032056071346467387 0.0031895655610884913 0.11780516148549999 30.225860550929966
 1109.5969889987064 0.30939640687040421 0.31037211721728797 0.21893040185125937 0.050023327047701606 0.049912204726537374 0.48848346121017255 0.0032124493540298172 0.0032076761469285167 0.11779927923656067 30.849618659389368
 1119.5969889987064 0.29889881938976376 0.30039523385874506 0.21089267117989158 0.049370373281115015 0.049278425500726322 0.48640795253964092 0.0031216132233787795 0.003106931275433357 0.11779340975290237 31.448354068667665
 1129.5969889987064 0.288349345548083 0.29122188469070798 0.20372516173292285 0.048793813274893939 0.048715413194304398 0.48461671258029576 0.0030595979432304727 0.0030204545124522643 0.11778746966344035 32.003775804098289
 1139.5969889987064 0.288548694250369 0.29050372526152002 0.20608191452298696 0.048925967928175433 0.048784779103675284 0.48284378099509356 0.0030430144106231528 0.0030161173514437058 0.11778153903355387 32.54156196458797
 1149.5969889987064 0.29289664533650428 0.29432262156393768 0.2136296731415489 0.049434645634059658 0.049419639782404011 0.48057865290818691 0.0030692273373270685 0.0030660784582633169 0.11777565464210363 33.14050035255854
 1159.5969889987064 0.28398964874700772 0.28535387844184529 0.21320425149022026 0.049326553148071668 0.049354184034478964 0.47811419782544373 0.0029900205108019367 0.0029909849414349382 0.11776976994110748 33.76323974854683
 1169.5969889987064 0.25739889435553792 0.25953049089813746 0.20150762596531482 0.0484065636109633 0.048528952667320061 0.47582819710066088 0.0027430378647919644 0.0027355520114078235 0.11776393200555535 34.360556553209115
 1179.5969889987064 0.22300958651938649 0.22431465634645664 0.1851718717421538 0.047494273901712916 0.047478347306032474 0.47383885437237994 0.0024142490380030033 0.0024000665991422252 0.11775807247763635 34.914582349713882
 1189.5969889987064 0.19703602021609065 0.20063226114040947 0.17831078647826626 0.047287256121190738 0.04744800753299136 0.47191575621283077 0.0021786678118829021 0.0021554397518898762 0.11775225016679813 35.451683144862834
 1199.5969889987064 0.188546787092878 0.19161827249232385 0.18167119708575499 0.048068322423385053 0.04817346958423558 0.46960833204620683 0.0021397919142867208 0.0021229597668108013 0.11774649289562124 36.050795524624085
 1209.5969889987064 0.17980779486754878 0.1822493187002675 0.17815130114989861 0.04824722033448612 0.048273570937806487 0.4671923217814411 0.0020644860883472066 0.0020466029400103853 0.11774076365736415 36.672535446193336
 1219.5969889987064 0.16493113734192447 0.16841703470284228 0.16567787560427846 0.047357522439777942 0.047457069664580652 0.46623613254932184 0.0018832886861906207 0.0018533600370641034 0.11773509892099142 37.268541010089677
 1229.5969889987064 0.16219486045536877 0.16531519903381051 0.16332791125894056 0.046602472028083632 0.046747746015763134 0.46591407916073441 0.0018108513264509776 0.0017831031791634578 0.11772944420734914 37.821179591104105
 1239.5969889987064 0.16299853278020238 0.16591370476069672 0.16421187630890804 0.046841690358420209 0.046901170018563428 0.46565426010697453 0.0018344704739409769 0.0018057507500943545 0.11772384502838905 38.357838588810722
 1249.5969889987064 0.17023149253417683 0.1729590014466526 0.17137564476052641 0.047635585706392682 0.047842450256534608 0.46503741846205299 0.0019523248677370099 0.0019365220619641298 0.11771832002033379 38.955826101962479
 1259.5969889987064 0.1718016159714994 0.17373255888925004 0.17253679489465354 0.047709512210811281 0.047819355593971789 0.46429992984909357 0.001965923604814577 0.0019522978596735515 0.11771283850418492 39.57653316013019
 1269.5969889987064 0.16138513563907494 0.16451836201708619 0.16270265748259796 0.046638815909539534 0.046767922192429139 0.46374137517546055 0.0018419340650453662 0.0018149259221041738 0.11770742703590734 40.171172541726818
 1279.5969889987064 0.16064931497205515 0.16374209295671899 0.16178839269302189 0.045901205445349577 0.046077284755911579 0.4634468679646096 0.0018159237785992178 0.0017885795591374451 0.11770204057038886 40.722341267593144
 1289.5969889987064 0.16100500153572206 0.16457267158668232 0.16185596370663577 0.046087100689668037 0.046242844327176784 0.46320403345455946 0.0018312688983539997 0.0018003848729991549 0.11769671474753246 41.258572469874224
 1299.5969889987064 0.16927823079886431 0.17252090011170507 0.1682374550223979 0.046802354449612039 0.046900773994395566 0.46278764375177045 0.0019558880890871038 0.0019320582785830548 0.11769146266044711 41.855357462804555
 1309.5969889987064 0.18249247416540695 0.1845545618215623 0.17579603827582274 0.046862622023625233 0.04700417574468916 0.46258191248106084 0.0020629868485963283 0.0020539450585136507 0.117686260207366 42.475116255421213
 1319.5969889987064 0.19191667711079863 0.19372709306909799 0.17415302533131705 0.046067919252451441 0.046236834305976679 0.46253246505636603 0.002145114564088931 0.0021364537780362231 0.11768112853426979 43.068531309627723
 1329.5969889987064 0.21134457958622219 0.21226613244273959 0.17668279777910514 0.045915082593012919 0.046012167724342468 0.46271498485643975 0.0023777090481433951 0.0023641427530026395 0.11767603118213264 43.618127220989408
 1339.5969889987064 0.23944028222422264 0.2398256958928881 0.18676387821850146 0.046666096336089084 0.046843572309278707 0.46291915011781165 0.0026256741487657069 0.0026254547768583391 0.1176709975016588 44.153373225004771
 1349.5969889987064 0.26472361284335827 0.26255310880982741 0.19598891191271028 0.047711404230722752 0.047778517430831328 0.46278528724793461 0.0028095841440308384 0.0028392138889290135 0.11766603679230091 44.749021628184089
 1359.5969889987064 0.27434293495963141 0.27235565547158802 0.19726215762115085 0.047843079794348965 0.047999293760007986 0.46250285699140742 0.0029013279736037046 0.0029352101790995505 0.11766112833577803 45.367767393314047
 1369.5969889987064 0.27144670039774388 0.26883728605443197 0.19165145814424159 0.047280223052493554 0.047267676735057038 0.46232998844448603 0.0029119070013373443 0.0029360807327848959 0.1176562877435086 45.960626924261966
 1379.5969889987064 0.26759807981630496 0.26612886493542376 0.18746028558497763 0.046757511956740119 0.046832132806330334 0.46234866232346861 0.0029504492834733858 0.0029559781621753111 0.11765148275649163 46.508679913408713
 1389.5969889987064 0.2745824058923233 0.27195375062503274 0.19110815302876688 0.047243442112279065 0.047237469910982918 0.46236195965341575 0.002958497257919307 0.0029792156450217004 0.1176467367423558 47.0431462681263
 1399.5969889987064 0.28309484903959614 0.2797659378204484 0.19616586316401544 0.047862736032361575 0.047987759593566395 0.46204714375237727 0.0029797981104986888 0.0030246553750192225 0.11764205680561535 47.637726653575598
 1409.5969889987064 0.28503140580513231 0.2805230536072893 0.19680522700036829 0.048067799888465164 0.04807806104163273 0.46158492239888677 0.0029832073246028636 0.0030329058377457064 0.1176374264821424 48.255920917479955
 1419.5969889987064 0.27313153822009462 0.27085847661794504 0.18994984595716513 0.047095179601657419 0.047257705623158223 0.46123091429556135 0.0029352937860719925 0.0029661646231383611 0.11763285821575822 48.847032864737805
 1429.5969889987064 0.26559961723132014 0.26305231863545681 0.18532284506290284 0.04653992954819422 0.046713078256436329 0.46105839649949942 0.0029223255636267572 0.002947873146073067 0.11762832552915782 49.393480946840036
 1439.5969889987064 0.2671679045874143 0.26457480011569884 0.18801515586470122 0.046933454802471013 0.047025256281105633 0.46088226782186892 0.0028886396050707137 0.0029168260225749562 0.11762384799834742 49.927024809300505
 1449.5969889987064 0.27306313414856259 0.26847227276848268 0.19395591718543129 0.047879383652315671 0.047897870278593643 0.46040499039418786 0.0028657547958245919 0.0029164359405771268 0.11761943108390986 50.520552183517026
 1459.5969889987064 0.2643979511901538 0.25963340835198728 0.19308549730600563 0.047803922657380038 0.047863670136891939 0.45979835852719569 0.0027752384872939398 0.0028295989045753331 0.11761506078601992 51.137497823871712
 1469.5969889987064 0.23851212181279646 0.23513666334978867 0.1837637815624569 0.046554676660505223 0.046657255895888969 0.45930688776324013 0.0025778098668330909 0.0026198907938418106 0.1176107468642098 51.727021924444799
 1479.5969889987064 0.20958629910769777 0.20788240262483554 0.17426604138899468 0.045443301079822196 0.045584706090643204 0.45900311607851557 0.0023568853539914698 0.0023788005083610971 0.11760646616607913 52.271791699584469
 1489.5969889987064 0.1883053805299561 0.18645686775991008 0.16943983520051864 0.045188470617008855 0.045331983974837342 0.45871485784457444 0.0021018825673372946 0.0021294212557085644 0.11760223524451612 52.804496591865757
 1499.5969889987064 0.18411460129924687 0.1817422358072848 0.17547092241996784 0.046513543490255473 0.04649034195604166 0.45816732785105285 0.0020227462156310666 0.0020440432664308888 0.11759805936142165 53.397830650057813
 1509.5969889987064 0.17596494244895416 0.1755401749037139 0.17327947225999932 0.046639953559208386 0.046836128869665317 0.4575304199437582 0.0019465235830997915 0.0019560044972014947 0.11759392728464899 54.013520132473964
 1519.5969889987064 0.15823964953007066 0.15909475107416496 0.15788837347192466 0.044850655728693296 0.045276137814182681 0.45702950953780108 0.0018042982962596316 0.0018106135220224801 0.11758984808262334 54.601288969471923
 1529.5969889987064 0.15585709949402998 0.15745642844768862 0.15631656096729998 0.044234658514917022 0.044759322154285457 0.456724844251088 0.0018049165517010229 0.001807812495374597 0.11758580258109659 55.144362175578664
 1539.5969889987064 0.1558469345618799 0.15753576915257447 0.15650823419129464 0.044519789087908421 0.04504261305944178 0.45644144097330075 0.00178926363291244 0.0017906738233085377 0.11758180525707972 55.676824564174908
 1549.5969889987064 0.16935338749257048 0.16907483926154435 0.16910128737849131 0.0464743702945771 0.046787238454396467 0.45592426582172974 0.0018733237735196694 0.0018847431168885983 0.11757785952765164 56.268703326576734
 1559.5969889987064 0.16979395747329143 0.17005512172828566 0.16983367848831654 0.046581711435945777 0.04693405052515507 0.4553232608551207 0.0018756630503777704 0.0018835865462318478 0.11757395554329267 56.88317887273481
 1569.5969889987064 0.15544513975394161 0.15704380313689417 0.15614856863090001 0.044543281358275462 0.045038349903147479 0.45485247570404386 0.0017849829312190418 0.0017858693697434004 0.1175701004137497 57.469407154809069
 1579.5969889987064 0.15445690458116423 0.15600067257925065 0.15513829819504812 0.04395729545033851 0.044456187023118994 0.45456751967260128 0.0018072395726298142 0.0018104474666210495 0.11756627730558472 58.010747981660472
 1589.5969889987064 0.15495436339362717 0.15648361550982859 0.15563581772085375 0.044303627757684899 0.044788350672296695 0.45430097228611371 0.001785526579984244 0.0017873216058582667 0.11756249867247022 58.541912298531713
 1599.5969889987064 0.16820235802181419 0.16798597752157146 0.16801373799561645 0.046396743310886543 0.04667084520742662 0.45381372942949427 0.0018562826904947281 0.0018662686584878744 0.1175587671488868 59.132346924563606
 1609.5969889987064 0.16783359854399663 0.1683153895815942 0.16799159146206838 0.046388667482397838 0.046770161306812892 0.45324583241083582 0.0018545250566820914 0.0018619163206645064 0.11755507440777105 59.745632358876485
 1619.5969889987064 0.1563841803777884 0.15807254893500589 0.15715607832331704 0.04474072846156129 0.045274702788360453 0.4527406562313952 0.0017899205327708697 0.0017909501397286114 0.11755142948091067 60.344384924631768
 1629.5969889987064 0.15998534750295854 0.16253010792652636 0.16117798758561669 0.043956777778707823 0.044569241205517307 0.45412130526794003 0.0022571590941192648 0.0022476810940490343 0.11754780067611949 60.436894228747981
 1639.5969889987064 0.15985758801979127 0.16247380159620839 0.16108498209751002 0.04414894810830735 0.044773994225221936 0.45597886988172542 0.0022579921006118542 0.0022475540513058538 0.11754417024140683 60.436897505412475
 1649.5969889987064 0.15990186581084501 0.16257445078619684 0.16116032881690573 0.04437923144594532 0.045019972506061018 0.45808183910063388 0.0022592834180304609 0.0022488153562513608 0.11754054030409354 60.436900774027762
 1659.5969889987064 0.15987437511559799 0.16254572195405589 0.16113243505398916 0.044592188589521714 0.045234894897176109 0.4601851875463433 0.0022605938720368641 0.0022501372938438179 0.1175369108636909 60.436904051062882
 1669.5969889987064 0.15975506367671699 0.16252964687653945 0.16106502866141634 0.044797025101598602 0.045453821153956617 0.46228891370968123 0.0022619570686291577 0.0022500477635006714 0.11753328191995563 60.436907319813486
 1679.5969889987064 0.15974543101187277 0.16240891626722198 0.16100092584992151 0.0450173179557763 0.045661716969476525 0.46439301608809286 0.0022618838764203683 0.0022515030782564931 0.11752965347219126 60.436910596440505
 1689.5969889987064 0.15955845741971175 0.16228537018404729 0.16084164063174064 0.045218912292698241 0.045871985173835811 0.46649749318776484 0.0022616449842259283 0.0022503357136137263 0.11752602552049843 60.436913878299769
 1699.5969889987064 0.15955474771877601 0.16236548252777677 0.16087679139411495 0.045463566353993727 0.046126580068680777 0.4686023435221181 0.0022635240277573466 0.0022507374252680053 0.11752239806425829 60.43691715350456
 1709.5969889987064 0.15943558921010928 0.16229922362138388 0.16078199318356989 0.045673735506806104 0.046347008864275389 0.47070756561344573 0.0022642245927226388 0.0022506847046141381 0.11751877110325742 60.436920433433293
 1719.5969889987064 0.15953359504348832 0.16234834736706671 0.16085844961434889 0.045936053473168932 0.046599475414325853 0.47281315799529949 0.0022657881167329097 0.0022523164822454058 0.117515144636981 60.436923706113696
 1729.5969889987064 0.15940982834593748 0.16220243007175753 0.16072394449616217 0.046153282541344598 0.046819610310700498 0.47491911921435392 0.0022652443019405485 0.0022520508013516281 0.11751151866503588 60.436926969763867
 1739.5969889987064 0.15931576426897426 0.16207237856894408 0.16061020016410257 0.046379916903861056 0.047025477647968786 0.47702544783050604 0.0022654061595574378 0.0022516760892364739 0.11750789318713696 60.43693024390199
 1749.5969889987064 0.15929288269188044 0.16204719908120596 0.16058615891716554 0.046612279922507341 0.047260192324238198 0.47916805722653083 0.0022668151159369113 0.0022530917636822698 0.11750426820278677 60.436933510664311
 1759.5969889987064 0.15919688421166212 0.16215560744701341 0.16058954626141481 0.046847462446855573 0.047536419706126445 0.48141140478856159 0.002268862130466477 0.0022531403284042667 0.11750064371172578 60.436936775050569
 1769.5969889987064 0.15917474185321079 0.16213132799239907 0.16056632059573156 0.047083966463676852 0.047775608790385629 0.48369070970262007 0.0022702894208188741 0.0022545729737084848 0.11749701971375456 60.4369400420536
 1779.5969889987064 0.15915299927592139 0.16210749064907551 0.16054351583125293 0.047322591085080766 0.048016906902908503 0.48600338350403754 0.0022717254504569916 0.0022560145598811815 0.11749339620833256 60.436943293906324
 1789.5969889987064 0.1592508183035958 0.1620741981130385 0.16057561943679893 0.047601287448095296 0.048260189134198113 0.48831645912124488 0.002273073791756773 0.0022579572846130368 0.11748977319507677 60.436946549922396
 1799.5969889987064 0.15924571545957755 0.16186783146007669 0.16047002706877098 0.047846769694974096 0.048484740319278422 0.49062993488905282 0.0022716826711132077 0.0022593761545225063 0.11748615067350224 60.436949799384728


