%!PS-Adobe-2.0 EPSF-2.0
%%Title: plot_emitty_b_0.1.eps
%%Creator: gnuplot 5.2 patchlevel 2
%%CreationDate: Wed Jun 17 22:18:53 2020
%%DocumentFonts: (atend)
%%BoundingBox: 50 50 410 302
%%EndComments
%%BeginProlog
/gnudict 256 dict def
gnudict begin
%
% The following true/false flags may be edited by hand if desired.
% The unit line width and grayscale image gamma correction may also be changed.
%
/Color true def
/Blacktext false def
/Solid false def
/Dashlength 1 def
/Landscape false def
/Level1 false def
/Level3 false def
/Rounded false def
/ClipToBoundingBox false def
/SuppressPDFMark false def
/TransparentPatterns false def
/gnulinewidth 5.000 def
/userlinewidth gnulinewidth def
/Gamma 1.0 def
/BackgroundColor {-1.000 -1.000 -1.000} def
%
/vshift -60 def
/dl1 {
  10.0 Dashlength userlinewidth gnulinewidth div mul mul mul
  Rounded { currentlinewidth 0.75 mul sub dup 0 le { pop 0.01 } if } if
} def
/dl2 {
  10.0 Dashlength userlinewidth gnulinewidth div mul mul mul
  Rounded { currentlinewidth 0.75 mul add } if
} def
/hpt_ 31.5 def
/vpt_ 31.5 def
/hpt hpt_ def
/vpt vpt_ def
/doclip {
  ClipToBoundingBox {
    newpath 50 50 moveto 410 50 lineto 410 302 lineto 50 302 lineto closepath
    clip
  } if
} def
%
% Gnuplot Prolog Version 5.1 (Oct 2015)
%
%/SuppressPDFMark true def
%
/M {moveto} bind def
/L {lineto} bind def
/R {rmoveto} bind def
/V {rlineto} bind def
/N {newpath moveto} bind def
/Z {closepath} bind def
/C {setrgbcolor} bind def
/f {rlineto fill} bind def
/g {setgray} bind def
/Gshow {show} def   % May be redefined later in the file to support UTF-8
/vpt2 vpt 2 mul def
/hpt2 hpt 2 mul def
/Lshow {currentpoint stroke M 0 vshift R 
	Blacktext {gsave 0 setgray textshow grestore} {textshow} ifelse} def
/Rshow {currentpoint stroke M dup stringwidth pop neg vshift R
	Blacktext {gsave 0 setgray textshow grestore} {textshow} ifelse} def
/Cshow {currentpoint stroke M dup stringwidth pop -2 div vshift R 
	Blacktext {gsave 0 setgray textshow grestore} {textshow} ifelse} def
/UP {dup vpt_ mul /vpt exch def hpt_ mul /hpt exch def
  /hpt2 hpt 2 mul def /vpt2 vpt 2 mul def} def
/DL {Color {setrgbcolor Solid {pop []} if 0 setdash}
 {pop pop pop 0 setgray Solid {pop []} if 0 setdash} ifelse} def
/BL {stroke userlinewidth 2 mul setlinewidth
	Rounded {1 setlinejoin 1 setlinecap} if} def
/AL {stroke userlinewidth 2 div setlinewidth
	Rounded {1 setlinejoin 1 setlinecap} if} def
/UL {dup gnulinewidth mul /userlinewidth exch def
	dup 1 lt {pop 1} if 10 mul /udl exch def} def
/PL {stroke userlinewidth setlinewidth
	Rounded {1 setlinejoin 1 setlinecap} if} def
3.8 setmiterlimit
% Classic Line colors (version 5.0)
/LCw {1 1 1} def
/LCb {0 0 0} def
/LCa {0 0 0} def
/LC0 {1 0 0} def
/LC1 {0 1 0} def
/LC2 {0 0 1} def
/LC3 {1 0 1} def
/LC4 {0 1 1} def
/LC5 {1 1 0} def
/LC6 {0 0 0} def
/LC7 {1 0.3 0} def
/LC8 {0.5 0.5 0.5} def
% Default dash patterns (version 5.0)
/LTB {BL [] LCb DL} def
/LTw {PL [] 1 setgray} def
/LTb {PL [] LCb DL} def
/LTa {AL [1 udl mul 2 udl mul] 0 setdash LCa setrgbcolor} def
/LT0 {PL [] LC0 DL} def
/LT1 {PL [2 dl1 3 dl2] LC1 DL} def
/LT2 {PL [1 dl1 1.5 dl2] LC2 DL} def
/LT3 {PL [6 dl1 2 dl2 1 dl1 2 dl2] LC3 DL} def
/LT4 {PL [1 dl1 2 dl2 6 dl1 2 dl2 1 dl1 2 dl2] LC4 DL} def
/LT5 {PL [4 dl1 2 dl2] LC5 DL} def
/LT6 {PL [1.5 dl1 1.5 dl2 1.5 dl1 1.5 dl2 1.5 dl1 6 dl2] LC6 DL} def
/LT7 {PL [3 dl1 3 dl2 1 dl1 3 dl2] LC7 DL} def
/LT8 {PL [2 dl1 2 dl2 2 dl1 6 dl2] LC8 DL} def
/SL {[] 0 setdash} def
/Pnt {stroke [] 0 setdash gsave 1 setlinecap M 0 0 V stroke grestore} def
/Dia {stroke [] 0 setdash 2 copy vpt add M
  hpt neg vpt neg V hpt vpt neg V
  hpt vpt V hpt neg vpt V closepath stroke
  Pnt} def
/Pls {stroke [] 0 setdash vpt sub M 0 vpt2 V
  currentpoint stroke M
  hpt neg vpt neg R hpt2 0 V stroke
 } def
/Box {stroke [] 0 setdash 2 copy exch hpt sub exch vpt add M
  0 vpt2 neg V hpt2 0 V 0 vpt2 V
  hpt2 neg 0 V closepath stroke
  Pnt} def
/Crs {stroke [] 0 setdash exch hpt sub exch vpt add M
  hpt2 vpt2 neg V currentpoint stroke M
  hpt2 neg 0 R hpt2 vpt2 V stroke} def
/TriU {stroke [] 0 setdash 2 copy vpt 1.12 mul add M
  hpt neg vpt -1.62 mul V
  hpt 2 mul 0 V
  hpt neg vpt 1.62 mul V closepath stroke
  Pnt} def
/Star {2 copy Pls Crs} def
/BoxF {stroke [] 0 setdash exch hpt sub exch vpt add M
  0 vpt2 neg V hpt2 0 V 0 vpt2 V
  hpt2 neg 0 V closepath fill} def
/TriUF {stroke [] 0 setdash vpt 1.12 mul add M
  hpt neg vpt -1.62 mul V
  hpt 2 mul 0 V
  hpt neg vpt 1.62 mul V closepath fill} def
/TriD {stroke [] 0 setdash 2 copy vpt 1.12 mul sub M
  hpt neg vpt 1.62 mul V
  hpt 2 mul 0 V
  hpt neg vpt -1.62 mul V closepath stroke
  Pnt} def
/TriDF {stroke [] 0 setdash vpt 1.12 mul sub M
  hpt neg vpt 1.62 mul V
  hpt 2 mul 0 V
  hpt neg vpt -1.62 mul V closepath fill} def
/DiaF {stroke [] 0 setdash vpt add M
  hpt neg vpt neg V hpt vpt neg V
  hpt vpt V hpt neg vpt V closepath fill} def
/Pent {stroke [] 0 setdash 2 copy gsave
  translate 0 hpt M 4 {72 rotate 0 hpt L} repeat
  closepath stroke grestore Pnt} def
/PentF {stroke [] 0 setdash gsave
  translate 0 hpt M 4 {72 rotate 0 hpt L} repeat
  closepath fill grestore} def
/Circle {stroke [] 0 setdash 2 copy
  hpt 0 360 arc stroke Pnt} def
/CircleF {stroke [] 0 setdash hpt 0 360 arc fill} def
/C0 {BL [] 0 setdash 2 copy moveto vpt 90 450 arc} bind def
/C1 {BL [] 0 setdash 2 copy moveto
	2 copy vpt 0 90 arc closepath fill
	vpt 0 360 arc closepath} bind def
/C2 {BL [] 0 setdash 2 copy moveto
	2 copy vpt 90 180 arc closepath fill
	vpt 0 360 arc closepath} bind def
/C3 {BL [] 0 setdash 2 copy moveto
	2 copy vpt 0 180 arc closepath fill
	vpt 0 360 arc closepath} bind def
/C4 {BL [] 0 setdash 2 copy moveto
	2 copy vpt 180 270 arc closepath fill
	vpt 0 360 arc closepath} bind def
/C5 {BL [] 0 setdash 2 copy moveto
	2 copy vpt 0 90 arc
	2 copy moveto
	2 copy vpt 180 270 arc closepath fill
	vpt 0 360 arc} bind def
/C6 {BL [] 0 setdash 2 copy moveto
	2 copy vpt 90 270 arc closepath fill
	vpt 0 360 arc closepath} bind def
/C7 {BL [] 0 setdash 2 copy moveto
	2 copy vpt 0 270 arc closepath fill
	vpt 0 360 arc closepath} bind def
/C8 {BL [] 0 setdash 2 copy moveto
	2 copy vpt 270 360 arc closepath fill
	vpt 0 360 arc closepath} bind def
/C9 {BL [] 0 setdash 2 copy moveto
	2 copy vpt 270 450 arc closepath fill
	vpt 0 360 arc closepath} bind def
/C10 {BL [] 0 setdash 2 copy 2 copy moveto vpt 270 360 arc closepath fill
	2 copy moveto
	2 copy vpt 90 180 arc closepath fill
	vpt 0 360 arc closepath} bind def
/C11 {BL [] 0 setdash 2 copy moveto
	2 copy vpt 0 180 arc closepath fill
	2 copy moveto
	2 copy vpt 270 360 arc closepath fill
	vpt 0 360 arc closepath} bind def
/C12 {BL [] 0 setdash 2 copy moveto
	2 copy vpt 180 360 arc closepath fill
	vpt 0 360 arc closepath} bind def
/C13 {BL [] 0 setdash 2 copy moveto
	2 copy vpt 0 90 arc closepath fill
	2 copy moveto
	2 copy vpt 180 360 arc closepath fill
	vpt 0 360 arc closepath} bind def
/C14 {BL [] 0 setdash 2 copy moveto
	2 copy vpt 90 360 arc closepath fill
	vpt 0 360 arc} bind def
/C15 {BL [] 0 setdash 2 copy vpt 0 360 arc closepath fill
	vpt 0 360 arc closepath} bind def
/Rec {newpath 4 2 roll moveto 1 index 0 rlineto 0 exch rlineto
	neg 0 rlineto closepath} bind def
/Square {dup Rec} bind def
/Bsquare {vpt sub exch vpt sub exch vpt2 Square} bind def
/S0 {BL [] 0 setdash 2 copy moveto 0 vpt rlineto BL Bsquare} bind def
/S1 {BL [] 0 setdash 2 copy vpt Square fill Bsquare} bind def
/S2 {BL [] 0 setdash 2 copy exch vpt sub exch vpt Square fill Bsquare} bind def
/S3 {BL [] 0 setdash 2 copy exch vpt sub exch vpt2 vpt Rec fill Bsquare} bind def
/S4 {BL [] 0 setdash 2 copy exch vpt sub exch vpt sub vpt Square fill Bsquare} bind def
/S5 {BL [] 0 setdash 2 copy 2 copy vpt Square fill
	exch vpt sub exch vpt sub vpt Square fill Bsquare} bind def
/S6 {BL [] 0 setdash 2 copy exch vpt sub exch vpt sub vpt vpt2 Rec fill Bsquare} bind def
/S7 {BL [] 0 setdash 2 copy exch vpt sub exch vpt sub vpt vpt2 Rec fill
	2 copy vpt Square fill Bsquare} bind def
/S8 {BL [] 0 setdash 2 copy vpt sub vpt Square fill Bsquare} bind def
/S9 {BL [] 0 setdash 2 copy vpt sub vpt vpt2 Rec fill Bsquare} bind def
/S10 {BL [] 0 setdash 2 copy vpt sub vpt Square fill 2 copy exch vpt sub exch vpt Square fill
	Bsquare} bind def
/S11 {BL [] 0 setdash 2 copy vpt sub vpt Square fill 2 copy exch vpt sub exch vpt2 vpt Rec fill
	Bsquare} bind def
/S12 {BL [] 0 setdash 2 copy exch vpt sub exch vpt sub vpt2 vpt Rec fill Bsquare} bind def
/S13 {BL [] 0 setdash 2 copy exch vpt sub exch vpt sub vpt2 vpt Rec fill
	2 copy vpt Square fill Bsquare} bind def
/S14 {BL [] 0 setdash 2 copy exch vpt sub exch vpt sub vpt2 vpt Rec fill
	2 copy exch vpt sub exch vpt Square fill Bsquare} bind def
/S15 {BL [] 0 setdash 2 copy Bsquare fill Bsquare} bind def
/D0 {gsave translate 45 rotate 0 0 S0 stroke grestore} bind def
/D1 {gsave translate 45 rotate 0 0 S1 stroke grestore} bind def
/D2 {gsave translate 45 rotate 0 0 S2 stroke grestore} bind def
/D3 {gsave translate 45 rotate 0 0 S3 stroke grestore} bind def
/D4 {gsave translate 45 rotate 0 0 S4 stroke grestore} bind def
/D5 {gsave translate 45 rotate 0 0 S5 stroke grestore} bind def
/D6 {gsave translate 45 rotate 0 0 S6 stroke grestore} bind def
/D7 {gsave translate 45 rotate 0 0 S7 stroke grestore} bind def
/D8 {gsave translate 45 rotate 0 0 S8 stroke grestore} bind def
/D9 {gsave translate 45 rotate 0 0 S9 stroke grestore} bind def
/D10 {gsave translate 45 rotate 0 0 S10 stroke grestore} bind def
/D11 {gsave translate 45 rotate 0 0 S11 stroke grestore} bind def
/D12 {gsave translate 45 rotate 0 0 S12 stroke grestore} bind def
/D13 {gsave translate 45 rotate 0 0 S13 stroke grestore} bind def
/D14 {gsave translate 45 rotate 0 0 S14 stroke grestore} bind def
/D15 {gsave translate 45 rotate 0 0 S15 stroke grestore} bind def
/DiaE {stroke [] 0 setdash vpt add M
  hpt neg vpt neg V hpt vpt neg V
  hpt vpt V hpt neg vpt V closepath stroke} def
/BoxE {stroke [] 0 setdash exch hpt sub exch vpt add M
  0 vpt2 neg V hpt2 0 V 0 vpt2 V
  hpt2 neg 0 V closepath stroke} def
/TriUE {stroke [] 0 setdash vpt 1.12 mul add M
  hpt neg vpt -1.62 mul V
  hpt 2 mul 0 V
  hpt neg vpt 1.62 mul V closepath stroke} def
/TriDE {stroke [] 0 setdash vpt 1.12 mul sub M
  hpt neg vpt 1.62 mul V
  hpt 2 mul 0 V
  hpt neg vpt -1.62 mul V closepath stroke} def
/PentE {stroke [] 0 setdash gsave
  translate 0 hpt M 4 {72 rotate 0 hpt L} repeat
  closepath stroke grestore} def
/CircE {stroke [] 0 setdash 
  hpt 0 360 arc stroke} def
/Opaque {gsave closepath 1 setgray fill grestore 0 setgray closepath} def
/DiaW {stroke [] 0 setdash vpt add M
  hpt neg vpt neg V hpt vpt neg V
  hpt vpt V hpt neg vpt V Opaque stroke} def
/BoxW {stroke [] 0 setdash exch hpt sub exch vpt add M
  0 vpt2 neg V hpt2 0 V 0 vpt2 V
  hpt2 neg 0 V Opaque stroke} def
/TriUW {stroke [] 0 setdash vpt 1.12 mul add M
  hpt neg vpt -1.62 mul V
  hpt 2 mul 0 V
  hpt neg vpt 1.62 mul V Opaque stroke} def
/TriDW {stroke [] 0 setdash vpt 1.12 mul sub M
  hpt neg vpt 1.62 mul V
  hpt 2 mul 0 V
  hpt neg vpt -1.62 mul V Opaque stroke} def
/PentW {stroke [] 0 setdash gsave
  translate 0 hpt M 4 {72 rotate 0 hpt L} repeat
  Opaque stroke grestore} def
/CircW {stroke [] 0 setdash 
  hpt 0 360 arc Opaque stroke} def
/BoxFill {gsave Rec 1 setgray fill grestore} def
/Density {
  /Fillden exch def
  currentrgbcolor
  /ColB exch def /ColG exch def /ColR exch def
  /ColR ColR Fillden mul Fillden sub 1 add def
  /ColG ColG Fillden mul Fillden sub 1 add def
  /ColB ColB Fillden mul Fillden sub 1 add def
  ColR ColG ColB setrgbcolor} def
/BoxColFill {gsave Rec PolyFill} def
/PolyFill {gsave Density fill grestore grestore} def
/h {rlineto rlineto rlineto gsave closepath fill grestore} bind def
%
% PostScript Level 1 Pattern Fill routine for rectangles
% Usage: x y w h s a XX PatternFill
%	x,y = lower left corner of box to be filled
%	w,h = width and height of box
%	  a = angle in degrees between lines and x-axis
%	 XX = 0/1 for no/yes cross-hatch
%
/PatternFill {gsave /PFa [ 9 2 roll ] def
  PFa 0 get PFa 2 get 2 div add PFa 1 get PFa 3 get 2 div add translate
  PFa 2 get -2 div PFa 3 get -2 div PFa 2 get PFa 3 get Rec
  TransparentPatterns {} {gsave 1 setgray fill grestore} ifelse
  clip
  currentlinewidth 0.5 mul setlinewidth
  /PFs PFa 2 get dup mul PFa 3 get dup mul add sqrt def
  0 0 M PFa 5 get rotate PFs -2 div dup translate
  0 1 PFs PFa 4 get div 1 add floor cvi
	{PFa 4 get mul 0 M 0 PFs V} for
  0 PFa 6 get ne {
	0 1 PFs PFa 4 get div 1 add floor cvi
	{PFa 4 get mul 0 2 1 roll M PFs 0 V} for
 } if
  stroke grestore} def
%
/languagelevel where
 {pop languagelevel} {1} ifelse
dup 2 lt
	{/InterpretLevel1 true def
	 /InterpretLevel3 false def}
	{/InterpretLevel1 Level1 def
	 2 gt
	    {/InterpretLevel3 Level3 def}
	    {/InterpretLevel3 false def}
	 ifelse }
 ifelse
%
% PostScript level 2 pattern fill definitions
%
/Level2PatternFill {
/Tile8x8 {/PaintType 2 /PatternType 1 /TilingType 1 /BBox [0 0 8 8] /XStep 8 /YStep 8}
	bind def
/KeepColor {currentrgbcolor [/Pattern /DeviceRGB] setcolorspace} bind def
<< Tile8x8
 /PaintProc {0.5 setlinewidth pop 0 0 M 8 8 L 0 8 M 8 0 L stroke} 
>> matrix makepattern
/Pat1 exch def
<< Tile8x8
 /PaintProc {0.5 setlinewidth pop 0 0 M 8 8 L 0 8 M 8 0 L stroke
	0 4 M 4 8 L 8 4 L 4 0 L 0 4 L stroke}
>> matrix makepattern
/Pat2 exch def
<< Tile8x8
 /PaintProc {0.5 setlinewidth pop 0 0 M 0 8 L
	8 8 L 8 0 L 0 0 L fill}
>> matrix makepattern
/Pat3 exch def
<< Tile8x8
 /PaintProc {0.5 setlinewidth pop -4 8 M 8 -4 L
	0 12 M 12 0 L stroke}
>> matrix makepattern
/Pat4 exch def
<< Tile8x8
 /PaintProc {0.5 setlinewidth pop -4 0 M 8 12 L
	0 -4 M 12 8 L stroke}
>> matrix makepattern
/Pat5 exch def
<< Tile8x8
 /PaintProc {0.5 setlinewidth pop -2 8 M 4 -4 L
	0 12 M 8 -4 L 4 12 M 10 0 L stroke}
>> matrix makepattern
/Pat6 exch def
<< Tile8x8
 /PaintProc {0.5 setlinewidth pop -2 0 M 4 12 L
	0 -4 M 8 12 L 4 -4 M 10 8 L stroke}
>> matrix makepattern
/Pat7 exch def
<< Tile8x8
 /PaintProc {0.5 setlinewidth pop 8 -2 M -4 4 L
	12 0 M -4 8 L 12 4 M 0 10 L stroke}
>> matrix makepattern
/Pat8 exch def
<< Tile8x8
 /PaintProc {0.5 setlinewidth pop 0 -2 M 12 4 L
	-4 0 M 12 8 L -4 4 M 8 10 L stroke}
>> matrix makepattern
/Pat9 exch def
/Pattern1 {PatternBgnd KeepColor Pat1 setpattern} bind def
/Pattern2 {PatternBgnd KeepColor Pat2 setpattern} bind def
/Pattern3 {PatternBgnd KeepColor Pat3 setpattern} bind def
/Pattern4 {PatternBgnd KeepColor Landscape {Pat5} {Pat4} ifelse setpattern} bind def
/Pattern5 {PatternBgnd KeepColor Landscape {Pat4} {Pat5} ifelse setpattern} bind def
/Pattern6 {PatternBgnd KeepColor Landscape {Pat9} {Pat6} ifelse setpattern} bind def
/Pattern7 {PatternBgnd KeepColor Landscape {Pat8} {Pat7} ifelse setpattern} bind def
} def
%
%
%End of PostScript Level 2 code
%
/PatternBgnd {
  TransparentPatterns {} {gsave 1 setgray fill grestore} ifelse
} def
%
% Substitute for Level 2 pattern fill codes with
% grayscale if Level 2 support is not selected.
%
/Level1PatternFill {
/Pattern1 {0.250 Density} bind def
/Pattern2 {0.500 Density} bind def
/Pattern3 {0.750 Density} bind def
/Pattern4 {0.125 Density} bind def
/Pattern5 {0.375 Density} bind def
/Pattern6 {0.625 Density} bind def
/Pattern7 {0.875 Density} bind def
} def
%
% Now test for support of Level 2 code
%
Level1 {Level1PatternFill} {Level2PatternFill} ifelse
%
/Symbol-Oblique /Symbol findfont [1 0 .167 1 0 0] makefont
dup length dict begin {1 index /FID eq {pop pop} {def} ifelse} forall
currentdict end definefont pop
%
/Metrics {ExtendTextBox Gswidth} def
/Lwidth {currentpoint stroke M 0 vshift R Metrics} def
/Rwidth {currentpoint stroke M dup stringwidth pop neg vshift R Metrics} def
/Cwidth {currentpoint stroke M dup stringwidth pop -2 div vshift R Metrics} def
/GLwidth {currentpoint stroke M 0 vshift R {ExtendTextBox} forall} def
/GRwidth {currentpoint stroke M dup Gwidth vshift R {ExtendTextBox} forall} def
/GCwidth {currentpoint stroke M dup Gwidth 2 div vshift R {ExtendTextBox} forall} def
/GLwidth2 {0 Gwidth AddGlyphWidth} def
/GRwidth2 {Gwidth -1 mul 0 AddGlyphWidth} def
/GCwidth2 {Gwidth 2 div dup -1 mul AddGlyphWidth} def
/AddGlyphWidth { dup TBx2 gt {userdict /TBx2 3 -1 roll put} {pop} ifelse
                 dup TBx1 lt {userdict /TBx1 3 -1 roll put} {pop} ifelse } def
/MFshow {
   { dup 5 get 3 ge
     { 5 get 3 eq {gsave} {grestore} ifelse }
     {dup dup 0 get findfont exch 1 get scalefont setfont
     [ currentpoint ] exch dup 2 get 0 exch R dup 5 get 2 ne {dup dup 6
     get exch 4 get {textshow} {Metrics pop 0 R} ifelse }if dup 5 get 0 eq
     {dup 3 get {2 get neg 0 exch R pop} {pop aload pop M} ifelse} {dup 5
     get 1 eq {dup 2 get exch dup 3 get exch 6 get Gswidth pop -2 div
     dup 0 R} {dup 6 get Gswidth pop -2 div 0 R 6 get
     textshow 2 index {aload pop M neg 3 -1 roll neg R pop pop} {pop pop pop
     pop aload pop M} ifelse }ifelse }ifelse }
     ifelse }
   forall} def
/Gswidth {dup type /stringtype eq {stringwidth} {pop (n) stringwidth} ifelse} def
/MFwidth {0 exch { dup 5 get 3 ge { 5 get 3 eq { 0 } { pop } ifelse }
 {dup 3 get{dup dup 0 get findfont exch 1 get scalefont setfont
     6 get Gswidth pop add} {pop} ifelse} ifelse} forall} def
/MLshow { currentpoint stroke M
  0 exch R
  Blacktext {gsave 0 setgray MFshow grestore} {MFshow} ifelse } bind def
/MRshow { currentpoint stroke M
  exch dup MFwidth neg 3 -1 roll R
  Blacktext {gsave 0 setgray MFshow grestore} {MFshow} ifelse } bind def
/MCshow { currentpoint stroke M
  exch dup MFwidth -2 div 3 -1 roll R
  Blacktext {gsave 0 setgray MFshow grestore} {MFshow} ifelse } bind def
/XYsave    { [( ) 1 2 true false 3 ()] } bind def
/XYrestore { [( ) 1 2 true false 4 ()] } bind def
Level1 SuppressPDFMark or 
{} {
/SDict 10 dict def
systemdict /pdfmark known not {
  userdict /pdfmark systemdict /cleartomark get put
} if
SDict begin [
  /Title (plot_emitty_b_0.1.eps)
  /Subject (gnuplot plot)
  /Creator (gnuplot 5.2 patchlevel 2)
%  /Producer (gnuplot)
%  /Keywords ()
  /CreationDate (Wed Jun 17 22:18:53 2020)
  /DOCINFO pdfmark
end
} ifelse
%
% Support for boxed text - Ethan A Merritt Sep 2016
%
/InitTextBox { userdict /TBy2 3 -1 roll put userdict /TBx2 3 -1 roll put
           userdict /TBy1 3 -1 roll put userdict /TBx1 3 -1 roll put
	   /Boxing true def } def
/ExtendTextBox { dup type /stringtype eq
    { Boxing { gsave dup false charpath pathbbox
      dup TBy2 gt {userdict /TBy2 3 -1 roll put} {pop} ifelse
      dup TBx2 gt {userdict /TBx2 3 -1 roll put} {pop} ifelse
      dup TBy1 lt {userdict /TBy1 3 -1 roll put} {pop} ifelse
      dup TBx1 lt {userdict /TBx1 3 -1 roll put} {pop} ifelse
      grestore } if }
    {} ifelse} def
/PopTextBox { newpath TBx1 TBxmargin sub TBy1 TBymargin sub M
               TBx1 TBxmargin sub TBy2 TBymargin add L
	       TBx2 TBxmargin add TBy2 TBymargin add L
	       TBx2 TBxmargin add TBy1 TBymargin sub L closepath } def
/DrawTextBox { PopTextBox stroke /Boxing false def} def
/FillTextBox { gsave PopTextBox fill grestore /Boxing false def} def
0 0 0 0 InitTextBox
/TBxmargin 20 def
/TBymargin 20 def
/Boxing false def
/textshow { ExtendTextBox Gshow } def
%
end
%%EndProlog
%%Page: 1 1
gnudict begin
gsave
doclip
50 50 translate
0.050 0.050 scale
0 setgray
newpath
(Helvetica) findfont 180 scalefont setfont
BackgroundColor 0 lt 3 1 roll 0 lt exch 0 lt or or not {BackgroundColor C 1.000 0 0 7200.00 5040.00 BoxColFill} if
1.000 UL
LTb
LCb setrgbcolor
1098 576 M
63 0 V
5714 0 R
-63 0 V
stroke
990 576 M
[ [(Helvetica) 180.0 0.0 true true 0 ( 0.16)]
] -60.0 MRshow
1.000 UL
LTb
LCb setrgbcolor
1098 1004 M
63 0 V
5714 0 R
-63 0 V
stroke
990 1004 M
[ [(Helvetica) 180.0 0.0 true true 0 ( 0.165)]
] -60.0 MRshow
1.000 UL
LTb
LCb setrgbcolor
1098 1433 M
63 0 V
5714 0 R
-63 0 V
stroke
990 1433 M
[ [(Helvetica) 180.0 0.0 true true 0 ( 0.17)]
] -60.0 MRshow
1.000 UL
LTb
LCb setrgbcolor
1098 1861 M
63 0 V
5714 0 R
-63 0 V
stroke
990 1861 M
[ [(Helvetica) 180.0 0.0 true true 0 ( 0.175)]
] -60.0 MRshow
1.000 UL
LTb
LCb setrgbcolor
1098 2289 M
63 0 V
5714 0 R
-63 0 V
stroke
990 2289 M
[ [(Helvetica) 180.0 0.0 true true 0 ( 0.18)]
] -60.0 MRshow
1.000 UL
LTb
LCb setrgbcolor
1098 2718 M
63 0 V
5714 0 R
-63 0 V
stroke
990 2718 M
[ [(Helvetica) 180.0 0.0 true true 0 ( 0.185)]
] -60.0 MRshow
1.000 UL
LTb
LCb setrgbcolor
1098 3146 M
63 0 V
5714 0 R
-63 0 V
stroke
990 3146 M
[ [(Helvetica) 180.0 0.0 true true 0 ( 0.19)]
] -60.0 MRshow
1.000 UL
LTb
LCb setrgbcolor
1098 3574 M
63 0 V
5714 0 R
-63 0 V
stroke
990 3574 M
[ [(Helvetica) 180.0 0.0 true true 0 ( 0.195)]
] -60.0 MRshow
1.000 UL
LTb
LCb setrgbcolor
1098 4002 M
63 0 V
5714 0 R
-63 0 V
stroke
990 4002 M
[ [(Helvetica) 180.0 0.0 true true 0 ( 0.2)]
] -60.0 MRshow
1.000 UL
LTb
LCb setrgbcolor
1098 4431 M
63 0 V
5714 0 R
-63 0 V
stroke
990 4431 M
[ [(Helvetica) 180.0 0.0 true true 0 ( 0.205)]
] -60.0 MRshow
1.000 UL
LTb
LCb setrgbcolor
1098 4859 M
63 0 V
5714 0 R
-63 0 V
stroke
990 4859 M
[ [(Helvetica) 180.0 0.0 true true 0 ( 0.21)]
] -60.0 MRshow
1.000 UL
LTb
LCb setrgbcolor
1098 576 M
0 63 V
0 4220 R
0 -63 V
stroke
1098 396 M
[ [(Helvetica) 180.0 0.0 true true 0 ( 0)]
] -60.0 MCshow
1.000 UL
LTb
LCb setrgbcolor
2253 576 M
0 63 V
0 4220 R
0 -63 V
stroke
2253 396 M
[ [(Helvetica) 180.0 0.0 true true 0 ( 50)]
] -60.0 MCshow
1.000 UL
LTb
LCb setrgbcolor
3409 576 M
0 63 V
0 4220 R
0 -63 V
stroke
3409 396 M
[ [(Helvetica) 180.0 0.0 true true 0 ( 100)]
] -60.0 MCshow
1.000 UL
LTb
LCb setrgbcolor
4564 576 M
0 63 V
0 4220 R
0 -63 V
stroke
4564 396 M
[ [(Helvetica) 180.0 0.0 true true 0 ( 150)]
] -60.0 MCshow
1.000 UL
LTb
LCb setrgbcolor
5720 576 M
0 63 V
0 4220 R
0 -63 V
stroke
5720 396 M
[ [(Helvetica) 180.0 0.0 true true 0 ( 200)]
] -60.0 MCshow
1.000 UL
LTb
LCb setrgbcolor
6875 576 M
0 63 V
0 4220 R
0 -63 V
stroke
6875 396 M
[ [(Helvetica) 180.0 0.0 true true 0 ( 250)]
] -60.0 MCshow
1.000 UL
LTb
LCb setrgbcolor
1.000 UL
LTB
LCb setrgbcolor
1098 4859 N
0 -4283 V
5777 0 V
0 4283 V
-5777 0 V
Z stroke
1.000 UP
1.000 UL
LTb
LCb setrgbcolor
LCb setrgbcolor
162 2717 M
currentpoint gsave translate -270 rotate 0 0 moveto
[ [(Symbol) 180.0 0.0 true true 0 (e)]
[(Helvetica) 144.0 -54.0 true true 0 (y)]
[(Helvetica) 180.0 0.0 true true 0 ( [mm.mrad])]
] -42.0 MCshow
grestore
LTb
LCb setrgbcolor
3986 126 M
[ [(Helvetica) 180.0 0.0 true true 0 (s [m])]
] -60.0 MCshow
LTb
% Begin plot #1
1.000 UP
1.000 UL
LTb
0.58 0.00 0.83 C LCb setrgbcolor
6056 4706 M
[ [(Helvetica) 180.0 0.0 true true 0 (orbit correction)]
] -60.0 MRshow
1.000 UP
1.000 UL
LTb
0.58 0.00 0.83 C 6164 4706 M
495 0 V
1115 908 M
15 2476 V
9 -1786 V
16 -528 V
52 94 V
54 26 V
54 -245 V
54 53 V
53 721 V
54 699 V
77 -4 V
35 578 V
13 1722 V
6 -2203 V
228 281 V
29 104 V
30 322 V
18 -260 V
43 3 V
56 97 V
57 -179 V
56 72 V
57 60 V
56 0 V
56 -75 V
57 33 V
56 13 V
26 -27 V
90 1127 V
12 -795 V
222 928 V
9 -395 V
11 -509 V
74 873 V
9 -542 V
11 -446 V
193 315 V
14 868 V
9 -932 V
41 -72 V
68 27 V
56 46 V
57 -72 V
56 3 V
56 36 V
57 34 V
56 -29 V
57 152 V
12 -87 V
13 50 V
11 4 V
168 105 V
24 202 V
27 -423 V
67 70 V
50 1 V
106 9 V
106 13 V
107 11 V
106 8 V
106 -2 V
107 -7 V
106 -8 V
106 4 V
106 0 V
107 -8 V
106 -3 V
106 -4 V
107 3 V
106 6 V
106 3 V
107 -2 V
106 4 V
106 -1 V
106 5 V
107 -4 V
1 2 V
1115 908 Pls
1130 3384 Pls
1139 1598 Pls
1155 1070 Pls
1207 1164 Pls
1261 1190 Pls
1315 945 Pls
1369 998 Pls
1422 1719 Pls
1476 2418 Pls
1553 2414 Pls
1588 2992 Pls
1601 4714 Pls
1607 2511 Pls
1835 2792 Pls
1864 2896 Pls
1894 3218 Pls
1912 2958 Pls
1955 2961 Pls
2011 3058 Pls
2068 2879 Pls
2124 2951 Pls
2181 3011 Pls
2237 3011 Pls
2293 2936 Pls
2350 2969 Pls
2406 2982 Pls
2432 2955 Pls
2522 4082 Pls
2534 3287 Pls
2756 4215 Pls
2765 3820 Pls
2776 3311 Pls
2850 4184 Pls
2859 3642 Pls
2870 3196 Pls
3063 3511 Pls
3077 4379 Pls
3086 3447 Pls
3127 3375 Pls
3195 3402 Pls
3251 3448 Pls
3308 3376 Pls
3364 3379 Pls
3420 3415 Pls
3477 3449 Pls
3533 3420 Pls
3590 3572 Pls
3602 3485 Pls
3615 3535 Pls
3626 3539 Pls
3794 3644 Pls
3818 3846 Pls
3845 3423 Pls
3912 3493 Pls
3962 3494 Pls
4068 3503 Pls
4174 3516 Pls
4281 3527 Pls
4387 3535 Pls
4493 3533 Pls
4600 3526 Pls
4706 3518 Pls
4812 3522 Pls
4918 3522 Pls
5025 3514 Pls
5131 3511 Pls
5237 3507 Pls
5344 3510 Pls
5450 3516 Pls
5556 3519 Pls
5663 3517 Pls
5769 3521 Pls
5875 3520 Pls
5981 3525 Pls
6088 3521 Pls
6089 3523 Pls
6411 4706 Pls
% End plot #1
% Begin plot #2
1.000 UP
1.000 UL
LTb
0.00 0.62 0.45 C LCb setrgbcolor
6056 4526 M
[ [(Helvetica) 180.0 0.0 true true 0 (dispersion-free correction)]
] -60.0 MRshow
1.000 UP
1.000 UL
LTb
0.00 0.62 0.45 C 6164 4526 M
495 0 V
1115 912 M
15 2524 V
9 -1842 V
16 -525 V
52 97 V
54 16 V
54 -258 V
54 30 V
53 584 V
54 626 V
77 -36 V
35 93 V
13 256 V
6 -285 V
228 -14 V
29 57 V
30 279 V
18 -251 V
43 25 V
56 34 V
57 -124 V
56 26 V
57 25 V
56 11 V
56 -98 V
57 52 V
56 15 V
26 -28 V
90 126 V
12 46 V
222 962 V
9 -634 V
11 -418 V
74 575 V
9 -348 V
11 -357 V
193 123 V
14 202 V
9 -125 V
41 -149 V
68 38 V
56 22 V
57 -55 V
56 -4 V
56 22 V
57 -16 V
56 0 V
57 20 V
12 20 V
13 -33 V
11 21 V
168 114 V
24 210 V
27 -506 V
67 -1 V
50 6 V
106 8 V
106 -2 V
107 8 V
106 0 V
106 3 V
107 -6 V
106 -5 V
106 0 V
106 0 V
107 -7 V
106 0 V
106 0 V
107 2 V
106 5 V
106 2 V
107 -2 V
106 1 V
106 1 V
106 3 V
107 0 V
1 1 V
1115 912 Crs
1130 3436 Crs
1139 1594 Crs
1155 1069 Crs
1207 1166 Crs
1261 1182 Crs
1315 924 Crs
1369 954 Crs
1422 1538 Crs
1476 2164 Crs
1553 2128 Crs
1588 2221 Crs
1601 2477 Crs
1607 2192 Crs
1835 2178 Crs
1864 2235 Crs
1894 2514 Crs
1912 2263 Crs
1955 2288 Crs
2011 2322 Crs
2068 2198 Crs
2124 2224 Crs
2181 2249 Crs
2237 2260 Crs
2293 2162 Crs
2350 2214 Crs
2406 2229 Crs
2432 2201 Crs
2522 2327 Crs
2534 2373 Crs
2756 3335 Crs
2765 2701 Crs
2776 2283 Crs
2850 2858 Crs
2859 2510 Crs
2870 2153 Crs
3063 2276 Crs
3077 2478 Crs
3086 2353 Crs
3127 2204 Crs
3195 2242 Crs
3251 2264 Crs
3308 2209 Crs
3364 2205 Crs
3420 2227 Crs
3477 2211 Crs
3533 2211 Crs
3590 2231 Crs
3602 2251 Crs
3615 2218 Crs
3626 2239 Crs
3794 2353 Crs
3818 2563 Crs
3845 2057 Crs
3912 2056 Crs
3962 2062 Crs
4068 2070 Crs
4174 2068 Crs
4281 2076 Crs
4387 2076 Crs
4493 2079 Crs
4600 2073 Crs
4706 2068 Crs
4812 2068 Crs
4918 2068 Crs
5025 2061 Crs
5131 2061 Crs
5237 2061 Crs
5344 2063 Crs
5450 2068 Crs
5556 2070 Crs
5663 2068 Crs
5769 2069 Crs
5875 2070 Crs
5981 2073 Crs
6088 2073 Crs
6089 2074 Crs
6411 4526 Crs
% End plot #2
% Begin plot #3
1.000 UP
1.000 UL
LTb
0.34 0.71 0.91 C LCb setrgbcolor
6056 4346 M
[ [(Helvetica) 180.0 0.0 true true 0 (wakefield-free correction)]
] -60.0 MRshow
1.000 UP
1.000 UL
LTb
0.34 0.71 0.91 C 6164 4346 M
495 0 V
1115 912 M
15 2517 V
9 -1835 V
16 -520 V
52 94 V
54 10 V
54 -255 V
54 25 V
53 443 V
54 437 V
77 -61 V
35 67 V
13 457 V
6 -476 V
228 -12 V
29 54 V
30 287 V
18 -283 V
43 15 V
56 35 V
57 -127 V
56 46 V
57 18 V
56 17 V
56 -44 V
57 26 V
56 -12 V
26 -25 V
90 96 V
12 1 V
222 1042 V
9 -629 V
11 -466 V
74 744 V
9 -537 V
11 -323 V
193 140 V
14 178 V
9 -157 V
41 -115 V
68 27 V
56 31 V
57 -55 V
56 -7 V
56 29 V
57 2 V
56 -21 V
57 45 V
12 11 V
13 -31 V
11 11 V
168 161 V
24 201 V
27 -584 V
67 42 V
50 5 V
106 1 V
106 4 V
107 4 V
106 -2 V
106 -1 V
107 -2 V
106 -7 V
106 0 V
106 -1 V
107 -8 V
106 0 V
106 1 V
107 1 V
106 4 V
106 2 V
107 -2 V
106 0 V
106 1 V
106 4 V
107 -1 V
1 1 V
1115 912 Star
1130 3429 Star
1139 1594 Star
1155 1074 Star
1207 1168 Star
1261 1178 Star
1315 923 Star
1369 948 Star
1422 1391 Star
1476 1828 Star
1553 1767 Star
1588 1834 Star
1601 2291 Star
1607 1815 Star
1835 1803 Star
1864 1857 Star
1894 2144 Star
1912 1861 Star
1955 1876 Star
2011 1911 Star
2068 1784 Star
2124 1830 Star
2181 1848 Star
2237 1865 Star
2293 1821 Star
2350 1847 Star
2406 1835 Star
2432 1810 Star
2522 1906 Star
2534 1907 Star
2756 2949 Star
2765 2320 Star
2776 1854 Star
2850 2598 Star
2859 2061 Star
2870 1738 Star
3063 1878 Star
3077 2056 Star
3086 1899 Star
3127 1784 Star
3195 1811 Star
3251 1842 Star
3308 1787 Star
3364 1780 Star
3420 1809 Star
3477 1811 Star
3533 1790 Star
3590 1835 Star
3602 1846 Star
3615 1815 Star
3626 1826 Star
3794 1987 Star
3818 2188 Star
3845 1604 Star
3912 1646 Star
3962 1651 Star
4068 1652 Star
4174 1656 Star
4281 1660 Star
4387 1658 Star
4493 1657 Star
4600 1655 Star
4706 1648 Star
4812 1648 Star
4918 1647 Star
5025 1639 Star
5131 1639 Star
5237 1640 Star
5344 1641 Star
5450 1645 Star
5556 1647 Star
5663 1645 Star
5769 1645 Star
5875 1646 Star
5981 1650 Star
6088 1649 Star
6089 1650 Star
6411 4346 Star
% End plot #3
2.000 UL
LTb
LCb setrgbcolor
1.000 UL
LTB
LCb setrgbcolor
1098 4859 N
0 -4283 V
5777 0 V
0 4283 V
-5777 0 V
Z stroke
1.000 UP
1.000 UL
LTb
LCb setrgbcolor
stroke
grestore
end
showpage
%%Trailer
%%DocumentFonts: Symbol Helvetica
