%!PS-Adobe-2.0 EPSF-2.0
%%Title: plot_emittx_b_0.1.eps
%%Creator: gnuplot 5.2 patchlevel 2
%%CreationDate: Wed Jun 17 22:18:53 2020
%%DocumentFonts: (atend)
%%BoundingBox: 50 50 410 302
%%EndComments
%%BeginProlog
/gnudict 256 dict def
gnudict begin
%
% The following true/false flags may be edited by hand if desired.
% The unit line width and grayscale image gamma correction may also be changed.
%
/Color true def
/Blacktext false def
/Solid false def
/Dashlength 1 def
/Landscape false def
/Level1 false def
/Level3 false def
/Rounded false def
/ClipToBoundingBox false def
/SuppressPDFMark false def
/TransparentPatterns false def
/gnulinewidth 5.000 def
/userlinewidth gnulinewidth def
/Gamma 1.0 def
/BackgroundColor {-1.000 -1.000 -1.000} def
%
/vshift -60 def
/dl1 {
  10.0 Dashlength userlinewidth gnulinewidth div mul mul mul
  Rounded { currentlinewidth 0.75 mul sub dup 0 le { pop 0.01 } if } if
} def
/dl2 {
  10.0 Dashlength userlinewidth gnulinewidth div mul mul mul
  Rounded { currentlinewidth 0.75 mul add } if
} def
/hpt_ 31.5 def
/vpt_ 31.5 def
/hpt hpt_ def
/vpt vpt_ def
/doclip {
  ClipToBoundingBox {
    newpath 50 50 moveto 410 50 lineto 410 302 lineto 50 302 lineto closepath
    clip
  } if
} def
%
% Gnuplot Prolog Version 5.1 (Oct 2015)
%
%/SuppressPDFMark true def
%
/M {moveto} bind def
/L {lineto} bind def
/R {rmoveto} bind def
/V {rlineto} bind def
/N {newpath moveto} bind def
/Z {closepath} bind def
/C {setrgbcolor} bind def
/f {rlineto fill} bind def
/g {setgray} bind def
/Gshow {show} def   % May be redefined later in the file to support UTF-8
/vpt2 vpt 2 mul def
/hpt2 hpt 2 mul def
/Lshow {currentpoint stroke M 0 vshift R 
	Blacktext {gsave 0 setgray textshow grestore} {textshow} ifelse} def
/Rshow {currentpoint stroke M dup stringwidth pop neg vshift R
	Blacktext {gsave 0 setgray textshow grestore} {textshow} ifelse} def
/Cshow {currentpoint stroke M dup stringwidth pop -2 div vshift R 
	Blacktext {gsave 0 setgray textshow grestore} {textshow} ifelse} def
/UP {dup vpt_ mul /vpt exch def hpt_ mul /hpt exch def
  /hpt2 hpt 2 mul def /vpt2 vpt 2 mul def} def
/DL {Color {setrgbcolor Solid {pop []} if 0 setdash}
 {pop pop pop 0 setgray Solid {pop []} if 0 setdash} ifelse} def
/BL {stroke userlinewidth 2 mul setlinewidth
	Rounded {1 setlinejoin 1 setlinecap} if} def
/AL {stroke userlinewidth 2 div setlinewidth
	Rounded {1 setlinejoin 1 setlinecap} if} def
/UL {dup gnulinewidth mul /userlinewidth exch def
	dup 1 lt {pop 1} if 10 mul /udl exch def} def
/PL {stroke userlinewidth setlinewidth
	Rounded {1 setlinejoin 1 setlinecap} if} def
3.8 setmiterlimit
% Classic Line colors (version 5.0)
/LCw {1 1 1} def
/LCb {0 0 0} def
/LCa {0 0 0} def
/LC0 {1 0 0} def
/LC1 {0 1 0} def
/LC2 {0 0 1} def
/LC3 {1 0 1} def
/LC4 {0 1 1} def
/LC5 {1 1 0} def
/LC6 {0 0 0} def
/LC7 {1 0.3 0} def
/LC8 {0.5 0.5 0.5} def
% Default dash patterns (version 5.0)
/LTB {BL [] LCb DL} def
/LTw {PL [] 1 setgray} def
/LTb {PL [] LCb DL} def
/LTa {AL [1 udl mul 2 udl mul] 0 setdash LCa setrgbcolor} def
/LT0 {PL [] LC0 DL} def
/LT1 {PL [2 dl1 3 dl2] LC1 DL} def
/LT2 {PL [1 dl1 1.5 dl2] LC2 DL} def
/LT3 {PL [6 dl1 2 dl2 1 dl1 2 dl2] LC3 DL} def
/LT4 {PL [1 dl1 2 dl2 6 dl1 2 dl2 1 dl1 2 dl2] LC4 DL} def
/LT5 {PL [4 dl1 2 dl2] LC5 DL} def
/LT6 {PL [1.5 dl1 1.5 dl2 1.5 dl1 1.5 dl2 1.5 dl1 6 dl2] LC6 DL} def
/LT7 {PL [3 dl1 3 dl2 1 dl1 3 dl2] LC7 DL} def
/LT8 {PL [2 dl1 2 dl2 2 dl1 6 dl2] LC8 DL} def
/SL {[] 0 setdash} def
/Pnt {stroke [] 0 setdash gsave 1 setlinecap M 0 0 V stroke grestore} def
/Dia {stroke [] 0 setdash 2 copy vpt add M
  hpt neg vpt neg V hpt vpt neg V
  hpt vpt V hpt neg vpt V closepath stroke
  Pnt} def
/Pls {stroke [] 0 setdash vpt sub M 0 vpt2 V
  currentpoint stroke M
  hpt neg vpt neg R hpt2 0 V stroke
 } def
/Box {stroke [] 0 setdash 2 copy exch hpt sub exch vpt add M
  0 vpt2 neg V hpt2 0 V 0 vpt2 V
  hpt2 neg 0 V closepath stroke
  Pnt} def
/Crs {stroke [] 0 setdash exch hpt sub exch vpt add M
  hpt2 vpt2 neg V currentpoint stroke M
  hpt2 neg 0 R hpt2 vpt2 V stroke} def
/TriU {stroke [] 0 setdash 2 copy vpt 1.12 mul add M
  hpt neg vpt -1.62 mul V
  hpt 2 mul 0 V
  hpt neg vpt 1.62 mul V closepath stroke
  Pnt} def
/Star {2 copy Pls Crs} def
/BoxF {stroke [] 0 setdash exch hpt sub exch vpt add M
  0 vpt2 neg V hpt2 0 V 0 vpt2 V
  hpt2 neg 0 V closepath fill} def
/TriUF {stroke [] 0 setdash vpt 1.12 mul add M
  hpt neg vpt -1.62 mul V
  hpt 2 mul 0 V
  hpt neg vpt 1.62 mul V closepath fill} def
/TriD {stroke [] 0 setdash 2 copy vpt 1.12 mul sub M
  hpt neg vpt 1.62 mul V
  hpt 2 mul 0 V
  hpt neg vpt -1.62 mul V closepath stroke
  Pnt} def
/TriDF {stroke [] 0 setdash vpt 1.12 mul sub M
  hpt neg vpt 1.62 mul V
  hpt 2 mul 0 V
  hpt neg vpt -1.62 mul V closepath fill} def
/DiaF {stroke [] 0 setdash vpt add M
  hpt neg vpt neg V hpt vpt neg V
  hpt vpt V hpt neg vpt V closepath fill} def
/Pent {stroke [] 0 setdash 2 copy gsave
  translate 0 hpt M 4 {72 rotate 0 hpt L} repeat
  closepath stroke grestore Pnt} def
/PentF {stroke [] 0 setdash gsave
  translate 0 hpt M 4 {72 rotate 0 hpt L} repeat
  closepath fill grestore} def
/Circle {stroke [] 0 setdash 2 copy
  hpt 0 360 arc stroke Pnt} def
/CircleF {stroke [] 0 setdash hpt 0 360 arc fill} def
/C0 {BL [] 0 setdash 2 copy moveto vpt 90 450 arc} bind def
/C1 {BL [] 0 setdash 2 copy moveto
	2 copy vpt 0 90 arc closepath fill
	vpt 0 360 arc closepath} bind def
/C2 {BL [] 0 setdash 2 copy moveto
	2 copy vpt 90 180 arc closepath fill
	vpt 0 360 arc closepath} bind def
/C3 {BL [] 0 setdash 2 copy moveto
	2 copy vpt 0 180 arc closepath fill
	vpt 0 360 arc closepath} bind def
/C4 {BL [] 0 setdash 2 copy moveto
	2 copy vpt 180 270 arc closepath fill
	vpt 0 360 arc closepath} bind def
/C5 {BL [] 0 setdash 2 copy moveto
	2 copy vpt 0 90 arc
	2 copy moveto
	2 copy vpt 180 270 arc closepath fill
	vpt 0 360 arc} bind def
/C6 {BL [] 0 setdash 2 copy moveto
	2 copy vpt 90 270 arc closepath fill
	vpt 0 360 arc closepath} bind def
/C7 {BL [] 0 setdash 2 copy moveto
	2 copy vpt 0 270 arc closepath fill
	vpt 0 360 arc closepath} bind def
/C8 {BL [] 0 setdash 2 copy moveto
	2 copy vpt 270 360 arc closepath fill
	vpt 0 360 arc closepath} bind def
/C9 {BL [] 0 setdash 2 copy moveto
	2 copy vpt 270 450 arc closepath fill
	vpt 0 360 arc closepath} bind def
/C10 {BL [] 0 setdash 2 copy 2 copy moveto vpt 270 360 arc closepath fill
	2 copy moveto
	2 copy vpt 90 180 arc closepath fill
	vpt 0 360 arc closepath} bind def
/C11 {BL [] 0 setdash 2 copy moveto
	2 copy vpt 0 180 arc closepath fill
	2 copy moveto
	2 copy vpt 270 360 arc closepath fill
	vpt 0 360 arc closepath} bind def
/C12 {BL [] 0 setdash 2 copy moveto
	2 copy vpt 180 360 arc closepath fill
	vpt 0 360 arc closepath} bind def
/C13 {BL [] 0 setdash 2 copy moveto
	2 copy vpt 0 90 arc closepath fill
	2 copy moveto
	2 copy vpt 180 360 arc closepath fill
	vpt 0 360 arc closepath} bind def
/C14 {BL [] 0 setdash 2 copy moveto
	2 copy vpt 90 360 arc closepath fill
	vpt 0 360 arc} bind def
/C15 {BL [] 0 setdash 2 copy vpt 0 360 arc closepath fill
	vpt 0 360 arc closepath} bind def
/Rec {newpath 4 2 roll moveto 1 index 0 rlineto 0 exch rlineto
	neg 0 rlineto closepath} bind def
/Square {dup Rec} bind def
/Bsquare {vpt sub exch vpt sub exch vpt2 Square} bind def
/S0 {BL [] 0 setdash 2 copy moveto 0 vpt rlineto BL Bsquare} bind def
/S1 {BL [] 0 setdash 2 copy vpt Square fill Bsquare} bind def
/S2 {BL [] 0 setdash 2 copy exch vpt sub exch vpt Square fill Bsquare} bind def
/S3 {BL [] 0 setdash 2 copy exch vpt sub exch vpt2 vpt Rec fill Bsquare} bind def
/S4 {BL [] 0 setdash 2 copy exch vpt sub exch vpt sub vpt Square fill Bsquare} bind def
/S5 {BL [] 0 setdash 2 copy 2 copy vpt Square fill
	exch vpt sub exch vpt sub vpt Square fill Bsquare} bind def
/S6 {BL [] 0 setdash 2 copy exch vpt sub exch vpt sub vpt vpt2 Rec fill Bsquare} bind def
/S7 {BL [] 0 setdash 2 copy exch vpt sub exch vpt sub vpt vpt2 Rec fill
	2 copy vpt Square fill Bsquare} bind def
/S8 {BL [] 0 setdash 2 copy vpt sub vpt Square fill Bsquare} bind def
/S9 {BL [] 0 setdash 2 copy vpt sub vpt vpt2 Rec fill Bsquare} bind def
/S10 {BL [] 0 setdash 2 copy vpt sub vpt Square fill 2 copy exch vpt sub exch vpt Square fill
	Bsquare} bind def
/S11 {BL [] 0 setdash 2 copy vpt sub vpt Square fill 2 copy exch vpt sub exch vpt2 vpt Rec fill
	Bsquare} bind def
/S12 {BL [] 0 setdash 2 copy exch vpt sub exch vpt sub vpt2 vpt Rec fill Bsquare} bind def
/S13 {BL [] 0 setdash 2 copy exch vpt sub exch vpt sub vpt2 vpt Rec fill
	2 copy vpt Square fill Bsquare} bind def
/S14 {BL [] 0 setdash 2 copy exch vpt sub exch vpt sub vpt2 vpt Rec fill
	2 copy exch vpt sub exch vpt Square fill Bsquare} bind def
/S15 {BL [] 0 setdash 2 copy Bsquare fill Bsquare} bind def
/D0 {gsave translate 45 rotate 0 0 S0 stroke grestore} bind def
/D1 {gsave translate 45 rotate 0 0 S1 stroke grestore} bind def
/D2 {gsave translate 45 rotate 0 0 S2 stroke grestore} bind def
/D3 {gsave translate 45 rotate 0 0 S3 stroke grestore} bind def
/D4 {gsave translate 45 rotate 0 0 S4 stroke grestore} bind def
/D5 {gsave translate 45 rotate 0 0 S5 stroke grestore} bind def
/D6 {gsave translate 45 rotate 0 0 S6 stroke grestore} bind def
/D7 {gsave translate 45 rotate 0 0 S7 stroke grestore} bind def
/D8 {gsave translate 45 rotate 0 0 S8 stroke grestore} bind def
/D9 {gsave translate 45 rotate 0 0 S9 stroke grestore} bind def
/D10 {gsave translate 45 rotate 0 0 S10 stroke grestore} bind def
/D11 {gsave translate 45 rotate 0 0 S11 stroke grestore} bind def
/D12 {gsave translate 45 rotate 0 0 S12 stroke grestore} bind def
/D13 {gsave translate 45 rotate 0 0 S13 stroke grestore} bind def
/D14 {gsave translate 45 rotate 0 0 S14 stroke grestore} bind def
/D15 {gsave translate 45 rotate 0 0 S15 stroke grestore} bind def
/DiaE {stroke [] 0 setdash vpt add M
  hpt neg vpt neg V hpt vpt neg V
  hpt vpt V hpt neg vpt V closepath stroke} def
/BoxE {stroke [] 0 setdash exch hpt sub exch vpt add M
  0 vpt2 neg V hpt2 0 V 0 vpt2 V
  hpt2 neg 0 V closepath stroke} def
/TriUE {stroke [] 0 setdash vpt 1.12 mul add M
  hpt neg vpt -1.62 mul V
  hpt 2 mul 0 V
  hpt neg vpt 1.62 mul V closepath stroke} def
/TriDE {stroke [] 0 setdash vpt 1.12 mul sub M
  hpt neg vpt 1.62 mul V
  hpt 2 mul 0 V
  hpt neg vpt -1.62 mul V closepath stroke} def
/PentE {stroke [] 0 setdash gsave
  translate 0 hpt M 4 {72 rotate 0 hpt L} repeat
  closepath stroke grestore} def
/CircE {stroke [] 0 setdash 
  hpt 0 360 arc stroke} def
/Opaque {gsave closepath 1 setgray fill grestore 0 setgray closepath} def
/DiaW {stroke [] 0 setdash vpt add M
  hpt neg vpt neg V hpt vpt neg V
  hpt vpt V hpt neg vpt V Opaque stroke} def
/BoxW {stroke [] 0 setdash exch hpt sub exch vpt add M
  0 vpt2 neg V hpt2 0 V 0 vpt2 V
  hpt2 neg 0 V Opaque stroke} def
/TriUW {stroke [] 0 setdash vpt 1.12 mul add M
  hpt neg vpt -1.62 mul V
  hpt 2 mul 0 V
  hpt neg vpt 1.62 mul V Opaque stroke} def
/TriDW {stroke [] 0 setdash vpt 1.12 mul sub M
  hpt neg vpt 1.62 mul V
  hpt 2 mul 0 V
  hpt neg vpt -1.62 mul V Opaque stroke} def
/PentW {stroke [] 0 setdash gsave
  translate 0 hpt M 4 {72 rotate 0 hpt L} repeat
  Opaque stroke grestore} def
/CircW {stroke [] 0 setdash 
  hpt 0 360 arc Opaque stroke} def
/BoxFill {gsave Rec 1 setgray fill grestore} def
/Density {
  /Fillden exch def
  currentrgbcolor
  /ColB exch def /ColG exch def /ColR exch def
  /ColR ColR Fillden mul Fillden sub 1 add def
  /ColG ColG Fillden mul Fillden sub 1 add def
  /ColB ColB Fillden mul Fillden sub 1 add def
  ColR ColG ColB setrgbcolor} def
/BoxColFill {gsave Rec PolyFill} def
/PolyFill {gsave Density fill grestore grestore} def
/h {rlineto rlineto rlineto gsave closepath fill grestore} bind def
%
% PostScript Level 1 Pattern Fill routine for rectangles
% Usage: x y w h s a XX PatternFill
%	x,y = lower left corner of box to be filled
%	w,h = width and height of box
%	  a = angle in degrees between lines and x-axis
%	 XX = 0/1 for no/yes cross-hatch
%
/PatternFill {gsave /PFa [ 9 2 roll ] def
  PFa 0 get PFa 2 get 2 div add PFa 1 get PFa 3 get 2 div add translate
  PFa 2 get -2 div PFa 3 get -2 div PFa 2 get PFa 3 get Rec
  TransparentPatterns {} {gsave 1 setgray fill grestore} ifelse
  clip
  currentlinewidth 0.5 mul setlinewidth
  /PFs PFa 2 get dup mul PFa 3 get dup mul add sqrt def
  0 0 M PFa 5 get rotate PFs -2 div dup translate
  0 1 PFs PFa 4 get div 1 add floor cvi
	{PFa 4 get mul 0 M 0 PFs V} for
  0 PFa 6 get ne {
	0 1 PFs PFa 4 get div 1 add floor cvi
	{PFa 4 get mul 0 2 1 roll M PFs 0 V} for
 } if
  stroke grestore} def
%
/languagelevel where
 {pop languagelevel} {1} ifelse
dup 2 lt
	{/InterpretLevel1 true def
	 /InterpretLevel3 false def}
	{/InterpretLevel1 Level1 def
	 2 gt
	    {/InterpretLevel3 Level3 def}
	    {/InterpretLevel3 false def}
	 ifelse }
 ifelse
%
% PostScript level 2 pattern fill definitions
%
/Level2PatternFill {
/Tile8x8 {/PaintType 2 /PatternType 1 /TilingType 1 /BBox [0 0 8 8] /XStep 8 /YStep 8}
	bind def
/KeepColor {currentrgbcolor [/Pattern /DeviceRGB] setcolorspace} bind def
<< Tile8x8
 /PaintProc {0.5 setlinewidth pop 0 0 M 8 8 L 0 8 M 8 0 L stroke} 
>> matrix makepattern
/Pat1 exch def
<< Tile8x8
 /PaintProc {0.5 setlinewidth pop 0 0 M 8 8 L 0 8 M 8 0 L stroke
	0 4 M 4 8 L 8 4 L 4 0 L 0 4 L stroke}
>> matrix makepattern
/Pat2 exch def
<< Tile8x8
 /PaintProc {0.5 setlinewidth pop 0 0 M 0 8 L
	8 8 L 8 0 L 0 0 L fill}
>> matrix makepattern
/Pat3 exch def
<< Tile8x8
 /PaintProc {0.5 setlinewidth pop -4 8 M 8 -4 L
	0 12 M 12 0 L stroke}
>> matrix makepattern
/Pat4 exch def
<< Tile8x8
 /PaintProc {0.5 setlinewidth pop -4 0 M 8 12 L
	0 -4 M 12 8 L stroke}
>> matrix makepattern
/Pat5 exch def
<< Tile8x8
 /PaintProc {0.5 setlinewidth pop -2 8 M 4 -4 L
	0 12 M 8 -4 L 4 12 M 10 0 L stroke}
>> matrix makepattern
/Pat6 exch def
<< Tile8x8
 /PaintProc {0.5 setlinewidth pop -2 0 M 4 12 L
	0 -4 M 8 12 L 4 -4 M 10 8 L stroke}
>> matrix makepattern
/Pat7 exch def
<< Tile8x8
 /PaintProc {0.5 setlinewidth pop 8 -2 M -4 4 L
	12 0 M -4 8 L 12 4 M 0 10 L stroke}
>> matrix makepattern
/Pat8 exch def
<< Tile8x8
 /PaintProc {0.5 setlinewidth pop 0 -2 M 12 4 L
	-4 0 M 12 8 L -4 4 M 8 10 L stroke}
>> matrix makepattern
/Pat9 exch def
/Pattern1 {PatternBgnd KeepColor Pat1 setpattern} bind def
/Pattern2 {PatternBgnd KeepColor Pat2 setpattern} bind def
/Pattern3 {PatternBgnd KeepColor Pat3 setpattern} bind def
/Pattern4 {PatternBgnd KeepColor Landscape {Pat5} {Pat4} ifelse setpattern} bind def
/Pattern5 {PatternBgnd KeepColor Landscape {Pat4} {Pat5} ifelse setpattern} bind def
/Pattern6 {PatternBgnd KeepColor Landscape {Pat9} {Pat6} ifelse setpattern} bind def
/Pattern7 {PatternBgnd KeepColor Landscape {Pat8} {Pat7} ifelse setpattern} bind def
} def
%
%
%End of PostScript Level 2 code
%
/PatternBgnd {
  TransparentPatterns {} {gsave 1 setgray fill grestore} ifelse
} def
%
% Substitute for Level 2 pattern fill codes with
% grayscale if Level 2 support is not selected.
%
/Level1PatternFill {
/Pattern1 {0.250 Density} bind def
/Pattern2 {0.500 Density} bind def
/Pattern3 {0.750 Density} bind def
/Pattern4 {0.125 Density} bind def
/Pattern5 {0.375 Density} bind def
/Pattern6 {0.625 Density} bind def
/Pattern7 {0.875 Density} bind def
} def
%
% Now test for support of Level 2 code
%
Level1 {Level1PatternFill} {Level2PatternFill} ifelse
%
/Symbol-Oblique /Symbol findfont [1 0 .167 1 0 0] makefont
dup length dict begin {1 index /FID eq {pop pop} {def} ifelse} forall
currentdict end definefont pop
%
/Metrics {ExtendTextBox Gswidth} def
/Lwidth {currentpoint stroke M 0 vshift R Metrics} def
/Rwidth {currentpoint stroke M dup stringwidth pop neg vshift R Metrics} def
/Cwidth {currentpoint stroke M dup stringwidth pop -2 div vshift R Metrics} def
/GLwidth {currentpoint stroke M 0 vshift R {ExtendTextBox} forall} def
/GRwidth {currentpoint stroke M dup Gwidth vshift R {ExtendTextBox} forall} def
/GCwidth {currentpoint stroke M dup Gwidth 2 div vshift R {ExtendTextBox} forall} def
/GLwidth2 {0 Gwidth AddGlyphWidth} def
/GRwidth2 {Gwidth -1 mul 0 AddGlyphWidth} def
/GCwidth2 {Gwidth 2 div dup -1 mul AddGlyphWidth} def
/AddGlyphWidth { dup TBx2 gt {userdict /TBx2 3 -1 roll put} {pop} ifelse
                 dup TBx1 lt {userdict /TBx1 3 -1 roll put} {pop} ifelse } def
/MFshow {
   { dup 5 get 3 ge
     { 5 get 3 eq {gsave} {grestore} ifelse }
     {dup dup 0 get findfont exch 1 get scalefont setfont
     [ currentpoint ] exch dup 2 get 0 exch R dup 5 get 2 ne {dup dup 6
     get exch 4 get {textshow} {Metrics pop 0 R} ifelse }if dup 5 get 0 eq
     {dup 3 get {2 get neg 0 exch R pop} {pop aload pop M} ifelse} {dup 5
     get 1 eq {dup 2 get exch dup 3 get exch 6 get Gswidth pop -2 div
     dup 0 R} {dup 6 get Gswidth pop -2 div 0 R 6 get
     textshow 2 index {aload pop M neg 3 -1 roll neg R pop pop} {pop pop pop
     pop aload pop M} ifelse }ifelse }ifelse }
     ifelse }
   forall} def
/Gswidth {dup type /stringtype eq {stringwidth} {pop (n) stringwidth} ifelse} def
/MFwidth {0 exch { dup 5 get 3 ge { 5 get 3 eq { 0 } { pop } ifelse }
 {dup 3 get{dup dup 0 get findfont exch 1 get scalefont setfont
     6 get Gswidth pop add} {pop} ifelse} ifelse} forall} def
/MLshow { currentpoint stroke M
  0 exch R
  Blacktext {gsave 0 setgray MFshow grestore} {MFshow} ifelse } bind def
/MRshow { currentpoint stroke M
  exch dup MFwidth neg 3 -1 roll R
  Blacktext {gsave 0 setgray MFshow grestore} {MFshow} ifelse } bind def
/MCshow { currentpoint stroke M
  exch dup MFwidth -2 div 3 -1 roll R
  Blacktext {gsave 0 setgray MFshow grestore} {MFshow} ifelse } bind def
/XYsave    { [( ) 1 2 true false 3 ()] } bind def
/XYrestore { [( ) 1 2 true false 4 ()] } bind def
Level1 SuppressPDFMark or 
{} {
/SDict 10 dict def
systemdict /pdfmark known not {
  userdict /pdfmark systemdict /cleartomark get put
} if
SDict begin [
  /Title (plot_emittx_b_0.1.eps)
  /Subject (gnuplot plot)
  /Creator (gnuplot 5.2 patchlevel 2)
%  /Producer (gnuplot)
%  /Keywords ()
  /CreationDate (Wed Jun 17 22:18:53 2020)
  /DOCINFO pdfmark
end
} ifelse
%
% Support for boxed text - Ethan A Merritt Sep 2016
%
/InitTextBox { userdict /TBy2 3 -1 roll put userdict /TBx2 3 -1 roll put
           userdict /TBy1 3 -1 roll put userdict /TBx1 3 -1 roll put
	   /Boxing true def } def
/ExtendTextBox { dup type /stringtype eq
    { Boxing { gsave dup false charpath pathbbox
      dup TBy2 gt {userdict /TBy2 3 -1 roll put} {pop} ifelse
      dup TBx2 gt {userdict /TBx2 3 -1 roll put} {pop} ifelse
      dup TBy1 lt {userdict /TBy1 3 -1 roll put} {pop} ifelse
      dup TBx1 lt {userdict /TBx1 3 -1 roll put} {pop} ifelse
      grestore } if }
    {} ifelse} def
/PopTextBox { newpath TBx1 TBxmargin sub TBy1 TBymargin sub M
               TBx1 TBxmargin sub TBy2 TBymargin add L
	       TBx2 TBxmargin add TBy2 TBymargin add L
	       TBx2 TBxmargin add TBy1 TBymargin sub L closepath } def
/DrawTextBox { PopTextBox stroke /Boxing false def} def
/FillTextBox { gsave PopTextBox fill grestore /Boxing false def} def
0 0 0 0 InitTextBox
/TBxmargin 20 def
/TBymargin 20 def
/Boxing false def
/textshow { ExtendTextBox Gshow } def
%
end
%%EndProlog
%%Page: 1 1
gnudict begin
gsave
doclip
50 50 translate
0.050 0.050 scale
0 setgray
newpath
(Helvetica) findfont 180 scalefont setfont
BackgroundColor 0 lt 3 1 roll 0 lt exch 0 lt or or not {BackgroundColor C 1.000 0 0 7200.00 5040.00 BoxColFill} if
1.000 UL
LTb
LCb setrgbcolor
990 576 M
63 0 V
5822 0 R
-63 0 V
stroke
882 576 M
[ [(Helvetica) 180.0 0.0 true true 0 ( 0.15)]
] -60.0 MRshow
1.000 UL
LTb
LCb setrgbcolor
990 1111 M
63 0 V
5822 0 R
-63 0 V
stroke
882 1111 M
[ [(Helvetica) 180.0 0.0 true true 0 ( 0.16)]
] -60.0 MRshow
1.000 UL
LTb
LCb setrgbcolor
990 1647 M
63 0 V
5822 0 R
-63 0 V
stroke
882 1647 M
[ [(Helvetica) 180.0 0.0 true true 0 ( 0.17)]
] -60.0 MRshow
1.000 UL
LTb
LCb setrgbcolor
990 2182 M
63 0 V
5822 0 R
-63 0 V
stroke
882 2182 M
[ [(Helvetica) 180.0 0.0 true true 0 ( 0.18)]
] -60.0 MRshow
1.000 UL
LTb
LCb setrgbcolor
990 2718 M
63 0 V
5822 0 R
-63 0 V
stroke
882 2718 M
[ [(Helvetica) 180.0 0.0 true true 0 ( 0.19)]
] -60.0 MRshow
1.000 UL
LTb
LCb setrgbcolor
990 3253 M
63 0 V
5822 0 R
-63 0 V
stroke
882 3253 M
[ [(Helvetica) 180.0 0.0 true true 0 ( 0.2)]
] -60.0 MRshow
1.000 UL
LTb
LCb setrgbcolor
990 3788 M
63 0 V
5822 0 R
-63 0 V
stroke
882 3788 M
[ [(Helvetica) 180.0 0.0 true true 0 ( 0.21)]
] -60.0 MRshow
1.000 UL
LTb
LCb setrgbcolor
990 4324 M
63 0 V
5822 0 R
-63 0 V
stroke
882 4324 M
[ [(Helvetica) 180.0 0.0 true true 0 ( 0.22)]
] -60.0 MRshow
1.000 UL
LTb
LCb setrgbcolor
990 4859 M
63 0 V
5822 0 R
-63 0 V
stroke
882 4859 M
[ [(Helvetica) 180.0 0.0 true true 0 ( 0.23)]
] -60.0 MRshow
1.000 UL
LTb
LCb setrgbcolor
990 576 M
0 63 V
0 4220 R
0 -63 V
stroke
990 396 M
[ [(Helvetica) 180.0 0.0 true true 0 ( 0)]
] -60.0 MCshow
1.000 UL
LTb
LCb setrgbcolor
2167 576 M
0 63 V
0 4220 R
0 -63 V
stroke
2167 396 M
[ [(Helvetica) 180.0 0.0 true true 0 ( 50)]
] -60.0 MCshow
1.000 UL
LTb
LCb setrgbcolor
3344 576 M
0 63 V
0 4220 R
0 -63 V
stroke
3344 396 M
[ [(Helvetica) 180.0 0.0 true true 0 ( 100)]
] -60.0 MCshow
1.000 UL
LTb
LCb setrgbcolor
4521 576 M
0 63 V
0 4220 R
0 -63 V
stroke
4521 396 M
[ [(Helvetica) 180.0 0.0 true true 0 ( 150)]
] -60.0 MCshow
1.000 UL
LTb
LCb setrgbcolor
5698 576 M
0 63 V
0 4220 R
0 -63 V
stroke
5698 396 M
[ [(Helvetica) 180.0 0.0 true true 0 ( 200)]
] -60.0 MCshow
1.000 UL
LTb
LCb setrgbcolor
6875 576 M
0 63 V
0 4220 R
0 -63 V
stroke
6875 396 M
[ [(Helvetica) 180.0 0.0 true true 0 ( 250)]
] -60.0 MCshow
1.000 UL
LTb
LCb setrgbcolor
1.000 UL
LTB
LCb setrgbcolor
990 4859 N
990 576 L
5885 0 V
0 4283 V
-5885 0 V
Z stroke
1.000 UP
1.000 UL
LTb
LCb setrgbcolor
LCb setrgbcolor
162 2717 M
currentpoint gsave translate -270 rotate 0 0 moveto
[ [(Symbol) 180.0 0.0 true true 0 (e)]
[(Helvetica) 144.0 -54.0 true true 0 (x)]
[(Helvetica) 180.0 0.0 true true 0 ( [mm.mrad])]
] -42.0 MCshow
grestore
LTb
LCb setrgbcolor
3932 126 M
[ [(Helvetica) 180.0 0.0 true true 0 (s [m])]
] -60.0 MCshow
LTb
% Begin plot #1
1.000 UP
1.000 UL
LTb
0.58 0.00 0.83 C LCb setrgbcolor
6056 4706 M
[ [(Helvetica) 180.0 0.0 true true 0 (orbit correction)]
] -60.0 MRshow
1.000 UP
1.000 UL
LTb
0.58 0.00 0.83 C 6164 4706 M
495 0 V
1008 1245 M
14 -42 V
10 -215 V
16 -14 V
53 34 V
55 -105 V
55 63 V
55 117 V
54 318 V
55 280 V
78 44 V
36 553 V
13 1722 V
7 -1944 V
232 168 V
29 -153 V
31 44 V
18 -19 V
44 22 V
58 -53 V
57 16 V
57 94 V
58 2 V
57 -39 V
58 -4 V
57 39 V
58 -25 V
25 15 V
93 239 V
12 -257 V
226 2307 V
9 -406 V
12 -73 V
74 427 V
9 -263 V
12 -152 V
197 67 V
14 266 V
9 -340 V
42 22 V
69 37 V
58 -46 V
57 7 V
57 100 V
58 -53 V
57 -6 V
58 -14 V
57 58 V
13 -40 V
13 39 V
11 -49 V
172 5 V
23 -33 V
28 28 V
69 -47 V
50 8 V
109 15 V
108 -17 V
108 -7 V
108 2 V
109 8 V
108 0 V
108 -2 V
109 -3 V
108 7 V
108 0 V
108 -6 V
109 0 V
108 0 V
108 0 V
109 -2 V
108 -2 V
108 6 V
108 -1 V
109 -5 V
108 -1 V
1 7 V
1008 1245 Pls
1022 1203 Pls
1032 988 Pls
1048 974 Pls
1101 1008 Pls
1156 903 Pls
1211 966 Pls
1266 1083 Pls
1320 1401 Pls
1375 1681 Pls
1453 1725 Pls
1489 2278 Pls
1502 4000 Pls
1509 2056 Pls
1741 2224 Pls
1770 2071 Pls
1801 2115 Pls
1819 2096 Pls
1863 2118 Pls
1921 2065 Pls
1978 2081 Pls
2035 2175 Pls
2093 2177 Pls
2150 2138 Pls
2208 2134 Pls
2265 2173 Pls
2323 2148 Pls
2348 2163 Pls
2441 2402 Pls
2453 2145 Pls
2679 4452 Pls
2688 4046 Pls
2700 3973 Pls
2774 4400 Pls
2783 4137 Pls
2795 3985 Pls
2992 4052 Pls
3006 4318 Pls
3015 3978 Pls
3057 4000 Pls
3126 4037 Pls
3184 3991 Pls
3241 3998 Pls
3298 4098 Pls
3356 4045 Pls
3413 4039 Pls
3471 4025 Pls
3528 4083 Pls
3541 4043 Pls
3554 4082 Pls
3565 4033 Pls
3737 4038 Pls
3760 4005 Pls
3788 4033 Pls
3857 3986 Pls
3907 3994 Pls
4016 4009 Pls
4124 3992 Pls
4232 3985 Pls
4340 3987 Pls
4449 3995 Pls
4557 3995 Pls
4665 3993 Pls
4774 3990 Pls
4882 3997 Pls
4990 3997 Pls
5098 3991 Pls
5207 3991 Pls
5315 3991 Pls
5423 3991 Pls
5532 3989 Pls
5640 3987 Pls
5748 3993 Pls
5856 3992 Pls
5965 3987 Pls
6073 3986 Pls
6074 3993 Pls
6411 4706 Pls
% End plot #1
% Begin plot #2
1.000 UP
1.000 UL
LTb
0.00 0.62 0.45 C LCb setrgbcolor
6056 4526 M
[ [(Helvetica) 180.0 0.0 true true 0 (dispersion-free correction)]
] -60.0 MRshow
1.000 UP
1.000 UL
LTb
0.00 0.62 0.45 C 6164 4526 M
495 0 V
1008 1283 M
14 57 V
10 -315 V
16 -45 V
53 30 V
55 -101 V
55 52 V
55 83 V
54 276 V
55 185 V
78 -2 V
36 264 V
13 137 V
7 -162 V
232 120 V
29 -120 V
31 14 V
18 9 V
44 -18 V
58 -33 V
57 -1 V
57 68 V
58 -3 V
57 -46 V
58 0 V
57 22 V
58 25 V
25 -13 V
93 128 V
12 -122 V
226 2320 V
9 -541 V
12 10 V
74 191 V
9 -69 V
12 -111 V
197 11 V
14 200 V
9 -218 V
42 10 V
69 27 V
58 -32 V
57 9 V
57 61 V
58 -10 V
57 -9 V
58 -2 V
57 39 V
13 -7 V
13 -8 V
11 -5 V
172 16 V
23 -2 V
28 35 V
69 -51 V
50 13 V
109 12 V
108 -8 V
108 -7 V
108 3 V
109 10 V
108 4 V
108 -1 V
109 -2 V
108 6 V
108 0 V
108 -3 V
109 1 V
108 -1 V
108 1 V
109 -3 V
108 1 V
108 7 V
108 -1 V
109 -6 V
108 -1 V
1 8 V
1008 1283 Crs
1022 1340 Crs
1032 1025 Crs
1048 980 Crs
1101 1010 Crs
1156 909 Crs
1211 961 Crs
1266 1044 Crs
1320 1320 Crs
1375 1505 Crs
1453 1503 Crs
1489 1767 Crs
1502 1904 Crs
1509 1742 Crs
1741 1862 Crs
1770 1742 Crs
1801 1756 Crs
1819 1765 Crs
1863 1747 Crs
1921 1714 Crs
1978 1713 Crs
2035 1781 Crs
2093 1778 Crs
2150 1732 Crs
2208 1732 Crs
2265 1754 Crs
2323 1779 Crs
2348 1766 Crs
2441 1894 Crs
2453 1772 Crs
2679 4092 Crs
2688 3551 Crs
2700 3561 Crs
2774 3752 Crs
2783 3683 Crs
2795 3572 Crs
2992 3583 Crs
3006 3783 Crs
3015 3565 Crs
3057 3575 Crs
3126 3602 Crs
3184 3570 Crs
3241 3579 Crs
3298 3640 Crs
3356 3630 Crs
3413 3621 Crs
3471 3619 Crs
3528 3658 Crs
3541 3651 Crs
3554 3643 Crs
3565 3638 Crs
3737 3654 Crs
3760 3652 Crs
3788 3687 Crs
3857 3636 Crs
3907 3649 Crs
4016 3661 Crs
4124 3653 Crs
4232 3646 Crs
4340 3649 Crs
4449 3659 Crs
4557 3663 Crs
4665 3662 Crs
4774 3660 Crs
4882 3666 Crs
4990 3666 Crs
5098 3663 Crs
5207 3664 Crs
5315 3663 Crs
5423 3664 Crs
5532 3661 Crs
5640 3662 Crs
5748 3669 Crs
5856 3668 Crs
5965 3662 Crs
6073 3661 Crs
6074 3669 Crs
6411 4526 Crs
% End plot #2
% Begin plot #3
1.000 UP
1.000 UL
LTb
0.34 0.71 0.91 C LCb setrgbcolor
6056 4346 M
[ [(Helvetica) 180.0 0.0 true true 0 (wakefield-free correction)]
] -60.0 MRshow
1.000 UP
1.000 UL
LTb
0.34 0.71 0.91 C 6164 4346 M
495 0 V
1008 1343 M
14 187 V
10 -454 V
16 -85 V
53 30 V
55 -105 V
55 56 V
55 81 V
54 215 V
55 39 V
78 14 V
36 203 V
13 223 V
7 -184 V
232 100 V
29 -137 V
31 25 V
18 -15 V
44 0 V
58 -34 V
57 -3 V
57 67 V
58 -8 V
57 -47 V
58 3 V
57 21 V
58 23 V
25 -16 V
93 107 V
12 -101 V
226 2340 V
9 -517 V
12 -15 V
74 210 V
9 -90 V
12 -106 V
197 14 V
14 185 V
9 -207 V
42 1 V
69 23 V
58 -16 V
57 5 V
57 69 V
58 -25 V
57 -25 V
58 -7 V
57 39 V
13 6 V
13 -36 V
11 14 V
172 29 V
23 -11 V
28 27 V
69 -47 V
50 21 V
109 17 V
108 -12 V
108 -12 V
108 3 V
109 12 V
108 -1 V
108 -5 V
109 0 V
108 5 V
108 1 V
108 -3 V
109 0 V
108 0 V
108 2 V
109 -3 V
108 1 V
108 6 V
108 -1 V
109 -5 V
108 -1 V
1 8 V
1008 1343 Star
1022 1530 Star
1032 1076 Star
1048 991 Star
1101 1021 Star
1156 916 Star
1211 972 Star
1266 1053 Star
1320 1268 Star
1375 1307 Star
1453 1321 Star
1489 1524 Star
1502 1747 Star
1509 1563 Star
1741 1663 Star
1770 1526 Star
1801 1551 Star
1819 1536 Star
1863 1536 Star
1921 1502 Star
1978 1499 Star
2035 1566 Star
2093 1558 Star
2150 1511 Star
2208 1514 Star
2265 1535 Star
2323 1558 Star
2348 1542 Star
2441 1649 Star
2453 1548 Star
2679 3888 Star
2688 3371 Star
2700 3356 Star
2774 3566 Star
2783 3476 Star
2795 3370 Star
2992 3384 Star
3006 3569 Star
3015 3362 Star
3057 3363 Star
3126 3386 Star
3184 3370 Star
3241 3375 Star
3298 3444 Star
3356 3419 Star
3413 3394 Star
3471 3387 Star
3528 3426 Star
3541 3432 Star
3554 3396 Star
3565 3410 Star
3737 3439 Star
3760 3428 Star
3788 3455 Star
3857 3408 Star
3907 3429 Star
4016 3446 Star
4124 3434 Star
4232 3422 Star
4340 3425 Star
4449 3437 Star
4557 3436 Star
4665 3431 Star
4774 3431 Star
4882 3436 Star
4990 3437 Star
5098 3434 Star
5207 3434 Star
5315 3434 Star
5423 3436 Star
5532 3433 Star
5640 3434 Star
5748 3440 Star
5856 3439 Star
5965 3434 Star
6073 3433 Star
6074 3441 Star
6411 4346 Star
% End plot #3
2.000 UL
LTb
LCb setrgbcolor
1.000 UL
LTB
LCb setrgbcolor
990 4859 N
990 576 L
5885 0 V
0 4283 V
-5885 0 V
Z stroke
1.000 UP
1.000 UL
LTb
LCb setrgbcolor
stroke
grestore
end
showpage
%%Trailer
%%DocumentFonts: Symbol Helvetica
