XLS.L0_PhiD = 35.3536682624691;
XLS.L0_Voltage = 0.233049169694298;
XLS.Ka_PhiD = 185;
XLS.Ka_Voltage = 0.0152625275274653;
XLS.BC1_Pref = 0.315312232466125;
XLS.BC1_R56 = -0.00673900986225106;
XLS.BC1_T566 = 0.0101085147933766;
XLS.L1_PhiD = 38.3860544435237;
XLS.L1_Voltage = 0.836226102136484;
XLS.BC2_Pref = 1.45806636688185;
XLS.BC2_R56 = -0.00315322391846963;
XLS.BC2_T566 = 0.00472983587770445;
XLS.L2_PhiD = -38.3558861023497;
XLS.L2_Voltage = 0.615431184554722;
XLS.L3_PhiD = 10.8308558278051;
XLS.L3_Voltage = 4.23221911104415;
XLS.BC1_z1 = 759.062731935611;
XLS.BC2_z1 = 1724.08675682551;
XLS.Out_sigmaZ = 1.00245946252413;
XLS.Out_sigmaE = 0.000777340174434373;
XLS.Out_meanE = 5.56941734987368;
