 0.000000000   1.000000000
 0.000050000   0.999983335
 0.000100000   0.999931379
 0.000150000   0.999844132
 0.000200000   0.999708851
 0.000250000   0.999549062
 0.000300000   0.999353002
 0.000350000   0.999122632
 0.000400000   0.998847167
 0.000450000   0.998544255
 0.000500000   0.998205071
 0.000550000   0.997827655
 0.000600000   0.997408087
 0.000650000   0.996957149
 0.000700000   0.996467979
 0.000750000   0.995940578
 0.000800000   0.995366122
 0.000850000   0.994761277
 0.000900000   0.994116240
 0.000950000   0.993431010
 0.001000000   0.992693825
 0.001050000   0.991928211
 0.001100000   0.991118483
 0.001150000   0.990266602
 0.001200000   0.989357864
 0.001250000   0.988419717
 0.001300000   0.987435496
 0.001350000   0.986405201
 0.001400000   0.985313147
 0.001450000   0.984190704
 0.001500000   0.983018265
 0.001550000   0.981796811
 0.001600000   0.980505756
 0.001650000   0.979183724
 0.001700000   0.977807481
 0.001750000   0.976377419
 0.001800000   0.974870993
 0.001850000   0.973331334
 0.001900000   0.971732758
 0.001950000   0.970075169
 0.002000000   0.968332490
 0.002050000   0.966554716
 0.002100000   0.964712047
 0.002150000   0.962804383
 0.002200000   0.960801925
 0.002250000   0.958761920
 0.002300000   0.956650158
 0.002350000   0.954466638
 0.002400000   0.952177540
 0.002450000   0.949847759
 0.002500000   0.947438378
 0.002550000   0.944949593
 0.002600000   0.942343172
 0.002650000   0.939692245
 0.002700000   0.936952993
 0.002750000   0.934125612
 0.002800000   0.931167655
 0.002850000   0.928160291
 0.002900000   0.925055093
 0.002950000   0.921851963
 0.003000000   0.918504239
 0.003050000   0.915101422
 0.003100000   0.911590086
 0.003150000   0.907970230
 0.003200000   0.904190880
 0.003250000   0.900349575
 0.003300000   0.896388183
 0.003350000   0.892306802
 0.003400000   0.888050438
 0.003450000   0.883724081
 0.003500000   0.879265383
 0.003550000   0.874674344
 0.003600000   0.869892834
 0.003650000   0.865031919
 0.003700000   0.860025625
 0.003750000   0.854874247
 0.003800000   0.849517398
 0.003850000   0.844070068
 0.003900000   0.838464419
 0.003950000   0.832700452
 0.004000000   0.826717191
 0.004050000   0.820631097
 0.004100000   0.814373745
 0.004150000   0.807945135
 0.004200000   0.801285271
 0.004250000   0.794508850
 0.004300000   0.787549015
 0.004350000   0.780405864
 0.004400000   0.773022245
 0.004450000   0.765507266
 0.004500000   0.757798188
 0.004550000   0.749895010
 0.004600000   0.741745875
 0.004650000   0.733450185
 0.004700000   0.724951867
 0.004750000   0.716250823
 0.004800000   0.707302940
 0.004850000   0.698193209
 0.004900000   0.688875361
 0.004950000   0.679349297
 0.005000000   0.669580412
 0.005050000   0.659635858
 0.005100000   0.649481225
 0.005150000   0.639116613
 0.005200000   0.628518394
 0.005250000   0.617733233
 0.005300000   0.606740444
 0.005350000   0.595540126
 0.005400000   0.584120612
 0.005450000   0.572506411
 0.005500000   0.560691935
 0.005550000   0.548677085
 0.005600000   0.536461666
 0.005650000   0.524049109
 0.005700000   0.511448138
 0.005750000   0.498658656
 0.005800000   0.485690660
 0.005850000   0.472529056
 0.005900000   0.459195115
 0.005950000   0.445688935
 0.006000000   0.432028358
 0.006050000   0.418183975
 0.006100000   0.404187057
 0.006150000   0.390037604
 0.006200000   0.375758262
 0.006250000   0.361311288
 0.006300000   0.346733935
 0.006350000   0.332026201
 0.006400000   0.317212596
 0.006450000   0.302252533
 0.006500000   0.287185618
 0.006550000   0.272011752
 0.006600000   0.256754462
 0.006650000   0.241375420
 0.006700000   0.225913247
 0.006750000   0.210367848
 0.006800000   0.194759807
 0.006850000   0.179056481
 0.006900000   0.163292965
 0.006950000   0.147469258
 0.007000000   0.131602712
 0.007050000   0.115666859
 0.007100000   0.099692970
 0.007150000   0.083681006
 0.007200000   0.067645624
 0.007250000   0.051565461
 0.007300000   0.035468632
 0.007350000   0.019355149
 0.007400000   0.003238342
 0.007450000  -0.012900825
 0.007500000  -0.029035463
 0.007550000  -0.045165582
 0.007600000  -0.061277341
 0.007650000  -0.077390736
 0.007700000  -0.093477918
 0.007750000  -0.109538906
 0.007800000  -0.125557889
 0.007850000  -0.141558540
 0.007900000  -0.157510077
 0.007950000  -0.173412698
 0.008000000  -0.189248365
 0.008050000  -0.205044525
 0.008100000  -0.220767849
 0.008150000  -0.236418043
 0.008200000  -0.251975696
 0.008250000  -0.267470905
 0.008300000  -0.282868181
 0.008350000  -0.298167525
 0.008400000  -0.313349430
 0.008450000  -0.328443401
 0.008500000  -0.343414247
 0.008550000  -0.358261968
 0.008600000  -0.372970191
 0.008650000  -0.387562249
 0.008700000  -0.402006870
 0.008750000  -0.416304250
 0.008800000  -0.430444193
 0.008850000  -0.444437974
 0.008900000  -0.458262458
 0.008950000  -0.471917643
 0.009000000  -0.485402746
 0.009050000  -0.498711396
 0.009100000  -0.511832416
 0.009150000  -0.524765512
 0.009200000  -0.537521469
 0.009250000  -0.550072640
 0.009300000  -0.562421772
 0.009350000  -0.574568962
 0.009400000  -0.586537346
 0.009450000  -0.598275947
 0.009500000  -0.609803195
 0.009550000  -0.621119287
 0.009600000  -0.632259709
 0.009650000  -0.643150351
 0.009700000  -0.653825228
 0.009750000  -0.664284342
 0.009800000  -0.674575040
 0.009850000  -0.684601743
 0.009900000  -0.694412977
 0.009950000  -0.704008544
 0.010000000  -0.713445499
 0.010050000  -0.722610813
 0.010100000  -0.731564578
 0.010150000  -0.740306991
 0.010200000  -0.748902260
 0.010250000  -0.757224124
 0.010300000  -0.765341889
 0.010350000  -0.773255556
 0.010400000  -0.781034432
 0.010450000  -0.788543627
 0.010500000  -0.795858527
 0.010550000  -0.802979229
 0.010600000  -0.809977100
 0.010650000  -0.816713721
 0.010700000  -0.823267614
 0.010750000  -0.829638583
 0.010800000  -0.835898190
 0.010850000  -0.841908605
 0.010900000  -0.847748447
 0.010950000  -0.853417914
 0.011000000  -0.858986311
 0.011050000  -0.864320025
 0.011100000  -0.869495812
 0.011150000  -0.874513771
 0.011200000  -0.879439876
 0.011250000  -0.884147374
 0.011300000  -0.888709396
 0.011350000  -0.893125941
 0.011400000  -0.897458573
 0.011450000  -0.901589458
 0.011500000  -0.905586533
 0.011550000  -0.909450091
 0.011600000  -0.913236303
 0.011650000  -0.916837435
 0.011700000  -0.920315931
 0.011750000  -0.923671792
 0.011800000  -0.926955698
 0.011850000  -0.930070797
 0.011900000  -0.933073358
 0.011950000  -0.935963184
 0.012000000  -0.938785173
 0.012050000  -0.941453942
 0.012100000  -0.944018896
 0.012150000  -0.946480135
 0.012200000  -0.948876674
 0.012250000  -0.951134109
 0.012300000  -0.953295572
 0.012350000  -0.955361064
 0.012400000  -0.957363719
 0.012450000  -0.959240503
 0.012500000  -0.961027884
 0.012550000  -0.962725763
 0.012600000  -0.964361884
 0.012650000  -0.965883799
 0.012700000  -0.967321801
 0.012750000  -0.968675791
 0.012800000  -0.969967925
 0.012850000  -0.971156342
 0.012900000  -0.972265159
 0.012950000  -0.973294278
 0.013000000  -0.974260560
 0.013050000  -0.975132242
 0.013100000  -0.975927560
 0.013150000  -0.976646316
 0.013200000  -0.977300470
 0.013250000  -0.977867867
 0.013300000  -0.978360958
 0.013350000  -0.978779644
 0.013400000  -0.979130984
 0.013450000  -0.979402135
 0.013500000  -0.979600057
 0.013550000  -0.979724751
 0.013600000  -0.979778276
 0.013650000  -0.979757003
 0.013700000  -0.979662698
 0.013750000  -0.979495067
 0.013800000  -0.979251463
 0.013850000  -0.978937669
 0.013900000  -0.978549568
 0.013950000  -0.978087258
 0.014000000  -0.977543094
 0.014050000  -0.976932073
 0.014100000  -0.976244785
 0.014150000  -0.975481229
 0.014200000  -0.974628760
 0.014250000  -0.973711788
 0.014300000  -0.972715509
 0.014350000  -0.971639630
 0.014400000  -0.970466799
 0.014450000  -0.969230837
 0.014500000  -0.967911255
 0.014550000  -0.966507956
 0.014600000  -0.964998196
 0.014650000  -0.963425795
 0.014700000  -0.961764383
 0.014750000  -0.960013763
 0.014800000  -0.958146194
 0.014850000  -0.956215297
 0.014900000  -0.954188723
 0.014950000  -0.952066570
 0.015000000  -0.949815606
 0.015050000  -0.947499549
 0.015100000  -0.945080169
 0.015150000  -0.942557367
 0.015200000  -0.939892814
 0.015250000  -0.937160326
 0.015300000  -0.934315594
 0.015350000  -0.931358617
 0.015400000  -0.928245773
 0.015450000  -0.925060779
 0.015500000  -0.921753639
 0.015550000  -0.918324354
 0.015600000  -0.914724202
 0.015650000  -0.911046411
 0.015700000  -0.907235397
 0.015750000  -0.903291259
 0.015800000  -0.899160961
 0.015850000  -0.894945868
 0.015900000  -0.890585788
 0.015950000  -0.886080624
 0.016000000  -0.881373812
 0.016050000  -0.876573675
 0.016100000  -0.871616103
 0.016150000  -0.866500996
 0.016200000  -0.861169243
 0.016250000  -0.855733970
 0.016300000  -0.850128419
 0.016350000  -0.844352688
 0.016400000  -0.838346587
 0.016450000  -0.832225104
 0.016500000  -0.825920992
 0.016550000  -0.819434053
 0.016600000  -0.812705177
 0.016650000  -0.805847685
 0.016700000  -0.798795702
 0.016750000  -0.791549325
 0.016800000  -0.784052481
 0.016850000  -0.776412514
 0.016900000  -0.768567958
 0.016950000  -0.760518814
 0.017000000  -0.752214399
 0.017050000  -0.743752059
 0.017100000  -0.735077287
 0.017150000  -0.726190084
 0.017200000  -0.717047513
 0.017250000  -0.707732409
 0.017300000  -0.698200071
 0.017350000  -0.688450695
 0.017400000  -0.678451146
 0.017450000  -0.668265732
 0.017500000  -0.657862299
 0.017550000  -0.647241044
 0.017600000  -0.636380105
 0.017650000  -0.625322813
 0.017700000  -0.614051129
 0.017750000  -0.602565347
 0.017800000  -0.590855469
 0.017850000  -0.578942766
 0.017900000  -0.566824299
 0.017950000  -0.554500067
 0.018000000  -0.541971932
 0.018050000  -0.529239797
 0.018100000  -0.516315033
 0.018150000  -0.503197836
 0.018200000  -0.489900068
 0.018250000  -0.476403299
 0.018300000  -0.462731645
 0.018350000  -0.448885007
 0.018400000  -0.434883089
 0.018450000  -0.420693739
 0.018500000  -0.406350579
 0.018550000  -0.391853512
 0.018600000  -0.377226653
 0.018650000  -0.362430301
 0.018700000  -0.347503372
 0.018750000  -0.332446064
 0.018800000  -0.317283765
 0.018850000  -0.301974716
 0.018900000  -0.286559696
 0.018950000  -0.271038706
 0.019000000  -0.255435959
 0.019050000  -0.239712537
 0.019100000  -0.223907750
 0.019150000  -0.208021500
 0.019200000  -0.192074962
 0.019250000  -0.176035197
 0.019300000  -0.159937790
 0.019350000  -0.143782742
 0.019400000  -0.127587600
 0.019450000  -0.111326189
 0.019500000  -0.095029821
 0.019550000  -0.078698603
 0.019600000  -0.062347171
 0.019650000  -0.045954616
 0.019700000  -0.029549101
 0.019750000  -0.013130627
 0.019800000   0.003287373
 0.019850000   0.019723575
 0.019900000   0.036151029
 0.019950000   0.052569739
 0.020000000   0.068965695
 0.020050000   0.085358672
 0.020100000   0.101720720
 0.020150000   0.118051732
 0.020200000   0.134335984
 0.020250000   0.150596611
 0.020300000   0.166803026
 0.020350000   0.182955232
 0.020400000   0.199034993
 0.020450000   0.215069660
 0.020500000   0.231025707
 0.020550000   0.246903135
 0.020600000   0.262682042
 0.020650000   0.278392524
 0.020700000   0.293998898
 0.020750000   0.309501361
 0.020800000   0.324880599
 0.020850000   0.340165141
 0.020900000   0.355320382
 0.020950000   0.370346320
 0.021000000   0.385227077
 0.021050000   0.399984413
 0.021100000   0.414588333
 0.021150000   0.429038738
 0.021200000   0.443326314
 0.021250000   0.457460376
 0.021300000   0.471419259
 0.021350000   0.485202863
 0.021400000   0.498811386
 0.021450000   0.512236397
 0.021500000   0.525467995
 0.021550000   0.538506278
 0.021600000   0.551363009
 0.021650000   0.564007995
 0.021700000   0.576445942
 0.021750000   0.588676948
 0.021800000   0.600725324
 0.021850000   0.612537644
 0.021900000   0.624134199
 0.021950000   0.635514991
 0.022000000   0.646717074
 0.022050000   0.657663690
 0.022100000   0.668390818
 0.022150000   0.678898359
 0.022200000   0.689234935
 0.022250000   0.699302713
 0.022300000   0.709151688
 0.022350000   0.718781958
 0.022400000   0.728251459
 0.022450000   0.737445299
 0.022500000   0.746425140
 0.022550000   0.755190884
 0.022600000   0.763807720
 0.022650000   0.772148112
 0.022700000   0.780282346
 0.022750000   0.788210423
 0.022800000   0.796002043
 0.022850000   0.803521825
 0.022900000   0.810845646
 0.022950000   0.817973504
 0.023000000   0.824977355
 0.023050000   0.831718289
 0.023100000   0.838275123
 0.023150000   0.844647759
 0.023200000   0.850907954
 0.023250000   0.856917780
 0.023300000   0.862756054
 0.023350000   0.868422874
 0.023400000   0.873987644
 0.023450000   0.879317045
 0.023500000   0.884487734
 0.023550000   0.889499714
 0.023600000   0.894418957
 0.023650000   0.899119103
 0.023700000   0.903673184
 0.023750000   0.908081200
 0.023800000   0.912404225
 0.023850000   0.916525405
 0.023900000   0.920512285
 0.023950000   0.924364864
 0.024000000   0.928139410
 0.024050000   0.931728778
 0.024100000   0.935195021
 0.024150000   0.938538040
 0.024200000   0.941808320
 0.024250000   0.944909793
 0.024300000   0.947898237
 0.024350000   0.950773457
 0.024400000   0.953580055
 0.024450000   0.956233335
 0.024500000   0.958782409
 0.024550000   0.961227277
 0.024600000   0.963606366
 0.024650000   0.965846646
 0.024700000   0.967990268
 0.024750000   0.970037526
 0.024800000   0.972020869
 0.024850000   0.973878341
 0.024900000   0.975645920
 0.024950000   0.977323507
 0.025000000   0.978938257
 0.025050000   0.980439096
 0.025100000   0.981854649
 0.025150000   0.983185896
 0.025200000   0.984454404
 0.025250000   0.985619001
 0.025300000   0.986703212
 0.025350000   0.987707039
 0.025400000   0.988647147
 0.025450000   0.989492165
 0.025500000   0.990259740
 0.025550000   0.990950852
 0.025600000   0.991575303
 0.025650000   0.992113487
 0.025700000   0.992575209
 0.025750000   0.992963407
 0.025800000   0.993281025
 0.025850000   0.993519237
 0.025900000   0.993682947
 0.025950000   0.993772155
 0.026000000   0.993788820
 0.026050000   0.993730982
 0.026100000   0.993598642
 0.026150000   0.993390818
 0.026200000   0.993106531
 0.026250000   0.992750682
 0.026300000   0.992319350
 0.026350000   0.991813516
 0.026400000   0.991222395
 0.026450000   0.990564614
 0.026500000   0.989829389
 0.026550000   0.989016720
 0.026600000   0.988111903
 0.026650000   0.987142387
 0.026700000   0.986091505
 0.026750000   0.984960239
 0.026800000   0.983728982
 0.026850000   0.982434006
 0.026900000   0.981053744
 0.026950000   0.979587902
 0.027000000   0.978012560
 0.027050000   0.976373890
 0.027100000   0.974644053
 0.027150000   0.972823146
 0.027200000   0.970881956
 0.027250000   0.968876557
 0.027300000   0.966773323
 0.027350000   0.964572256
 0.027400000   0.962238652
 0.027450000   0.959838976
 0.027500000   0.957333525
 0.027550000   0.954722203
 0.027600000   0.951965011
 0.027650000   0.949138807
 0.027700000   0.946197515
 0.027750000   0.943141430
 0.027800000   0.939924968
 0.027850000   0.936635179
 0.027900000   0.933220109
 0.027950000   0.929679854
 0.028000000   0.925964125
 0.028050000   0.922169188
 0.028100000   0.918237891
 0.028150000   0.914170039
 0.028200000   0.909911028
 0.028250000   0.905565653
 0.028300000   0.901071664
 0.028350000   0.896429160
 0.028400000   0.891579714
 0.028450000   0.886634983
 0.028500000   0.881529091
 0.028550000   0.876262038
 0.028600000   0.870772849
 0.028650000   0.865177983
 0.028700000   0.859409016
 0.028750000   0.853465948
 0.028800000   0.847287216
 0.028850000   0.840990554
 0.028900000   0.834507340
 0.028950000   0.827837478
 0.029000000   0.820920286
 0.029050000   0.813871832
 0.029100000   0.806625063
 0.029150000   0.799180077
 0.029200000   0.791479429
 0.029250000   0.783632913
 0.029300000   0.775578181
 0.029350000   0.767315135
 0.029400000   0.758792310
 0.029450000   0.750108617
 0.029500000   0.741209063
 0.029550000   0.732093744
 0.029600000   0.722719234
 0.029650000   0.713169251
 0.029700000   0.703399288
 0.029750000   0.693409150
 0.029800000   0.683165996
 0.029850000   0.672734331
 0.029900000   0.662082392
 0.029950000   0.651210180
 0.030000000   0.640096520
 0.030050000   0.628784056
 0.030100000   0.617255827
 0.030150000   0.605511834
 0.030200000   0.593543059
 0.030250000   0.581369695
 0.030300000   0.568989879
 0.030350000   0.556403613
 0.030400000   0.543613738
 0.030450000   0.530618883
 0.030500000   0.517431791
 0.030550000   0.504052462
 0.030600000   0.490493836
 0.030650000   0.476736209
 0.030700000   0.462804873
 0.030750000   0.448699828
 0.030800000   0.434441464
 0.030850000   0.419996843
 0.030900000   0.405400374
 0.030950000   0.390652154
 0.031000000   0.375776888
 0.031050000   0.360734088
 0.031100000   0.345563751
 0.031150000   0.330265681
 0.031200000   0.314865758
 0.031250000   0.299322221
 0.031300000   0.283676144
 0.031350000   0.267927528
 0.031400000   0.252100489
 0.031450000   0.236156695
 0.031500000   0.220135458
 0.031550000   0.204036581
 0.031600000   0.187880945
 0.031650000   0.171636787
 0.031700000   0.155339007
 0.031750000   0.138987801
 0.031800000   0.122600324
 0.031850000   0.106151480
 0.031900000   0.089672080
 0.031950000   0.073162163
 0.032000000   0.056636287
 0.032050000   0.040074258
 0.032100000   0.023503847
 0.032150000   0.006925056
 0.032200000  -0.009648664
 0.032250000  -0.026235541
 0.032300000  -0.042808873
 0.032350000  -0.059368657
 0.032400000  -0.075900749
 0.032450000  -0.092424723
 0.032500000  -0.108912691
 0.032550000  -0.125364770
 0.032600000  -0.141764697
 0.032650000  -0.158135705
 0.032700000  -0.174447405
 0.032750000  -0.190699601
 0.032800000  -0.206873863
 0.032850000  -0.222997639
 0.032900000  -0.239037404
 0.032950000  -0.254993158
 0.033000000  -0.270844999
 0.033050000  -0.286622632
 0.033100000  -0.302290961
 0.033150000  -0.317849889
 0.033200000  -0.333280299
 0.033250000  -0.348610131
 0.033300000  -0.363805563
 0.033350000  -0.378866303
 0.033400000  -0.393777056
 0.033450000  -0.408558508
 0.033500000  -0.423181642
 0.033550000  -0.437646359
 0.033600000  -0.451943935
 0.033650000  -0.466082310
 0.033700000  -0.480041094
 0.033750000  -0.493820189
 0.033800000  -0.507420478
 0.033850000  -0.520832059
 0.033900000  -0.534046403
 0.033950000  -0.547063708
 0.034000000  -0.559896422
 0.034050000  -0.572512783
 0.034100000  -0.584918968
 0.034150000  -0.597115075
 0.034200000  -0.609126494
 0.034250000  -0.620897837
 0.034300000  -0.632450965
 0.034350000  -0.643786075
 0.034400000  -0.654940908
 0.034450000  -0.665837235
 0.034500000  -0.676512309
 0.034550000  -0.686966227
 0.034600000  -0.697248004
 0.034650000  -0.707259023
 0.034700000  -0.717050160
 0.034750000  -0.726621416
 0.034800000  -0.736031413
 0.034850000  -0.745164475
 0.034900000  -0.754083047
 0.034950000  -0.762787032
 0.035000000  -0.771341815
 0.035050000  -0.779619663
 0.035100000  -0.787691257
 0.035150000  -0.795556693
 0.035200000  -0.803285573
 0.035250000  -0.810742714
 0.035300000  -0.818004286
 0.035350000  -0.825070189
 0.035400000  -0.832011987
 0.035450000  -0.838691751
 0.035500000  -0.845187806
 0.035550000  -0.851500349
 0.035600000  -0.857700354
 0.035650000  -0.863651264
 0.035700000  -0.869431210
 0.035750000  -0.875040388
 0.035800000  -0.880547615
 0.035850000  -0.885820844
 0.035900000  -0.890936147
 0.035950000  -0.895893426
 0.036000000  -0.900758164
 0.036050000  -0.905405276
 0.036100000  -0.909907107
 0.036150000  -0.914263560
 0.036200000  -0.918535216
 0.036250000  -0.922606500
 0.036300000  -0.926544266
 0.036350000  -0.930348614
 0.036400000  -0.934074734
 0.036450000  -0.937617342
 0.036500000  -0.941037510
 0.036550000  -0.944335239
 0.036600000  -0.947559936
 0.036650000  -0.950617589
 0.036700000  -0.953562606
 0.036750000  -0.956395182
 0.036800000  -0.959158844
 0.036850000  -0.961770657
 0.036900000  -0.964278852
 0.036950000  -0.966683332
 0.037000000  -0.969021739
 0.037050000  -0.971222610
 0.037100000  -0.973327412
 0.037150000  -0.975336047
 0.037200000  -0.977280570
 0.037250000  -0.979100398
 0.037300000  -0.980830236
 0.037350000  -0.982471258
 0.037400000  -0.984048560
 0.037450000  -0.985512148
 0.037500000  -0.986892410
 0.037550000  -0.988187386
 0.037600000  -0.989418643
 0.037650000  -0.990547948
 0.037700000  -0.991596869
 0.037750000  -0.992564425
 0.037800000  -0.993468262
 0.037850000  -0.994277990
 0.037900000  -0.995010274
 0.037950000  -0.995665114
 0.038000000  -0.996254274
 0.038050000  -0.996756188
 0.038100000  -0.997182618
 0.038150000  -0.997533565
 0.038200000  -0.997814912
 0.038250000  -0.998016853
 0.038300000  -0.998143312
 0.038350000  -0.998196248
 0.038400000  -0.998174682
 0.038450000  -0.998078612
 0.038500000  -0.997908040
 0.038550000  -0.997661985
 0.038600000  -0.997337505
 0.038650000  -0.996942445
 0.038700000  -0.996470920
 0.038750000  -0.995923913
 0.038800000  -0.995291620
 0.038850000  -0.994591685
 0.038900000  -0.993814308
 0.038950000  -0.992957526
 0.039000000  -0.992007615
 0.039050000  -0.990993985
 0.039100000  -0.989897029
 0.039150000  -0.988719689
 0.039200000  -0.987439417
 0.039250000  -0.986096407
 0.039300000  -0.984666149
 0.039350000  -0.983149625
 0.039400000  -0.981522327
 0.039450000  -0.979830624
 0.039500000  -0.978046870
 0.039550000  -0.976170772
 0.039600000  -0.974172333
 0.039650000  -0.972109194
 0.039700000  -0.969946848
 0.039750000  -0.967685296
 0.039800000  -0.965288855
 0.039850000  -0.962825852
 0.039900000  -0.960255407
 0.039950000  -0.957577620
 0.040000000  -0.954751318
 0.040050000  -0.951855316
 0.040100000  -0.948842560
 0.040150000  -0.945713051
 0.040200000  -0.942420517
 0.040250000  -0.939053677
 0.040300000  -0.935559790
 0.040350000  -0.931938661
 0.040400000  -0.928139018
 0.040450000  -0.924259285
 0.040500000  -0.920240938
 0.040550000  -0.916084074
 0.040600000  -0.911732719
 0.040650000  -0.907293921
 0.040700000  -0.902704255
 0.040750000  -0.897963819
 0.040800000  -0.893013011
 0.040850000  -0.887965740
 0.040900000  -0.882754956
 0.040950000  -0.877380560
 0.041000000  -0.871780597
 0.041050000  -0.866073585
 0.041100000  -0.860190119
 0.041150000  -0.854130101
 0.041200000  -0.847830988
 0.041250000  -0.841412475
 0.041300000  -0.834804960
 0.041350000  -0.828008344
 0.041400000  -0.820961360
 0.041450000  -0.813781350
 0.041500000  -0.806400770
 0.041550000  -0.798819719
 0.041600000  -0.790980065
 0.041650000  -0.782992973
 0.041700000  -0.774795509
 0.041750000  -0.766387673
 0.041800000  -0.757717509
 0.041850000  -0.748884909
 0.041900000  -0.739834878
 0.041950000  -0.730567221
 0.042000000  -0.721038412
 0.042050000  -0.711332855
 0.042100000  -0.701405946
 0.042150000  -0.691257686
 0.042200000  -0.680854939
 0.042250000  -0.670262701
 0.042300000  -0.659449601
 0.042350000  -0.648415541
 0.042400000  -0.637139054
 0.042450000  -0.625663565
 0.042500000  -0.613972214
 0.042550000  -0.602065100
 0.042600000  -0.589932908
 0.042650000  -0.577596520
 0.042700000  -0.565054367
 0.042750000  -0.552306352
 0.042800000  -0.539355120
 0.042850000  -0.526200181
 0.042900000  -0.512854182
 0.042950000  -0.499317319
 0.043000000  -0.485601845
 0.043050000  -0.471689723
 0.043100000  -0.457605657
 0.043150000  -0.443349646
 0.043200000  -0.428941590
 0.043250000  -0.414350218
 0.043300000  -0.399609449
 0.043350000  -0.384719085
 0.043400000  -0.369702950
 0.043450000  -0.354523300
 0.043500000  -0.339218466
 0.043550000  -0.323788545
 0.043600000  -0.308258340
 0.043650000  -0.292588737
 0.043700000  -0.276819241
 0.043750000  -0.260950048
 0.043800000  -0.245004000
 0.043850000  -0.228945707
 0.043900000  -0.212812520
 0.043950000  -0.196604535
 0.044000000  -0.180341752
 0.044050000  -0.163994369
 0.044100000  -0.147596403
 0.044150000  -0.131147559
 0.044200000  -0.114664600
 0.044250000  -0.098124196
 0.044300000  -0.081555873
 0.044350000  -0.064959798
 0.044400000  -0.048350194
 0.044450000  -0.031707898
 0.044500000  -0.015059994
 0.044550000   0.001593526
 0.044600000   0.018239068
 0.044650000   0.034894667
 0.044700000   0.051533836
 0.044750000   0.068156556
 0.044800000   0.084748132
 0.044850000   0.101328698
 0.044900000   0.117870279
 0.044950000   0.134372745
 0.045000000   0.150819041
 0.045050000   0.167233672
 0.045100000   0.183585564
 0.045150000   0.199874620
 0.045200000   0.216081428
 0.045250000   0.232234711
 0.045300000   0.248300454
 0.045350000   0.264278558
 0.045400000   0.280148045
 0.045450000   0.295940088
 0.045500000   0.311619103
 0.045550000   0.327184990
 0.045600000   0.342617656
 0.045650000   0.357946409
 0.045700000   0.373136744
 0.045750000   0.388188857
 0.045800000   0.403086278
 0.045850000   0.417850967
 0.045900000   0.432453612
 0.045950000   0.446894116
 0.046000000   0.461163361
 0.046050000   0.475269975
 0.046100000   0.489193468
 0.046150000   0.502933940
 0.046200000   0.516492173
 0.046250000   0.529858170
 0.046300000   0.543023990
 0.046350000   0.555989730
 0.046400000   0.568767939
 0.046450000   0.581326856
 0.046500000   0.593673144
 0.046550000   0.605806904
 0.046600000   0.617753525
 0.046650000   0.629457620
 0.046700000   0.640941735
 0.046750000   0.652205675
 0.046800000   0.663287671
 0.046850000   0.674109300
 0.046900000   0.684708302
 0.046950000   0.695084678
 0.047000000   0.705287640
 0.047050000   0.715218666
 0.047100000   0.724928928
 0.047150000   0.734418427
 0.047200000   0.743745589
 0.047250000   0.752795325
 0.047300000   0.761630082
 0.047350000   0.770249761
 0.047400000   0.778719356
 0.047450000   0.786912114
 0.047500000   0.794898617
 0.047550000   0.802678669
 0.047600000   0.810321480
 0.047650000   0.817693139
 0.047700000   0.824869326
 0.047750000   0.831849944
 0.047800000   0.838705671
 0.047850000   0.845300246
 0.047900000   0.851711506
 0.047950000   0.857939351
 0.048000000   0.864053873
 0.048050000   0.869920576
 0.048100000   0.875616609
 0.048150000   0.881142069
 0.048200000   0.886564696
 0.048250000   0.891754796
 0.048300000   0.896787165
 0.048350000   0.901661706
 0.048400000   0.906442727
 0.048450000   0.911007591
 0.048500000   0.915427372
 0.048550000   0.919701773
 0.048600000   0.923890399
 0.048650000   0.927879925
 0.048700000   0.931736033
 0.048750000   0.935458722
 0.048800000   0.939101908
 0.048850000   0.942562857
 0.048900000   0.945901170
 0.048950000   0.949116946
 0.049000000   0.952258317
 0.049050000   0.955233625
 0.049100000   0.958096003
 0.049150000   0.960845646
 0.049200000   0.963524806
 0.049250000   0.966052999
 0.049300000   0.968476986
 0.049350000   0.970796768
 0.049400000   0.973048713
 0.049450000   0.975163808
 0.049500000   0.977181952
 0.049550000   0.979103339
 0.049600000   0.980958655
 0.049650000   0.982689864
 0.049700000   0.984329906
 0.049750000   0.985879760
 0.049800000   0.987363934
 0.049850000   0.988735374
 0.049900000   0.990021527
 0.049950000   0.991221414
 0.050000000   0.992355621
 0.050050000   0.993386897
 0.050100000   0.994336808
 0.050150000   0.995204373
 0.050200000   0.996005278
 0.050250000   0.996712074
 0.050300000   0.997339466
 0.050350000   0.997888434
 0.050400000   0.998366820
 0.050450000   0.998759921
 0.050500000   0.999074597
 0.050550000   0.999312810
 0.050600000   0.999477500
 0.050650000   0.999561806
 0.050700000   0.999569648
 0.050750000   0.999501027
 0.050800000   0.999355943
 0.050850000   0.999134395
 0.050900000   0.998836384
 0.050950000   0.998461909
 0.051000000   0.998005090
 0.051050000   0.997475728
 0.051100000   0.996868922
 0.051150000   0.996183693
 0.051200000   0.995410236
 0.051250000   0.994567178
 0.051300000   0.993644716
 0.051350000   0.992640889
 0.051400000   0.991540992
 0.051450000   0.990375416
 0.051500000   0.989124553
 0.051550000   0.987790365
 0.051600000   0.986352265
 0.051650000   0.984848485
 0.051700000   0.983255498
 0.051750000   0.981574283
 0.051800000   0.979781119
 0.051850000   0.977921098
 0.051900000   0.975967066
 0.051950000   0.973919121
 0.052000000   0.971749129
 0.052050000   0.969511105
 0.052100000   0.967172894
 0.052150000   0.964734398
 0.052200000   0.962163267
 0.052250000   0.959521751
 0.052300000   0.956772794
 0.052350000   0.953916396
 0.052400000   0.950916384
 0.052450000   0.947842164
 0.052500000   0.944652758
 0.052550000   0.941347971
 0.052600000   0.937888199
 0.052650000   0.934349610
 0.052700000   0.930687112
 0.052750000   0.926900900
 0.052800000   0.922948722
 0.052850000   0.918911357
 0.052900000   0.914741456
 0.052950000   0.910439116
 0.053000000   0.905960517
 0.053050000   0.901389379
 0.053100000   0.896676881
 0.053150000   0.891823123
 0.053200000   0.886784675
 0.053250000   0.881644767
 0.053300000   0.876355363
 0.053350000   0.870916365
 0.053400000   0.865286502
 0.053450000   0.859545180
 0.053500000   0.853647108
 0.053550000   0.847592481
 0.053600000   0.841344148
 0.053650000   0.834973277
 0.053700000   0.828440461
 0.053750000   0.821745698
 0.053800000   0.814858700
 0.053850000   0.807837890
 0.053900000   0.800652292
 0.053950000   0.793302003
 0.054000000   0.785766536
 0.054050000   0.778085886
 0.054100000   0.770241232
 0.054150000   0.762232672
 0.054200000   0.754052168
 0.054250000   0.745716384
 0.054300000   0.737221791
 0.054350000   0.728568390
 0.054400000   0.719762944
 0.054450000   0.710794670
 0.054500000   0.701677881
 0.054550000   0.692412675
 0.054600000   0.683022186
 0.054650000   0.673465144
 0.054700000   0.663775762
 0.054750000   0.653954138
 0.054800000   0.644040561
 0.054850000   0.633962098
 0.054900000   0.623773547
 0.054950000   0.613475006
 0.055000000   0.603123333
 0.055050000   0.592615303
 0.055100000   0.582025515
 0.055150000   0.571353971
 0.055200000   0.560671839
 0.055250000   0.549849916
 0.055300000   0.538979861
 0.055350000   0.528061575
 0.055400000   0.517176423
 0.055450000   0.506177164
 0.055500000   0.495167318
 0.055550000   0.484146884
 0.055600000   0.473201934
 0.055650000   0.462177285
 0.055700000   0.451181653
 0.055750000   0.440215333
 0.055800000   0.429363021
 0.055850000   0.418472673
 0.055900000   0.407651241
 0.055950000   0.396898821
 0.056000000   0.386292565
 0.056050000   0.375695523
 0.056100000   0.365204941
 0.056150000   0.354820723
 0.056200000   0.344606390
 0.056250000   0.334451169
 0.056300000   0.324435249
 0.056350000   0.314558532
 0.056400000   0.304866111
 0.056450000   0.295281817
 0.056500000   0.285863389
 0.056550000   0.276610633
 0.056600000   0.267546976
 0.056650000   0.258636540
 0.056700000   0.249910793
 0.056750000   0.241369538
 0.056800000   0.233013658
 0.056850000   0.224848936
 0.056900000   0.216879588
 0.056950000   0.209105614
 0.057000000   0.201506329
 0.057050000   0.194126827
 0.057100000   0.186945738
 0.057150000   0.179963160
 0.057200000   0.173139783
 0.057250000   0.166554324
 0.057300000   0.160163651
 0.057350000   0.153967666
 0.057400000   0.147912451
 0.057450000   0.142103292
 0.057500000   0.136479704
 0.057550000   0.131041686
 0.057600000   0.125725030
 0.057650000   0.120653252
 0.057700000   0.115754007
 0.057750000   0.111027197
 0.057800000   0.106402829
 0.057850000   0.102014516
 0.057900000   0.097783238
 0.057950000   0.093708896
 0.058000000   0.089719781
 0.058050000   0.085952126
 0.058100000   0.082324811
 0.058150000   0.078837845
 0.058200000   0.075420990
 0.058250000   0.072207175
 0.058300000   0.069117034
 0.058350000   0.066150549
 0.058400000   0.063241322
 0.058450000   0.060514746
 0.058500000   0.057895825
 0.058550000   0.055384562
 0.058600000   0.052919882
 0.058650000   0.050616903
 0.058700000   0.048406738
 0.058750000   0.046289369
 0.058800000   0.044209868
 0.058850000   0.042271669
 0.058900000   0.040412843
 0.058950000   0.038633374
 0.059000000   0.036884705
 0.059050000   0.035258211
 0.059100000   0.033699152
 0.059150000   0.032207557
 0.059200000   0.030741038
 0.059250000   0.029379255
 0.059300000   0.028074485
 0.059350000   0.026826750
 0.059400000   0.025599522
 0.059450000   0.024461423
 0.059500000   0.023371369
 0.059550000   0.022329330
 0.059600000   0.021304083
 0.059650000   0.020354310
 0.059700000   0.019444856
 0.059750000   0.018575732
 0.059800000   0.017720381
 0.059850000   0.016928652
 0.059900000   0.016170694
 0.059950000   0.015446507
 0.060000000   0.014733662
 0.060050000   0.014074264
 0.060100000   0.013443098
 0.060150000   0.012840154
 0.060200000   0.012246553
 0.060250000   0.011697742
 0.060300000   0.011172497
 0.060350000   0.010670800
 0.060400000   0.010176826
 0.060450000   0.009720306
 0.060500000   0.009283424
 0.060550000   0.008866180
 0.060600000   0.008455312
 0.060650000   0.008075718
 0.060700000   0.007712481
 0.060750000   0.007365598
 0.060800000   0.007023991
 0.060850000   0.006708463
 0.060900000   0.006406547
 0.060950000   0.006118244
 0.061000000   0.005834308
 0.061050000   0.005572099
 0.061100000   0.005321213
 0.061150000   0.005081650
 0.061200000   0.004845704
 0.061250000   0.004627847
 0.061300000   0.004419404
 0.061350000   0.004220375
 0.061400000   0.004024345
 0.061450000   0.003843364
 0.061500000   0.003670208
 0.061550000   0.003504878
 0.061600000   0.003342033
 0.061650000   0.003191705
 0.061700000   0.003047879
 0.061750000   0.002910555
 0.061800000   0.002775293
 0.061850000   0.002650436
 0.061900000   0.002530982
 0.061950000   0.002416931
 0.062000000   0.002304588
 0.062050000   0.002200895
 0.062100000   0.002101689
 0.062150000   0.002006972
 0.062200000   0.001913672
 0.062250000   0.001827559
 0.062300000   0.001745174
 0.062350000   0.001666517
 0.062400000   0.001589035
 0.062450000   0.001517525
 0.062500000   0.001449112
 0.062550000   0.001383793
 0.062600000   0.001319450
 0.062650000   0.001260070
 0.062700000   0.001203259
 0.062750000   0.001149020
 0.062800000   0.001095590
 0.062850000   0.001046282
 0.062900000   0.000999108
 0.062950000   0.000954070
 0.063000000   0.000909702
 0.063050000   0.000868759
 0.063100000   0.000829588
 0.063150000   0.000792190
 0.063200000   0.000755349
 0.063250000   0.000721352
 0.063300000   0.000688826
 0.063350000   0.000657773
 0.063400000   0.000627182
 0.063450000   0.000598953
 0.063500000   0.000571946
 0.063550000   0.000546161
 0.063600000   0.000520760
 0.063650000   0.000497321
 0.063700000   0.000474896
 0.063750000   0.000453486
 0.063800000   0.000432394
 0.063850000   0.000412932
 0.063900000   0.000394313
 0.063950000   0.000376536
 0.064000000   0.000359022
 0.064050000   0.000342862
 0.064100000   0.000327402
 0.064150000   0.000312641
 0.064200000   0.000298099
 0.064250000   0.000284681
 0.064300000   0.000271844
 0.064350000   0.000259588
 0.064400000   0.000247513
 0.064450000   0.000236372
 0.064500000   0.000225714
 0.064550000   0.000215537
 0.064600000   0.000205511
 0.064650000   0.000196260
 0.064700000   0.000187410
 0.064750000   0.000178960
 0.064800000   0.000170635
 0.064850000   0.000162954
 0.064900000   0.000155605
 0.064950000   0.000148589
 0.065000000   0.000141676
 0.065050000   0.000135299
 0.065100000   0.000129197
 0.065150000   0.000123371
 0.065200000   0.000117631
 0.065250000   0.000112335
 0.065300000   0.000107269
 0.065350000   0.000102431
 0.065400000   0.000097665
 0.065450000   0.000093268
 0.065500000   0.000089060
 0.065550000   0.000085043
 0.065600000   0.000081085
 0.065650000   0.000077434
 0.065700000   0.000073941
 0.065750000   0.000070605
 0.065800000   0.000067318
 0.065850000   0.000064286
 0.065900000   0.000061385
 0.065950000   0.000058615
 0.066000000   0.000055885
 0.066050000   0.000053367
 0.066100000   0.000050958
 0.066150000   0.000048657
 0.066200000   0.000046390
 0.066250000   0.000044299
 0.066300000   0.000042298
 0.066350000   0.000040387
 0.066400000   0.000038504
 0.066450000   0.000036767
 0.066500000   0.000035104
 0.066550000   0.000033517
 0.066600000   0.000031953
 0.066650000   0.000030509
 0.066700000   0.000029128
 0.066750000   0.000027809
 0.066800000   0.000026509
 0.066850000   0.000025310
 0.066900000   0.000024162
 0.066950000   0.000023066
 0.067000000   0.000021986
 0.067050000   0.000020989
 0.067100000   0.000020034
 0.067150000   0.000019123
 0.067200000   0.000018224
 0.067250000   0.000017395
 0.067300000   0.000016601
 0.067350000   0.000015842
 0.067400000   0.000015095
 0.067450000   0.000014404
 0.067500000   0.000013743
 0.067550000   0.000013111
 0.067600000   0.000012488
 0.067650000   0.000011913
 0.067700000   0.000011362
 0.067750000   0.000010835
 0.067800000   0.000010315
 0.067850000   0.000009835
 0.067900000   0.000009375
 0.067950000   0.000008934
 0.068000000   0.000008500
 0.068050000   0.000008098
 0.068100000   0.000007712
 0.068150000   0.000007343
 0.068200000   0.000006979
 0.068250000   0.000006642
 0.068300000   0.000006318
 0.068350000   0.000006007
 0.068400000   0.000005700
 0.068450000   0.000005415
 0.068500000   0.000005142
 0.068550000   0.000004879
 0.068600000   0.000004619
 0.068650000   0.000004377
 0.068700000   0.000004144
 0.068750000   0.000003920
 0.068800000   0.000003698
 0.068850000   0.000003491
 0.068900000   0.000003291
 0.068950000   0.000003097
 0.069000000   0.000002905
 0.069050000   0.000002725
 0.069100000   0.000002551
 0.069150000   0.000002382
 0.069200000   0.000002213
 0.069250000   0.000002054
 0.069300000   0.000001900
 0.069350000   0.000001749
 0.069400000   0.000001672
 0.069450000   0.000001532
 0.069500000   0.000001393
 0.069550000   0.000001254
 0.069600000   0.000001079
 0.069650000   0.000000944
 0.069700000   0.000000809
 0.069750000   0.000000674
 0.069800000   0.000000526
 0.069850000   0.000000395
 0.069900000   0.000000263
 0.069950000   0.000000132
 0.070000000   0.000000000
