 -0.19950000    0.00001155
 -0.19900000    0.00002310
 -0.19850000    0.00003466
 -0.19800000    0.00004623
 -0.19750000    0.00005782
 -0.19700000    0.00006943
 -0.19650000    0.00008107
 -0.19600000    0.00009274
 -0.19550000    0.00010444
 -0.19500000    0.00011649
 -0.19450000    0.00012825
 -0.19400000    0.00014008
 -0.19350000    0.00015198
 -0.19300000    0.00016378
 -0.19250000    0.00017576
 -0.19200000    0.00018794
 -0.19150000    0.00020015
 -0.19100000    0.00021243
 -0.19050000    0.00022478
 -0.19000000    0.00023698
 -0.18950000    0.00024948
 -0.18900000    0.00026201
 -0.18850000    0.00027455
 -0.18800000    0.00028709
 -0.18750000    0.00029949
 -0.18700000    0.00031197
 -0.18650000    0.00032446
 -0.18600000    0.00033692
 -0.18550000    0.00034936
 -0.18500000    0.00036177
 -0.18450000    0.00037420
 -0.18400000    0.00038662
 -0.18350000    0.00039904
 -0.18300000    0.00041149
 -0.18250000    0.00042402
 -0.18200000    0.00043667
 -0.18150000    0.00044928
 -0.18100000    0.00046197
 -0.18050000    0.00047474
 -0.18000000    0.00048756
 -0.17950000    0.00050047
 -0.17900000    0.00051345
 -0.17850000    0.00052649
 -0.17800000    0.00053957
 -0.17750000    0.00055258
 -0.17700000    0.00056559
 -0.17650000    0.00057869
 -0.17600000    0.00059179
 -0.17550000    0.00060486
 -0.17500000    0.00061786
 -0.17450000    0.00063094
 -0.17400000    0.00064403
 -0.17350000    0.00065713
 -0.17300000    0.00067027
 -0.17250000    0.00068357
 -0.17200000    0.00069693
 -0.17150000    0.00071030
 -0.17100000    0.00072378
 -0.17050000    0.00073739
 -0.17000000    0.00075120
 -0.16950000    0.00076499
 -0.16900000    0.00077890
 -0.16850000    0.00079291
 -0.16800000    0.00080700
 -0.16750000    0.00082104
 -0.16700000    0.00083531
 -0.16650000    0.00084957
 -0.16600000    0.00086388
 -0.16550000    0.00087822
 -0.16500000    0.00089259
 -0.16450000    0.00090708
 -0.16400000    0.00092162
 -0.16350000    0.00093623
 -0.16300000    0.00095091
 -0.16250000    0.00096574
 -0.16200000    0.00098046
 -0.16150000    0.00099538
 -0.16100000    0.00101039
 -0.16050000    0.00102547
 -0.16000000    0.00104061
 -0.15950000    0.00105589
 -0.15900000    0.00107125
 -0.15850000    0.00108668
 -0.15800000    0.00110220
 -0.15750000    0.00111779
 -0.15700000    0.00113367
 -0.15650000    0.00114953
 -0.15600000    0.00116551
 -0.15550000    0.00118165
 -0.15500000    0.00119784
 -0.15450000    0.00121416
 -0.15400000    0.00123060
 -0.15350000    0.00124716
 -0.15300000    0.00126381
 -0.15250000    0.00128045
 -0.15200000    0.00129724
 -0.15150000    0.00131407
 -0.15100000    0.00133094
 -0.15050000    0.00134784
 -0.15000000    0.00136506
 -0.14950000    0.00138224
 -0.14900000    0.00139953
 -0.14850000    0.00141694
 -0.14800000    0.00143451
 -0.14750000    0.00145243
 -0.14700000    0.00147014
 -0.14650000    0.00148825
 -0.14600000    0.00150655
 -0.14550000    0.00152503
 -0.14500000    0.00154329
 -0.14450000    0.00156208
 -0.14400000    0.00158099
 -0.14350000    0.00159999
 -0.14300000    0.00161909
 -0.14250000    0.00163814
 -0.14200000    0.00165771
 -0.14150000    0.00167715
 -0.14100000    0.00169673
 -0.14050000    0.00171646
 -0.14000000    0.00173677
 -0.13950000    0.00175678
 -0.13900000    0.00177702
 -0.13850000    0.00179748
 -0.13800000    0.00181814
 -0.13750000    0.00183899
 -0.13700000    0.00185996
 -0.13650000    0.00188116
 -0.13600000    0.00190252
 -0.13550000    0.00192401
 -0.13500000    0.00194537
 -0.13450000    0.00196723
 -0.13400000    0.00198923
 -0.13350000    0.00201136
 -0.13300000    0.00203365
 -0.13250000    0.00205618
 -0.13200000    0.00207887
 -0.13150000    0.00210175
 -0.13100000    0.00212485
 -0.13050000    0.00214819
 -0.13000000    0.00217184
 -0.12950000    0.00219566
 -0.12900000    0.00221973
 -0.12850000    0.00224403
 -0.12800000    0.00226857
 -0.12750000    0.00229328
 -0.12700000    0.00231823
 -0.12650000    0.00234340
 -0.12600000    0.00236877
 -0.12550000    0.00239434
 -0.12500000    0.00242023
 -0.12450000    0.00244637
 -0.12400000    0.00247276
 -0.12350000    0.00249941
 -0.12300000    0.00252632
 -0.12250000    0.00255368
 -0.12200000    0.00258089
 -0.12150000    0.00260867
 -0.12100000    0.00263675
 -0.12050000    0.00266512
 -0.12000000    0.00269354
 -0.11950000    0.00272248
 -0.11900000    0.00275168
 -0.11850000    0.00278114
 -0.11800000    0.00281086
 -0.11750000    0.00284081
 -0.11700000    0.00287143
 -0.11650000    0.00290211
 -0.11600000    0.00293316
 -0.11550000    0.00296461
 -0.11500000    0.00299665
 -0.11450000    0.00302869
 -0.11400000    0.00306114
 -0.11350000    0.00309399
 -0.11300000    0.00312722
 -0.11250000    0.00316061
 -0.11200000    0.00319485
 -0.11150000    0.00322914
 -0.11100000    0.00326379
 -0.11050000    0.00329878
 -0.11000000    0.00333415
 -0.10950000    0.00336997
 -0.10900000    0.00340619
 -0.10850000    0.00344284
 -0.10800000    0.00347992
 -0.10750000    0.00351752
 -0.10700000    0.00355528
 -0.10650000    0.00359368
 -0.10600000    0.00363252
 -0.10550000    0.00367179
 -0.10500000    0.00371133
 -0.10450000    0.00375169
 -0.10400000    0.00379251
 -0.10350000    0.00383380
 -0.10300000    0.00387559
 -0.10250000    0.00391799
 -0.10200000    0.00396062
 -0.10150000    0.00400400
 -0.10100000    0.00404793
 -0.10050000    0.00409244
 -0.10000000    0.00413760
 -0.09950000    0.00418333
 -0.09900000    0.00422966
 -0.09850000    0.00427660
 -0.09800000    0.00432416
 -0.09750000    0.00437236
 -0.09700000    0.00442121
 -0.09650000    0.00447071
 -0.09600000    0.00452090
 -0.09550000    0.00457178
 -0.09500000    0.00462326
 -0.09450000    0.00467551
 -0.09400000    0.00472847
 -0.09350000    0.00478217
 -0.09300000    0.00483660
 -0.09250000    0.00489176
 -0.09200000    0.00494761
 -0.09150000    0.00500429
 -0.09100000    0.00506175
 -0.09050000    0.00512001
 -0.09000000    0.00517885
 -0.08950000    0.00523864
 -0.08900000    0.00529927
 -0.08850000    0.00536076
 -0.08800000    0.00542314
 -0.08750000    0.00548657
 -0.08700000    0.00555074
 -0.08650000    0.00561591
 -0.08600000    0.00568207
 -0.08550000    0.00574924
 -0.08500000    0.00581788
 -0.08450000    0.00588720
 -0.08400000    0.00595765
 -0.08350000    0.00602928
 -0.08300000    0.00610211
 -0.08250000    0.00617627
 -0.08200000    0.00625165
 -0.08150000    0.00632829
 -0.08100000    0.00640626
 -0.08050000    0.00648560
 -0.08000000    0.00656609
 -0.07950000    0.00664824
 -0.07900000    0.00673181
 -0.07850000    0.00681681
 -0.07800000    0.00690327
 -0.07750000    0.00699113
 -0.07700000    0.00708032
 -0.07650000    0.00717126
 -0.07600000    0.00726374
 -0.07550000    0.00735780
 -0.07500000    0.00745329
 -0.07450000    0.00755056
 -0.07400000    0.00764955
 -0.07350000    0.00775029
 -0.07300000    0.00785285
 -0.07250000    0.00795746
 -0.07200000    0.00806392
 -0.07150000    0.00817234
 -0.07100000    0.00828285
 -0.07050000    0.00839552
 -0.07000000    0.00851051
 -0.06950000    0.00862759
 -0.06900000    0.00874701
 -0.06850000    0.00886884
 -0.06800000    0.00899312
 -0.06750000    0.00911999
 -0.06700000    0.00924889
 -0.06650000    0.00938075
 -0.06600000    0.00951523
 -0.06550000    0.00965242
 -0.06500000    0.00979184
 -0.06450000    0.00993459
 -0.06400000    0.01008025
 -0.06350000    0.01022891
 -0.06300000    0.01038070
 -0.06250000    0.01053613
 -0.06200000    0.01069417
 -0.06150000    0.01085594
 -0.06100000    0.01102127
 -0.06050000    0.01119030
 -0.06000000    0.01136323
 -0.05950000    0.01153982
 -0.05900000    0.01172047
 -0.05850000    0.01190527
 -0.05800000    0.01209436
 -0.05750000    0.01228814
 -0.05700000    0.01248602
 -0.05650000    0.01268866
 -0.05600000    0.01289612
 -0.05550000    0.01310853
 -0.05500000    0.01332583
 -0.05450000    0.01354868
 -0.05400000    0.01377700
 -0.05350000    0.01401092
 -0.05300000    0.01425064
 -0.05250000    0.01449684
 -0.05200000    0.01474760
 -0.05150000    0.01500565
 -0.05100000    0.01527019
 -0.05050000    0.01554141
 -0.05000000    0.01581842
 -0.04950000    0.01610349
 -0.04900000    0.01639585
 -0.04850000    0.01669578
 -0.04800000    0.01700356
 -0.04750000    0.01732025
 -0.04700000    0.01764434
 -0.04650000    0.01797755
 -0.04600000    0.01831995
 -0.04550000    0.01867187
 -0.04500000    0.01903379
 -0.04450000    0.01940535
 -0.04400000    0.01978752
 -0.04350000    0.02018062
 -0.04300000    0.02058500
 -0.04250000    0.02100171
 -0.04200000    0.02142837
 -0.04150000    0.02186863
 -0.04100000    0.02232167
 -0.04050000    0.02278794
 -0.04000000    0.02326624
 -0.03950000    0.02375988
 -0.03900000    0.02426815
 -0.03850000    0.02479160
 -0.03800000    0.02533082
 -0.03750000    0.02588776
 -0.03700000    0.02645902
 -0.03650000    0.02704916
 -0.03600000    0.02765768
 -0.03550000    0.02828527
 -0.03500000    0.02893182
 -0.03450000    0.02959878
 -0.03400000    0.03028701
 -0.03350000    0.03099727
 -0.03300000    0.03173032
 -0.03250000    0.03248867
 -0.03200000    0.03326679
 -0.03150000    0.03407291
 -0.03100000    0.03490522
 -0.03050000    0.03576470
 -0.03000000    0.03665000
 -0.02950000    0.03756552
 -0.02900000    0.03851127
 -0.02850000    0.03948837
 -0.02800000    0.04049806
 -0.02750000    0.04154416
 -0.02700000    0.04261937
 -0.02650000    0.04373417
 -0.02600000    0.04488681
 -0.02550000    0.04607876
 -0.02500000    0.04730789
 -0.02450000    0.04857978
 -0.02400000    0.04989517
 -0.02350000    0.05125558
 -0.02300000    0.05266254
 -0.02250000    0.05412098
 -0.02200000    0.05562159
 -0.02150000    0.05717759
 -0.02100000    0.05878698
 -0.02050000    0.06045166
 -0.02000000    0.06217063
 -0.01950000    0.06394855
 -0.01900000    0.06578772
 -0.01850000    0.06769016
 -0.01800000    0.06965797
 -0.01750000    0.07169941
 -0.01700000    0.07379731
 -0.01650000    0.07597351
 -0.01600000    0.07822386
 -0.01550000    0.08055074
 -0.01500000    0.08295126
 -0.01450000    0.08543491
 -0.01400000    0.08800219
 -0.01350000    0.09065553
 -0.01300000    0.09339747
 -0.01250000    0.09623842
 -0.01200000    0.09915575
 -0.01150000    0.10217795
 -0.01100000    0.10529897
 -0.01050000    0.10852159
 -0.01000000    0.11184310
 -0.00950000    0.11527202
 -0.00900000    0.11881023
 -0.00850000    0.12246004
 -0.00800000    0.12622414
 -0.00750000    0.13011475
 -0.00700000    0.13410355
 -0.00650000    0.13822424
 -0.00600000    0.14246894
 -0.00550000    0.14684003
 -0.00500000    0.15133562
 -0.00450000    0.15596070
 -0.00400000    0.16071858
 -0.00350000    0.16561116
 -0.00300000    0.17064033
 -0.00250000    0.17581930
 -0.00200000    0.18111417
 -0.00150000    0.18656164
 -0.00100000    0.19215170
 -0.00050000    0.19788565
  0.00000000    0.20376321
  0.00050000    0.20978176
  0.00100000    0.21594650
  0.00150000    0.22225764
  0.00200000    0.22871538
  0.00250000    0.23533112
  0.00300000    0.24206855
  0.00350000    0.24896268
  0.00400000    0.25600130
  0.00450000    0.26318332
  0.00500000    0.27051014
  0.00550000    0.27796895
  0.00600000    0.28556616
  0.00650000    0.29329937
  0.00700000    0.30116587
  0.00750000    0.30917277
  0.00800000    0.31728687
  0.00850000    0.32553356
  0.00900000    0.33390015
  0.00950000    0.34238224
  0.01000000    0.35098383
  0.01050000    0.35967921
  0.01100000    0.36847609
  0.01150000    0.37736907
  0.01200000    0.38635234
  0.01250000    0.39542581
  0.01300000    0.40456679
  0.01350000    0.41378356
  0.01400000    0.42306552
  0.01450000    0.43240579
  0.01500000    0.44181035
  0.01550000    0.45124402
  0.01600000    0.46071488
  0.01650000    0.47021534
  0.01700000    0.47973771
  0.01750000    0.48927517
  0.01800000    0.49881893
  0.01850000    0.50836079
  0.01900000    0.51789375
  0.01950000    0.52741001
  0.02000000    0.53691498
  0.02050000    0.54637684
  0.02100000    0.55580000
  0.02150000    0.56517707
  0.02200000    0.57450104
  0.02250000    0.58376081
  0.02300000    0.59296318
  0.02350000    0.60208705
  0.02400000    0.61113122
  0.02450000    0.62008970
  0.02500000    0.62896648
  0.02550000    0.63774056
  0.02600000    0.64641284
  0.02650000    0.65497843
  0.02700000    0.66343281
  0.02750000    0.67176451
  0.02800000    0.67998650
  0.02850000    0.68809080
  0.02900000    0.69606240
  0.02950000    0.70390480
  0.03000000    0.71162031
  0.03050000    0.71920262
  0.03100000    0.72664903
  0.03150000    0.73395795
  0.03200000    0.74112797
  0.03250000    0.74814880
  0.03300000    0.75503992
  0.03350000    0.76179776
  0.03400000    0.76840549
  0.03450000    0.77487143
  0.03500000    0.78119657
  0.03550000    0.78738582
  0.03600000    0.79343446
  0.03650000    0.79934352
  0.03700000    0.80510467
  0.03750000    0.81073763
  0.03800000    0.81623579
  0.03850000    0.82160866
  0.03900000    0.82683913
  0.03950000    0.83193830
  0.04000000    0.83690608
  0.04050000    0.84175356
  0.04100000    0.84647524
  0.04150000    0.85107332
  0.04200000    0.85554141
  0.04250000    0.85989890
  0.04300000    0.86414020
  0.04350000    0.86827619
  0.04400000    0.87229089
  0.04450000    0.87619570
  0.04500000    0.87998900
  0.04550000    0.88368571
  0.04600000    0.88727922
  0.04650000    0.89077223
  0.04700000    0.89415995
  0.04750000    0.89745886
  0.04800000    0.90066438
  0.04850000    0.90378661
  0.04900000    0.90681283
  0.04950000    0.90975226
  0.05000000    0.91260268
  0.05050000    0.91537942
  0.05100000    0.91807595
  0.05150000    0.92069438
  0.05200000    0.92323172
  0.05250000    0.92570046
  0.05300000    0.92809730
  0.05350000    0.93043074
  0.05400000    0.93269088
  0.05450000    0.93488513
  0.05500000    0.93701127
  0.05550000    0.93908212
  0.05600000    0.94109237
  0.05650000    0.94304362
  0.05700000    0.94493398
  0.05750000    0.94677283
  0.05800000    0.94855779
  0.05850000    0.95029544
  0.05900000    0.95197810
  0.05950000    0.95361146
  0.06000000    0.95519432
  0.06050000    0.95673558
  0.06100000    0.95823164
  0.06150000    0.95968381
  0.06200000    0.96109037
  0.06250000    0.96245864
  0.06300000    0.96378671
  0.06350000    0.96507947
  0.06400000    0.96633114
  0.06450000    0.96754601
  0.06500000    0.96872318
  0.06550000    0.96986925
  0.06600000    0.97098143
  0.06650000    0.97206080
  0.06700000    0.97310597
  0.06750000    0.97412255
  0.06800000    0.97510902
  0.06850000    0.97606940
  0.06900000    0.97699858
  0.06950000    0.97790005
  0.07000000    0.97877373
  0.07050000    0.97962381
  0.07100000    0.98044829
  0.07150000    0.98124807
  0.07200000    0.98202185
  0.07250000    0.98277413
  0.07300000    0.98350351
  0.07350000    0.98421279
  0.07400000    0.98489848
  0.07450000    0.98556296
  0.07500000    0.98620584
  0.07550000    0.98683103
  0.07600000    0.98743661
  0.07650000    0.98802300
  0.07700000    0.98858939
  0.07750000    0.98913897
  0.07800000    0.98967116
  0.07850000    0.99018765
  0.07900000    0.99068583
  0.07950000    0.99116752
  0.08000000    0.99163211
  0.08050000    0.99208290
  0.08100000    0.99251839
  0.08150000    0.99293878
  0.08200000    0.99334297
  0.08250000    0.99373416
  0.08300000    0.99411135
  0.08350000    0.99447554
  0.08400000    0.99482523
  0.08450000    0.99516152
  0.08500000    0.99548401
  0.08550000    0.99579501
  0.08600000    0.99609330
  0.08650000    0.99637919
  0.08700000    0.99665188
  0.08750000    0.99691358
  0.08800000    0.99716377
  0.08850000    0.99740296
  0.08900000    0.99763016
  0.08950000    0.99784615
  0.09000000    0.99805065
  0.09050000    0.99824484
  0.09100000    0.99842824
  0.09150000    0.99860093
  0.09200000    0.99876223
  0.09250000    0.99891403
  0.09300000    0.99905562
  0.09350000    0.99918782
  0.09400000    0.99930912
  0.09450000    0.99942021
  0.09500000    0.99952161
  0.09550000    0.99961321
  0.09600000    0.99969491
  0.09650000    0.99976691
  0.09700000    0.99982860
  0.09750000    0.99988120
  0.09800000    0.99992420
  0.09850000    0.99995810
  0.09900000    0.99998200
  0.09950000    0.99999600
  0.10000000    1.00000000
  0.10050000    0.99999600
  0.10100000    0.99998100
  0.10150000    0.99995720
  0.10200000    0.99992310
  0.10250000    0.99987980
  0.10300000    0.99982700
  0.10350000    0.99976531
  0.10400000    0.99969311
  0.10450000    0.99961111
  0.10500000    0.99951971
  0.10550000    0.99941861
  0.10600000    0.99930752
  0.10650000    0.99918642
  0.10700000    0.99905442
  0.10750000    0.99891293
  0.10800000    0.99876113
  0.10850000    0.99859964
  0.10900000    0.99842674
  0.10950000    0.99824304
  0.11000000    0.99804875
  0.11050000    0.99784405
  0.11100000    0.99762816
  0.11150000    0.99740086
  0.11200000    0.99716147
  0.11250000    0.99691118
  0.11300000    0.99664918
  0.11350000    0.99637639
  0.11400000    0.99609030
  0.11450000    0.99579191
  0.11500000    0.99548081
  0.11550000    0.99515792
  0.11600000    0.99482183
  0.11650000    0.99447244
  0.11700000    0.99410815
  0.11750000    0.99373126
  0.11800000    0.99334037
  0.11850000    0.99293638
  0.11900000    0.99251619
  0.11950000    0.99208100
  0.12000000    0.99163071
  0.12050000    0.99116512
  0.12100000    0.99068343
  0.12150000    0.99018535
  0.12200000    0.98966886
  0.12250000    0.98913667
  0.12300000    0.98858699
  0.12350000    0.98802030
  0.12400000    0.98743391
  0.12450000    0.98682843
  0.12500000    0.98620414
  0.12550000    0.98556006
  0.12600000    0.98489548
  0.12650000    0.98420979
  0.12700000    0.98350051
  0.12750000    0.98277133
  0.12800000    0.98201925
  0.12850000    0.98124507
  0.12900000    0.98044549
  0.12950000    0.97962111
  0.13000000    0.97877293
  0.13050000    0.97789805
  0.13100000    0.97699638
  0.13150000    0.97606700
  0.13200000    0.97510712
  0.13250000    0.97412055
  0.13300000    0.97310387
  0.13350000    0.97205840
  0.13400000    0.97097903
  0.13450000    0.96986685
  0.13500000    0.96872308
  0.13550000    0.96754391
  0.13600000    0.96632914
  0.13650000    0.96507747
  0.13700000    0.96378501
  0.13750000    0.96245684
  0.13800000    0.96108867
  0.13850000    0.95968231
  0.13900000    0.95823014
  0.13950000    0.95673408
  0.14000000    0.95519572
  0.14050000    0.95361016
  0.14100000    0.95197660
  0.14150000    0.95029384
  0.14200000    0.94855599
  0.14250000    0.94677063
  0.14300000    0.94493148
  0.14350000    0.94304102
  0.14400000    0.94108927
  0.14450000    0.93907872
  0.14500000    0.93701077
  0.14550000    0.93488033
  0.14600000    0.93268578
  0.14650000    0.93042524
  0.14700000    0.92809130
  0.14750000    0.92569396
  0.14800000    0.92322492
  0.14850000    0.92068758
  0.14900000    0.91806905
  0.14950000    0.91537242
  0.15000000    0.91259959
  0.15050000    0.90974446
  0.15100000    0.90680483
  0.15150000    0.90377861
  0.15200000    0.90065628
  0.15250000    0.89745066
  0.15300000    0.89415165
  0.15350000    0.89076403
  0.15400000    0.88727092
  0.15450000    0.88367711
  0.15500000    0.87998460
  0.15550000    0.87618730
  0.15600000    0.87228219
  0.15650000    0.86826709
  0.15700000    0.86413110
  0.15750000    0.85988960
  0.15800000    0.85553181
  0.15850000    0.85106322
  0.15900000    0.84646474
  0.15950000    0.84174266
  0.16000000    0.83689728
  0.16050000    0.83192770
  0.16100000    0.82682833
  0.16150000    0.82159766
  0.16200000    0.81622399
  0.16250000    0.81072603
  0.16300000    0.80509267
  0.16350000    0.79933152
  0.16400000    0.79342226
  0.16450000    0.78737322
  0.16500000    0.78118417
  0.16550000    0.77485993
  0.16600000    0.76839399
  0.16650000    0.76178636
  0.16700000    0.75502742
  0.16750000    0.74813660
  0.16800000    0.74110657
  0.16850000    0.73394625
  0.16900000    0.72663733
  0.16950000    0.71919092
  0.17000000    0.71160411
  0.17050000    0.70389370
  0.17100000    0.69605130
  0.17150000    0.68807990
  0.17200000    0.67997430
  0.17250000    0.67175241
  0.17300000    0.66342171
  0.17350000    0.65496743
  0.17400000    0.64640184
  0.17450000    0.63772966
  0.17500000    0.62894538
  0.17550000    0.62007870
  0.17600000    0.61112042
  0.17650000    0.60207635
  0.17700000    0.59294868
  0.17750000    0.58374921
  0.17800000    0.57449044
  0.17850000    0.56516677
  0.17900000    0.55578991
  0.17950000    0.54636704
  0.18000000    0.53689178
  0.18050000    0.52739992
  0.18100000    0.51788375
  0.18150000    0.50835099
  0.18200000    0.49880923
  0.18250000    0.48926497
  0.18300000    0.47972871
  0.18350000    0.47020654
  0.18400000    0.46070628
  0.18450000    0.45123572
  0.18500000    0.44178896
  0.18550000    0.43239759
  0.18600000    0.42305732
  0.18650000    0.41377526
  0.18700000    0.40455839
  0.18750000    0.39541691
  0.18800000    0.38634444
  0.18850000    0.37736127
  0.18900000    0.36846859
  0.18950000    0.35967191
  0.19000000    0.35096823
  0.19050000    0.34237494
  0.19100000    0.33389285
  0.19150000    0.32552636
  0.19200000    0.31727967
  0.19250000    0.30916427
  0.19300000    0.30115877
  0.19350000    0.29329237
  0.19400000    0.28555936
  0.19450000    0.27796245
  0.19500000    0.27050074
  0.19550000    0.26317662
  0.19600000    0.25599450
  0.19650000    0.24895598
  0.19700000    0.24206195
  0.19750000    0.23532332
  0.19800000    0.22870928
  0.19850000    0.22225194
  0.19900000    0.21594120
  0.19950000    0.20977686
  0.20000000    0.20376001
  0.20050000    0.19788095
  0.20100000    0.19214680
  0.20150000    0.18655664
  0.20200000    0.18110907
  0.20250000    0.17581320
  0.20300000    0.17063573
  0.20350000    0.16560666
  0.20400000    0.16071418
  0.20450000    0.15595640
  0.20500000    0.15133572
  0.20550000    0.14683583
  0.20600000    0.14246474
  0.20650000    0.13822024
  0.20700000    0.13409975
  0.20750000    0.13011015
  0.20800000    0.12622084
  0.20850000    0.12245704
  0.20900000    0.11880753
  0.20950000    0.11526982
  0.21000000    0.11184630
  0.21050000    0.10851959
  0.21100000    0.10529707
  0.21150000    0.10217625
  0.21200000    0.09915419
  0.21250000    0.09623596
  0.21300000    0.09339612
  0.21350000    0.09065435
  0.21400000    0.08800122
  0.21450000    0.08543419
  0.21500000    0.08295572
  0.21550000    0.08054989
  0.21600000    0.07822308
  0.21650000    0.07597284
  0.21700000    0.07379677
  0.21750000    0.07169823
  0.21800000    0.06965778
  0.21850000    0.06768990
  0.21900000    0.06578728
  0.21950000    0.06394781
  0.22000000    0.06217335
  0.22050000    0.06045145
  0.22100000    0.05878687
  0.22150000    0.05717764
  0.22200000    0.05562187
  0.22250000    0.05412183
  0.22300000    0.05266334
  0.22350000    0.05125675
  0.22400000    0.04989666
  0.22450000    0.04858149
  0.22500000    0.04731260
  0.22550000    0.04608074
  0.22600000    0.04488940
  0.22650000    0.04373711
  0.22700000    0.04262246
  0.22750000    0.04154704
  0.22800000    0.04050077
  0.22850000    0.03949090
  0.22900000    0.03851364
  0.22950000    0.03756780
  0.23000000    0.03665438
  0.23050000    0.03576679
  0.23100000    0.03490748
  0.23150000    0.03407543
  0.23200000    0.03326964
  0.23250000    0.03249122
  0.23300000    0.03173307
  0.23350000    0.03100032
  0.23400000    0.03029029
  0.23450000    0.02960215
  0.23500000    0.02893664
  0.23550000    0.02828907
  0.23600000    0.02766123
  0.23650000    0.02705238
  0.23700000    0.02646186
  0.23750000    0.02589042
  0.23800000    0.02533316
  0.23850000    0.02479361
  0.23900000    0.02426993
  0.23950000    0.02376156
  0.24000000    0.02326902
  0.24050000    0.02278905
  0.24100000    0.02232291
  0.24150000    0.02187010
  0.24200000    0.02143014
  0.24250000    0.02100359
  0.24300000    0.02058705
  0.24350000    0.02018296
  0.24400000    0.01979006
  0.24450000    0.01940796
  0.24500000    0.01903697
  0.24550000    0.01867496
  0.24600000    0.01832275
  0.24650000    0.01797998
  0.24700000    0.01764634
  0.24750000    0.01732221
  0.24800000    0.01700519
  0.24850000    0.01669707
  0.24900000    0.01639693
  0.24950000    0.01610451
  0.25000000    0.01582003
  0.25050000    0.01554199
  0.25100000    0.01527097
  0.25150000    0.01500673
  0.25200000    0.01474907
  0.25250000    0.01449827
  0.25300000    0.01425259
  0.25350000    0.01401335
  0.25400000    0.01377988
  0.25450000    0.01355201
  0.25500000    0.01332991
  0.25550000    0.01311248
  0.25600000    0.01290017
  0.25650000    0.01269281
  0.25700000    0.01249025
  0.25750000    0.01229270
  0.25800000    0.01209894
  0.25850000    0.01190987
  0.25900000    0.01172505
  0.25950000    0.01154435
  0.26000000    0.01136790
  0.26050000    0.01119492
  0.26100000    0.01102572
  0.26150000    0.01086020
  0.26200000    0.01069823
  0.26250000    0.01053999
  0.26300000    0.01038456
  0.26350000    0.01023265
  0.26400000    0.01008391
  0.26450000    0.00993825
  0.26500000    0.00979575
  0.26550000    0.00965588
  0.26600000    0.00951885
  0.26650000    0.00938459
  0.26700000    0.00925301
  0.26750000    0.00912424
  0.26800000    0.00899761
  0.26850000    0.00887364
  0.26900000    0.00875208
  0.26950000    0.00863286
  0.27000000    0.00851604
  0.27050000    0.00840123
  0.27100000    0.00828859
  0.27150000    0.00817806
  0.27200000    0.00806959
  0.27250000    0.00796328
  0.27300000    0.00785861
  0.27350000    0.00775599
  0.27400000    0.00765522
  0.27450000    0.00755625
  0.27500000    0.00745915
  0.27550000    0.00736360
  0.27600000    0.00726973
  0.27650000    0.00717750
  0.27700000    0.00708687
  0.27750000    0.00699792
  0.27800000    0.00691025
  0.27850000    0.00682417
  0.27900000    0.00673955
  0.27950000    0.00665635
  0.28000000    0.00657459
  0.28050000    0.00649406
  0.28100000    0.00641485
  0.28150000    0.00633694
  0.28200000    0.00626028
  0.28250000    0.00618495
  0.28300000    0.00611064
  0.28350000    0.00603759
  0.28400000    0.00596569
  0.28450000    0.00589492
  0.28500000    0.00582530
  0.28550000    0.00575665
  0.28600000    0.00568907
  0.28650000    0.00562251
  0.28700000    0.00555696
  0.28750000    0.00549247
  0.28800000    0.00542880
  0.28850000    0.00536614
  0.28900000    0.00530441
  0.28950000    0.00524358
  0.29000000    0.00518368
  0.29050000    0.00512456
  0.29100000    0.00506630
  0.29150000    0.00500887
  0.29200000    0.00495226
  0.29250000    0.00489651
  0.29300000    0.00484141
  0.29350000    0.00478714
  0.29400000    0.00473362
  0.29450000    0.00468084
  0.29500000    0.00462881
  0.29550000    0.00457742
  0.29600000    0.00452673
  0.29650000    0.00447672
  0.29700000    0.00442738
  0.29750000    0.00437874
  0.29800000    0.00433064
  0.29850000    0.00428322
  0.29900000    0.00423642
  0.29950000    0.00419022
  0.30000000    0.00414464
  0.30050000    0.00409959
  0.30100000    0.00405512
  0.30150000    0.00401121
  0.30200000    0.00396785
  0.30250000    0.00392507
  0.30300000    0.00388275
  0.30350000    0.00384098
  0.30400000    0.00379973
  0.30450000    0.00375897
  0.30500000    0.00371873
  0.30550000    0.00367894
  0.30600000    0.00363963
  0.30650000    0.00360078
  0.30700000    0.00356239
  0.30750000    0.00352449
  0.30800000    0.00348697
  0.30850000    0.00344991
  0.30900000    0.00341329
  0.30950000    0.00337708
  0.31000000    0.00334130
  0.31050000    0.00330590
  0.31100000    0.00327090
  0.31150000    0.00323630
  0.31200000    0.00320208
  0.31250000    0.00316827
  0.31300000    0.00313477
  0.31350000    0.00310167
  0.31400000    0.00306894
  0.31450000    0.00303656
  0.31500000    0.00300453
  0.31550000    0.00297283
  0.31600000    0.00294147
  0.31650000    0.00291044
  0.31700000    0.00287974
  0.31750000    0.00284938
  0.31800000    0.00281929
  0.31850000    0.00278954
  0.31900000    0.00276009
  0.31950000    0.00273095
  0.32000000    0.00270212
  0.32050000    0.00267355
  0.32100000    0.00264527
  0.32150000    0.00261727
  0.32200000    0.00258956
  0.32250000    0.00256214
  0.32300000    0.00253495
  0.32350000    0.00250804
  0.32400000    0.00248139
  0.32450000    0.00245501
  0.32500000    0.00242888
  0.32550000    0.00240299
  0.32600000    0.00237734
  0.32650000    0.00235194
  0.32700000    0.00232678
  0.32750000    0.00230186
  0.32800000    0.00227715
  0.32850000    0.00225268
  0.32900000    0.00222844
  0.32950000    0.00220441
  0.33000000    0.00218061
  0.33050000    0.00215701
  0.33100000    0.00213362
  0.33150000    0.00211044
  0.33200000    0.00208747
  0.33250000    0.00206471
  0.33300000    0.00204212
  0.33350000    0.00201974
  0.33400000    0.00199755
  0.33450000    0.00197555
  0.33500000    0.00195375
  0.33550000    0.00193212
  0.33600000    0.00191067
  0.33650000    0.00188940
  0.33700000    0.00186831
  0.33750000    0.00184740
  0.33800000    0.00182664
  0.33850000    0.00180605
  0.33900000    0.00178564
  0.33950000    0.00176539
  0.34000000    0.00174530
  0.34050000    0.00172537
  0.34100000    0.00170559
  0.34150000    0.00168596
  0.34200000    0.00166649
  0.34250000    0.00164717
  0.34300000    0.00162798
  0.34350000    0.00160895
  0.34400000    0.00159007
  0.34450000    0.00157132
  0.34500000    0.00155271
  0.34550000    0.00153424
  0.34600000    0.00151589
  0.34650000    0.00149769
  0.34700000    0.00147961
  0.34750000    0.00146167
  0.34800000    0.00144384
  0.34850000    0.00142614
  0.34900000    0.00140857
  0.34950000    0.00139112
  0.35000000    0.00137379
  0.35050000    0.00135656
  0.35100000    0.00133946
  0.35150000    0.00132247
  0.35200000    0.00130559
  0.35250000    0.00128883
  0.35300000    0.00127217
  0.35350000    0.00125562
  0.35400000    0.00123918
  0.35450000    0.00122284
  0.35500000    0.00120660
  0.35550000    0.00119046
  0.35600000    0.00117442
  0.35650000    0.00115848
  0.35700000    0.00114263
  0.35750000    0.00112688
  0.35800000    0.00111122
  0.35850000    0.00109565
  0.35900000    0.00108017
  0.35950000    0.00106478
  0.36000000    0.00104948
  0.36050000    0.00103427
  0.36100000    0.00101913
  0.36150000    0.00100408
  0.36200000    0.00098911
  0.36250000    0.00097423
  0.36300000    0.00095941
  0.36350000    0.00094468
  0.36400000    0.00093002
  0.36450000    0.00091544
  0.36500000    0.00090093
  0.36550000    0.00088649
  0.36600000    0.00087212
  0.36650000    0.00085783
  0.36700000    0.00084360
  0.36750000    0.00082944
  0.36800000    0.00081534
  0.36850000    0.00080131
  0.36900000    0.00078734
  0.36950000    0.00077344
  0.37000000    0.00075960
  0.37050000    0.00074581
  0.37100000    0.00073208
  0.37150000    0.00071841
  0.37200000    0.00070480
  0.37250000    0.00069125
  0.37300000    0.00067774
  0.37350000    0.00066429
  0.37400000    0.00065089
  0.37450000    0.00063754
  0.37500000    0.00062425
  0.37550000    0.00061100
  0.37600000    0.00059779
  0.37650000    0.00058463
  0.37700000    0.00057152
  0.37750000    0.00055846
  0.37800000    0.00054543
  0.37850000    0.00053245
  0.37900000    0.00051951
  0.37950000    0.00050661
  0.38000000    0.00049375
  0.38050000    0.00048093
  0.38100000    0.00046814
  0.38150000    0.00045539
  0.38200000    0.00044267
  0.38250000    0.00042999
  0.38300000    0.00041734
  0.38350000    0.00040473
  0.38400000    0.00039214
  0.38450000    0.00037958
  0.38500000    0.00036706
  0.38550000    0.00035456
  0.38600000    0.00034209
  0.38650000    0.00032964
  0.38700000    0.00031722
  0.38750000    0.00030483
  0.38800000    0.00029245
  0.38850000    0.00028010
  0.38900000    0.00026777
  0.38950000    0.00025546
  0.39000000    0.00024316
  0.39050000    0.00023089
  0.39100000    0.00021864
  0.39150000    0.00020640
  0.39200000    0.00019418
  0.39250000    0.00018197
  0.39300000    0.00016978
  0.39350000    0.00015759
  0.39400000    0.00014542
  0.39450000    0.00013326
  0.39500000    0.00012112
  0.39550000    0.00010898
  0.39600000    0.00009685
  0.39650000    0.00008473
  0.39700000    0.00007261
  0.39750000    0.00006050
  0.39800000    0.00004840
  0.39850000    0.00003629
  0.39900000    0.00002419
  0.39950000    0.00001210
  0.40000000    0.00000000
