# Created by Octave 4.2.1, Wed Jun 02 22:15:07 2021 CEST <alatina@lxclicbpk20>
# name: EmittX_hist
# type: matrix
# rows: 100
# columns: 4
 73.43793005507665 2.087615350012474 1.95367734446012 2.165783221765909
 874.6361555939046 3.89874543580559 3.290470643730316 3.198266616587779
 151.2857257120831 2.431586030443663 2.253021558752218 2.708987713167485
 47.61749254384975 2.827802523972831 3.053178700284467 2.85797559616038
 352.245838910261 4.835723771264102 3.308247517685 3.070550322151468
 9.263209534131008 3.24209654676351 3.724395333486029 4.034903047126055
 168.9794546167188 2.826671795740339 2.204335392134941 2.418132544060555
 38.86487925262306 2.579627368297103 2.62799320935456 2.586319633031966
 101.306695029811 2.46370516596089 2.824899704608674 2.898351641684985
 725.4932672535723 2.198676322244458 2.390814895816775 2.466120084722468
 36.4773406289037 2.775679546554616 2.642269877261245 2.907431374396898
 361.672018025444 3.557502291348262 3.067455880369436 2.707573683922972
 109.8509388038732 2.856190059227195 3.20890712091745 3.247505768688321
 384.2849402369507 2.096505935449943 2.717560518774617 2.861158104293321
 32.50904109559932 2.917108503204264 2.991709755844593 2.984097577440487
 79.69649798899923 2.931798427481453 2.930466223095983 2.934119294124057
 656.7822763134228 2.146705912174432 2.199124917838392 2.05702355455755
 676.3814743034415 2.173132522202255 2.642760907233665 2.877290645077228
 358.6591032732174 3.066439579428751 2.677999548297334 2.586817944606369
 95.63506364809177 3.327583619438253 3.294274746139298 3.063062069087126
 90.83376796320604 2.156589155832464 2.311199839815107 2.13348030567215
 255.4267237124315 3.065915597433744 3.044912638275451 2.709164197401684
 180.6901272466405 2.995981942782252 2.962027544051573 3.200400192117848
 97.22674999703089 2.244631824915198 2.415847819957026 2.935957569072076
 130.1899817344302 2.773475928862108 2.832759723846216 3.085063439513779
 70.37660178405919 2.453157588225227 2.592368802523884 2.856917560063453
 26.28647723665155 2.981646807877506 2.501461065792087 2.716551500056158
 153.6881130590123 3.216283304450492 3.155402470045686 2.947922077346894
 44.22706123804533 2.533482135724501 2.50021208136435 2.732320620741193
 1119.564596112876 3.818946722476485 3.528393332120428 3.201009320480059
 27.57311001705321 2.507152428033031 2.285398471276782 2.362241647732839
 72.41084878304326 2.79172251790501 2.856603092583795 2.8821275356214
 159.9189801037644 3.359668670070594 3.319598238820343 3.107223711172478
 305.7083404647534 2.705492884186324 3.112788005478825 2.932366480015042
 24.53604266300289 2.233610051208788 2.355961142019121 2.590492444400459
 97.22888534400603 4.194972166483591 3.300252304166019 3.006926149855059
 48.79859635514836 3.280780054860314 2.953104678222059 3.245831525114882
 731.3483513640758 2.149771388329389 2.347230348196724 2.662337253705535
 495.5105092563689 3.745089887566755 3.362021488930358 3.828267569316629
 24.68754469599712 3.044635815566096 3.055038916407417 2.818721967993627
 215.5751323015435 4.437488616473432 4.073056479408283 3.576800302161203
 147.0609030840262 4.328549199687502 4.317840487966642 3.889847808962655
 66.38955775011247 2.484542304133397 2.523332069418233 2.49981613646696
 170.6952244910784 3.82457244463131 4.53994250228762 4.388692596529994
 230.3645946421994 2.507253316392302 3.298033398190061 3.667636395211883
 152.0629052964358 4.046698941629842 4.084734494527651 3.70829262652269
 443.2796291125114 3.072662830240463 3.284937645298886 3.558318560970625
 94.23435415686056 2.856531683866577 2.962605348456987 3.039519127237492
 419.7628152880678 2.226359874361152 2.3814991975236 2.614557996241587
 238.9009497766852 3.226505386860015 3.812416829908722 3.487402479561995
 117.0336645178089 3.037719303041929 3.913176931645807 3.39513301693686
 31.90904398525831 2.56841561690268 2.455530955427569 3.137227109903547
 56.77629239819118 2.056858378233601 2.672304083858075 2.84597289801062
 303.018990384104 2.500991878883589 2.361779812142758 2.156925010369508
 105.9959354125082 2.418713756602755 2.406140402866972 2.824345106887231
 378.8163369991901 3.857404224514344 3.116769813088583 2.892987043900754
 217.3733812712188 2.808116452403185 3.577074492998774 3.741447523676029
 9.349963621122713 2.97718171757935 2.633750475195419 2.955211060231248
 65.68964106969548 2.234804764607403 2.30546534379128 2.309730138666084
 45.09661654691028 2.910092998957261 2.758180769361979 2.402029640726776
 664.0017696022211 2.584776604699342 3.210497606212643 2.72789878991421
 187.0258316853897 2.45301593501241 2.14625605941751 2.178147385046133
 51.48243807843849 3.54178917276586 3.554400102194846 3.291931744510197
 258.2251253848617 3.614454711579224 3.108636676185499 2.964494619714854
 192.7164600306132 4.076509650040518 4.172751002790729 3.639424260487987
 30.54389070365654 5.283807857788848 5.433841445787236 4.72096380126227
 54.99186211084989 2.586975667445235 3.057748044890157 2.640862114389147
 426.0763661288208 4.669028749747306 3.556531317954307 3.417602113345029
 182.4020549035106 2.497315095221524 2.68642272111683 2.809938178548766
 46.76506316185871 3.946489504032662 4.052292860382989 3.886151852001077
 730.9057271492754 3.41847261790669 4.026720834769466 3.551032405201422
 238.7048040158648 3.31134439980975 3.011867995048508 2.998341699561627
 382.3780520134706 3.012512673579185 2.75525404608326 2.677328624264083
 354.1191806393899 1.861919921951767 2.043101973152579 2.320304523573743
 75.83545073440698 4.014936799779496 3.97838448737515 3.607438419261869
 271.9217325893501 4.372056255856755 3.511871913451634 3.382320220236613
 149.0359790733591 2.094058562313077 2.089517434879121 1.987446062044877
 809.3407608100952 3.807813071928083 3.021357808885186 2.658630272446647
 275.6278577479722 2.935171010979644 2.832808029555805 2.800906974591893
 54.83148171151517 4.000951123187281 3.832956206176059 3.583629789140967
 160.9570082721336 3.912049238790167 3.902964018299435 4.533557308533348
 86.47657823291559 1.872049871311127 2.083135798691734 2.298160079741681
 132.8651404291579 2.267037300696185 2.048388003937452 2.451997119352208
 265.311538185456 3.348968111370858 3.049136822529012 3.009777741621726
 24.07349229654305 3.362821371379185 2.421098289768353 2.64102663995602
 1611.418400458041 3.9209800873002 3.245866447900971 3.031721323385856
 149.0216319848851 3.850913021449566 4.409395169582817 3.549235190633341
 143.1163919655948 3.569418565843235 3.539539592613477 3.612724946787212
 1629.022415661325 3.088036686895788 2.458871730179219 3.008948788910425
 49.22563583443421 4.962189999981604 4.886887863357249 4.149287973769236
 68.24783285661718 2.043063958351004 1.960764978821929 2.084917766635543
 82.19244225979199 3.759448844499534 2.832099507689827 2.788543550142433
 76.64701608397741 2.347608690967084 2.419935641276815 2.840769775866341
 229.3474813189068 2.720718060592012 3.363702878366755 3.029007943275883
 173.5674816421601 2.864472677433882 3.690937991771686 3.453411291594387
 249.1949712498813 3.84211082055727 3.941123398001336 4.031888842761708
 200.029708164021 2.75397197743662 2.951120779137507 2.983106461098294
 107.3979128502023 2.114795479460397 1.901487948935029 1.963793592407875
 60.45239941110135 2.403221301030458 2.307810727122699 2.825512065591792
 72.83875013708125 1.962115257070888 2.293477084892647 2.211567713553664


