XLS.L0_PhiD = 21.1270667998513;
XLS.L0_Voltage = 0.203770744720696;
XLS.Ka_PhiD = 175;
XLS.Ka_Voltage = 0.00966213409479133;
XLS.BC1_Pref = 0.318477233947639;
XLS.BC1_R56 = -0.00878320897411562;
XLS.BC1_T566 = 0.0131748134611734;
XLS.L1_PhiD = 49.1982888905226;
XLS.L1_Voltage = 0.770711398270878;
XLS.BC2_Pref = 1.46959584717634;
XLS.BC2_R56 = -0.00312386624723026;
XLS.BC2_T566 = 0.00468579937084539;
XLS.L2_PhiD = 46.8724324841812;
XLS.L2_Voltage = 0.6126038203075;
XLS.L3_PhiD = 3.75714516678869;
XLS.L3_Voltage = 4.27489238978722;
XLS.BC1_z1 = 893.169214315774;
XLS.BC2_z1 = 2435.28880930887;
XLS.Out_sigmaZ = 1.00338487140511;
XLS.Out_sigmaE = 0.00911384301997744;
XLS.Out_meanE = 5.46807557720158;
