# Created by Octave 5.2.0, Thu May 28 15:52:47 2020 CEST <alatina@pc69.home>
# name: E2
# type: matrix
# rows: 56
# columns: 6
 3.1908051627199998 0.084230225743933157 0.00014571675761007285 1.7898754401142696 1.7970776550341643 297.4274062983464
 4.1016712799530008 0.084230225743933157 0.00014571675761007285 1.7867181991739756 1.8025794896578269 297.4274062983464
 5.3399713346920006 0.084230225743933157 0.00014571675761007285 1.7867405191963956 1.792582062489835 297.4274062983464
 7.0652082717520006 0.084230225743933157 0.00014571675761007285 1.7839641793293683 1.7917338034725312 297.4274062983464
 9.4016366399419997 0.084230225743933157 0.00014571675761007285 1.7842579818966418 1.7920813002038336 297.4274062983464
 10.761636639942001 0.14000323327213865 0.0016396750834059537 1.8096535843916226 1.8119461788709568 297.4274062983464
 12.121636639942007 0.19577624080034409 0.0031392284986546471 1.8193344942834997 1.8479626732412608 297.4274062983464
 13.481636639942007 0.25154924832854947 0.0046389542934079861 1.8353680428533174 1.8321992136709013 297.4274062983464
 14.841636639942013 0.30732225585675421 0.0061387261290974183 1.8675649147117397 1.8588061624664678 297.4274062983464
 16.201636639942013 0.29294246731788681 0.0050600855637269468 2.1555944338560371 2.0796460987624643 297.4274062983464
 17.561636639942005 0.27856267877901825 0.0040014149598590421 2.490913190141038 2.2520043983915712 297.4274062983464
 17.920193238064002 0.27856267877901825 0.0040014149598590421 2.3280410505204481 2.1019528777503944 297.4274062983464
 21.182750219624005 0.27856267877901825 0.0040014149598590421 2.3352188235431481 2.5038759003786848 297.4274062983464
 21.442969892803003 0.27856267877901825 0.0040014149598590421 2.4150640791866573 2.6424198929139799 297.4274062983464
 31.183525334708001 0.27856267877901825 0.0040014149598590421 2.6975508077603116 2.5384672815508948 36.510402671740202
 31.836198898849993 0.27856267877901825 0.0040014149598590421 2.6194311073299992 2.8003085904657041 36.510402671740202
 32.686200771022989 0.27856267877901825 0.0040014149598590421 2.66253905110946 3.1798720952324087 36.510402671740202
 33.22655755493799 0.27856267877901825 0.0040014149598590421 2.662997127174199 2.7454936948120605 36.510402671740202
 34.994182467527985 0.27856267877901825 0.0040014149598590421 2.6959840432605051 2.7596768445562825 36.510402671740202
 37.434182467527968 0.39348367439165632 0.0042014193752547445 2.7223865154788354 2.8159620695377692 36.510402671740202
 39.874182467527937 0.50840467000429468 0.0044015219807912653 2.756307431387528 2.5920881703437746 36.510402671740202
 42.314182467527921 0.62332566561693303 0.0046017099673210477 2.6499166577804796 2.6019383505951268 36.510402671740202
 44.754182467527883 0.7382466612295715 0.0048019726566069813 2.629214372609908 2.5967776223042209 36.510402671740202
 47.194182467527867 0.85316765684220941 0.005002301076655143 2.6610270742763285 2.6956967689823541 36.510402671740202
 49.63418246752785 0.96808865245484765 0.0052026876346144531 2.6825412972905154 2.5775456187246228 36.510402671740202
 52.07418246752782 1.0830096480674865 0.0054031258618415616 2.6523829718664516 2.6130235313260721 36.510402671740202
 54.514182467527789 1.1979306436801258 0.005603610213836473 2.6498499640185589 2.6493364559353934 36.510402671740202
 55.011037994162791 1.1979306436801258 0.005603610213836473 2.6608787188371403 2.6454766424294323 36.510402671740202
 58.101864635972788 1.1979306436801258 0.005603610213836473 2.769109204655785 2.6881695465978366 36.510402671740202
 58.367588680958775 1.1979306436801258 0.005603610213836473 2.8665028008640077 2.561300138958897 36.510402671740202
 68.103922689988821 1.1979306436801258 0.005603610213836473 2.61526818395838 2.667369101730527 3.9857239358588297
 68.8130504238908 1.1979306436801258 0.005603610213836473 2.772502663200048 3.2959261205448676 3.9857239358588297
 69.5050854515098 1.1979306436801258 0.005603610213836473 2.7237301747189884 2.0944739952304054 3.9857239358588297
 71.622001926689805 1.1979306436801258 0.005603610213836473 2.7223878994191661 2.0938976859483445 3.9857239358588297
 74.222180475519778 1.1979306436801258 0.005603610213836473 2.7490111154014527 2.0752568061124292 3.9857239358588297
 78.822180475519886 1.4277089077830103 0.0053592372224393735 2.7723059643262582 2.0895137945358044 3.9857239358588297
 83.422180475519994 1.6574871718858966 0.0051183515731458556 2.754075358339382 2.0547739995224772 3.9857239358588297
 88.022180475520059 1.8872654359887822 0.0048814695620387431 2.7460331163312266 2.0578704964704722 3.9857239358588297
 92.622180475520167 2.1170437000916698 0.0046492031968105429 2.7431427215536348 2.0640985034806967 3.9857239358588297
 97.222180475520275 2.346821964194556 0.0044222798051804044 2.7393043728240474 2.0683625403092609 3.9857239358588297
 101.82218047552034 2.5766002282974405 0.0042015651836412957 2.7406106184192298 2.0581675317869426 3.9857239358588297
 106.42218047552043 2.8063784924003277 0.0039880903059109091 2.7425452552928578 2.0627294301477868 3.9857239358588297
 111.02218047552057 3.0361567565032144 0.0037830809593235705 2.7468088615316075 2.0614369930824923 3.9857239358588297
 115.62218047552065 3.2659350206060997 0.0035879885389467577 2.7319674833636483 2.0530152002793955 3.9857239358588297
 120.22218047552073 3.4957132847089873 0.0034045183018741156 2.7184861775270699 2.0577600698333987 3.9857239358588297
 124.82218047552081 3.7254915488118718 0.0032346484971180907 2.7337599800256989 2.0552516046502105 3.9857239358588297
 129.42218047552089 3.9552698129147585 0.0030806297694605535 2.7444146082011232 2.0545273510927311 3.9857239358588297
 134.02218047552086 4.1850480770176457 0.002944950175465838 2.7201687187019501 2.0627854324179968 3.9857239358588297
 138.62218047552079 4.4148263411205306 0.0028302484258750627 2.716881987996429 2.0549038722420274 3.9857239358588297
 143.22218047552082 4.6446046052234156 0.0027391611319462867 2.7258487271874769 2.0536432778133 3.9857239358588297
 147.82218047552075 4.8743828693263014 0.002674102507981029 2.7299873862764672 2.0559771137018235 3.9857239358588297
 152.42218047552072 5.1041611334291863 0.0026369997839949381 2.7207112955723827 2.0567485441956941 3.9857239358588297
 157.02218047552066 5.3339393975320748 0.0026290368329128224 2.7204234498961539 2.0556386007004583 3.9857239358588297
 161.62218047552068 5.3339393975320748 0.0026290368329128224 2.7205649695731311 2.0552495988025399 3.9857239358588297
 166.22218047552062 5.3339393975320748 0.0026290368329128224 2.7212971388473668 2.0572852608070673 3.9857239358588297
 166.27218047552063 5.3339393975320748 0.0026290368329128224 2.7175749042280284 2.0581389058585384 3.9857239358588297


