101
-0.0575382
-636.876 -1.10278e-06 1e-05
-630.036 -0.000111646 0.000994699
-616.704 -0.000400669 0.00185553
-603.373 -0.000839257 0.00269485
-590.041 -0.00140822 0.0034517
-576.71 -0.00208812 0.004153
-563.378 -0.0028641 0.00479836
-550.047 -0.00372431 0.00540552
-536.716 -0.00466033 0.00598342
-523.384 -0.00566586 0.00654008
-510.053 -0.00673581 0.0070779
-496.721 -0.00786551 0.00759694
-483.39 -0.00905016 0.00809495
-470.058 -0.0102847 0.00856964
-456.727 -0.011564 0.0090194
-443.395 -0.0128827 0.00944346
-430.064 -0.0142358 0.00984195
-416.732 -0.0156184 0.0102153
-403.401 -0.017026 0.0105645
-390.07 -0.0184544 0.0108902
-376.738 -0.0198996 0.0111934
-363.407 -0.0213581 0.0114742
-350.075 -0.022826 0.0117329
-336.744 -0.0243001 0.0119702
-323.412 -0.025777 0.0121864
-310.081 -0.0272538 0.0123821
-296.749 -0.0287277 0.0125595
-283.418 -0.0301963 0.0127201
-270.087 -0.0316578 0.0128653
-256.755 -0.0331102 0.0129968
-243.424 -0.0345524 0.0131158
-230.092 -0.0359827 0.0132219
-216.761 -0.0374 0.0133151
-203.429 -0.0388026 0.0133954
-190.098 -0.0401892 0.0134628
-176.766 -0.0415583 0.0135173
-163.435 -0.0429088 0.0135604
-150.103 -0.0442397 0.0135938
-136.772 -0.0455503 0.0136187
-123.441 -0.0468404 0.0136372
-110.109 -0.0481099 0.0136516
-96.7777 -0.0493592 0.0136625
-83.4463 -0.0505885 0.0136701
-70.1148 -0.0517981 0.0136746
-56.7834 -0.052988 0.0136742
-43.4519 -0.0541578 0.0136668
-30.1205 -0.0553067 0.0136512
-16.789 -0.0564338 0.0136264
-3.45756 -0.0575382 0.013592
9.87389 -0.058619 0.0135495
23.2053 -0.0596756 0.0135007
36.5368 -0.0607081 0.0134474
49.8682 -0.0617165 0.0133906
63.1997 -0.0627009 0.013331
76.5311 -0.0636617 0.0132676
89.8626 -0.0645986 0.0131995
103.194 -0.0655114 0.0131257
116.525 -0.0663997 0.0130463
129.857 -0.0672632 0.0129614
143.188 -0.0681017 0.0128719
156.52 -0.0689151 0.0127787
169.851 -0.0697035 0.0126817
183.183 -0.0704667 0.0125801
196.514 -0.0712044 0.0124726
209.846 -0.071916 0.0123576
223.177 -0.0726005 0.0122334
236.509 -0.0732569 0.0120995
249.84 -0.0738841 0.011956
263.171 -0.0744811 0.0118031
276.503 -0.075047 0.0116409
289.834 -0.0755811 0.0114702
303.166 -0.0760824 0.0112904
316.497 -0.0765501 0.0111005
329.829 -0.0769831 0.0108993
343.16 -0.07738 0.0106866
356.492 -0.0777397 0.010461
369.823 -0.0780605 0.0102214
383.154 -0.0783409 0.00996787
396.486 -0.0785793 0.00970042
409.817 -0.0787742 0.00941875
423.149 -0.0789242 0.0091235
436.48 -0.0790282 0.00881624
449.812 -0.0790853 0.00849722
463.143 -0.0790944 0.00816645
476.475 -0.0790546 0.00782376
489.806 -0.078965 0.00746891
503.138 -0.0788244 0.00710072
516.469 -0.0786317 0.00671944
529.8 -0.0783858 0.00632594
543.132 -0.078086 0.0059224
556.463 -0.077732 0.00551012
569.795 -0.0773237 0.00509071
583.126 -0.076861 0.00466316
596.458 -0.0763433 0.00422439
609.789 -0.0757687 0.00376475
623.121 -0.0751336 0.0032755
636.452 -0.0744317 0.00273842
649.783 -0.0736554 0.00215285
663.115 -0.0727945 0.00149057
676.446 -0.071843 0.000809769
683.815 -0.0707896 1e-05
0 0.221616
0 0.606359
0.414371 0
0.95669 0.780388
0.414371 0
1.28298 1.11818
0.780388 0.414371
0 1.59034
1.43477 1.11818
0.780388 0.414371
0 1.88194
1.73413 1.43477
1.11818 0.780388
0.414371 0
2.15999 2.0189
1.73413 1.43477
1.11818 0.780388
0.414371 0
2.42615 2.29099
2.0189 1.73413
1.43477 1.11818
0.780388 0.414371
0 2.6817
2.55184 2.29099
2.0189 1.73413
1.43477 1.11818
0.780388 0.414371
0 2.92767
2.8026 2.55184
2.29099 2.0189
1.73413 1.43477
1.11818 0.780388
0.414371 0
3.1649 3.04422
2.8026 2.55184
2.29099 2.0189
1.73413 1.43477
1.11818 0.780388
0.414371 0
3.39411 3.27746
3.04422 2.8026
2.55184 2.29099
2.0189 1.73413
1.43477 1.11818
0.780388 0.414371
0 3.61592
3.503 3.27746
3.04422 2.8026
2.55184 2.29099
2.0189 1.73413
1.43477 1.11818
0.780388 0.414371
0 3.83085
3.7214 3.503
3.27746 3.04422
2.8026 2.55184
2.29099 2.0189
1.73413 1.43477
1.11818 0.780388
0.414371 0
4.03936 3.93315
3.7214 3.503
3.27746 3.04422
2.8026 2.55184
2.29099 2.0189
1.73413 1.43477
1.11818 0.780388
0.414371 0
4.24186 4.13868
3.93315 3.7214
3.503 3.27746
3.04422 2.8026
2.55184 2.29099
2.0189 1.73413
1.43477 1.11818
0.780388 0.414371
0 4.43871
4.33839 4.13868
3.93315 3.7214
3.503 3.27746
3.04422 2.8026
2.55184 2.29099
2.0189 1.73413
1.43477 1.11818
0.780388 0.414371
0 4.63023
4.53261 4.33839
4.13868 3.93315
3.7214 3.503
3.27746 3.04422
2.8026 2.55184
2.29099 2.0189
1.73413 1.43477
1.11818 0.780388
0.414371 0
4.81673 4.72165
4.53261 4.33839
4.13868 3.93315
3.7214 3.503
3.27746 3.04422
2.8026 2.55184
2.29099 2.0189
1.73413 1.43477
1.11818 0.780388
0.414371 0
4.99846 4.90579
4.72165 4.53261
4.33839 4.13868
3.93315 3.7214
3.503 3.27746
3.04422 2.8026
2.55184 2.29099
2.0189 1.73413
1.43477 1.11818
0.780388 0.414371
0 5.17566
5.08528 4.90579
4.72165 4.53261
4.33839 4.13868
3.93315 3.7214
3.503 3.27746
3.04422 2.8026
2.55184 2.29099
2.0189 1.73413
1.43477 1.11818
0.780388 0.414371
0 5.34855
5.26036 5.08528
4.90579 4.72165
4.53261 4.33839
4.13868 3.93315
3.7214 3.503
3.27746 3.04422
2.8026 2.55184
2.29099 2.0189
1.73413 1.43477
1.11818 0.780388
0.414371 0
5.51734 5.43123
5.26036 5.08528
4.90579 4.72165
4.53261 4.33839
4.13868 3.93315
3.7214 3.503
3.27746 3.04422
2.8026 2.55184
2.29099 2.0189
1.73413 1.43477
1.11818 0.780388
0.414371 0
5.68221 5.59809
5.43123 5.26036
5.08528 4.90579
4.72165 4.53261
4.33839 4.13868
3.93315 3.7214
3.503 3.27746
3.04422 2.8026
2.55184 2.29099
2.0189 1.73413
1.43477 1.11818
0.780388 0.414371
0 5.84334
5.76112 5.59809
5.43123 5.26036
5.08528 4.90579
4.72165 4.53261
4.33839 4.13868
3.93315 3.7214
3.503 3.27746
3.04422 2.8026
2.55184 2.29099
2.0189 1.73413
1.43477 1.11818
0.780388 0.414371
0 6.00089
5.92049 5.76112
5.59809 5.43123
5.26036 5.08528
4.90579 4.72165
4.53261 4.33839
4.13868 3.93315
3.7214 3.503
3.27746 3.04422
2.8026 2.55184
2.29099 2.0189
1.73413 1.43477
1.11818 0.780388
0.414371 0
6.15499 6.07634
5.92049 5.76112
5.59809 5.43123
5.26036 5.08528
4.90579 4.72165
4.53261 4.33839
4.13868 3.93315
3.7214 3.503
3.27746 3.04422
2.8026 2.55184
2.29099 2.0189
1.73413 1.43477
1.11818 0.780388
0.414371 0
6.3058 6.22882
6.07634 5.92049
5.76112 5.59809
5.43123 5.26036
5.08528 4.90579
4.72165 4.53261
4.33839 4.13868
3.93315 3.7214
3.503 3.27746
3.04422 2.8026
2.55184 2.29099
2.0189 1.73413
1.43477 1.11818
0.780388 0.414371
0 6.45344
6.37807 6.22882
6.07634 5.92049
5.76112 5.59809
5.43123 5.26036
5.08528 4.90579
4.72165 4.53261
4.33839 4.13868
3.93315 3.7214
3.503 3.27746
3.04422 2.8026
2.55184 2.29099
2.0189 1.73413
1.43477 1.11818
0.780388 0.414371
0 6.59803
6.52421 6.37807
6.22882 6.07634
5.92049 5.76112
5.59809 5.43123
5.26036 5.08528
4.90579 4.72165
4.53261 4.33839
4.13868 3.93315
3.7214 3.503
3.27746 3.04422
2.8026 2.55184
2.29099 2.0189
1.73413 1.43477
1.11818 0.780388
0.414371 0
6.73968 6.66736
6.52421 6.37807
6.22882 6.07634
5.92049 5.76112
5.59809 5.43123
5.26036 5.08528
4.90579 4.72165
4.53261 4.33839
4.13868 3.93315
3.7214 3.503
3.27746 3.04422
2.8026 2.55184
2.29099 2.0189
1.73413 1.43477
1.11818 0.780388
0.414371 0
6.87851 6.80763
6.66736 6.52421
6.37807 6.22882
6.07634 5.92049
5.76112 5.59809
5.43123 5.26036
5.08528 4.90579
4.72165 4.53261
4.33839 4.13868
3.93315 3.7214
3.503 3.27746
3.04422 2.8026
2.55184 2.29099
2.0189 1.73413
1.43477 1.11818
0.780388 0.414371
0 7.01461
6.94511 6.80763
6.66736 6.52421
6.37807 6.22882
6.07634 5.92049
5.76112 5.59809
5.43123 5.26036
5.08528 4.90579
4.72165 4.53261
4.33839 4.13868
3.93315 3.7214
3.503 3.27746
3.04422 2.8026
2.55184 2.29099
2.0189 1.73413
1.43477 1.11818
0.780388 0.414371
0 7.14808
7.07992 6.94511
6.80763 6.66736
6.52421 6.37807
6.22882 6.07634
5.92049 5.76112
5.59809 5.43123
5.26036 5.08528
4.90579 4.72165
4.53261 4.33839
4.13868 3.93315
3.7214 3.503
3.27746 3.04422
2.8026 2.55184
2.29099 2.0189
1.73413 1.43477
1.11818 0.780388
0.414371 0
7.279 7.21213
7.07992 6.94511
6.80763 6.66736
6.52421 6.37807
6.22882 6.07634
5.92049 5.76112
5.59809 5.43123
5.26036 5.08528
4.90579 4.72165
4.53261 4.33839
4.13868 3.93315
3.7214 3.503
3.27746 3.04422
2.8026 2.55184
2.29099 2.0189
1.73413 1.43477
1.11818 0.780388
0.414371 0
7.40746 7.34185
7.21213 7.07992
6.94511 6.80763
6.66736 6.52421
6.37807 6.22882
6.07634 5.92049
5.76112 5.59809
5.43123 5.26036
5.08528 4.90579
4.72165 4.53261
4.33839 4.13868
3.93315 3.7214
3.503 3.27746
3.04422 2.8026
2.55184 2.29099
2.0189 1.73413
1.43477 1.11818
0.780388 0.414371
0 7.53355
7.46914 7.34185
7.21213 7.07992
6.94511 6.80763
6.66736 6.52421
6.37807 6.22882
6.07634 5.92049
5.76112 5.59809
5.43123 5.26036
5.08528 4.90579
4.72165 4.53261
4.33839 4.13868
3.93315 3.7214
3.503 3.27746
3.04422 2.8026
2.55184 2.29099
2.0189 1.73413
1.43477 1.11818
0.780388 0.414371
0 7.65733
7.5941 7.46914
7.34185 7.21213
7.07992 6.94511
6.80763 6.66736
6.52421 6.37807
6.22882 6.07634
5.92049 5.76112
5.59809 5.43123
5.26036 5.08528
4.90579 4.72165
4.53261 4.33839
4.13868 3.93315
3.7214 3.503
3.27746 3.04422
2.8026 2.55184
2.29099 2.0189
1.73413 1.43477
1.11818 0.780388
0.414371 0
7.77888 7.71678
7.5941 7.46914
7.34185 7.21213
7.07992 6.94511
6.80763 6.66736
6.52421 6.37807
6.22882 6.07634
5.92049 5.76112
5.59809 5.43123
5.26036 5.08528
4.90579 4.72165
4.53261 4.33839
4.13868 3.93315
3.7214 3.503
3.27746 3.04422
2.8026 2.55184
2.29099 2.0189
1.73413 1.43477
1.11818 0.780388
0.414371 0
7.89826 7.83727
7.71678 7.5941
7.46914 7.34185
7.21213 7.07992
6.94511 6.80763
6.66736 6.52421
6.37807 6.22882
6.07634 5.92049
5.76112 5.59809
5.43123 5.26036
5.08528 4.90579
4.72165 4.53261
4.33839 4.13868
3.93315 3.7214
3.503 3.27746
3.04422 2.8026
2.55184 2.29099
2.0189 1.73413
1.43477 1.11818
0.780388 0.414371
0 8.01555
7.95563 7.83727
7.71678 7.5941
7.46914 7.34185
7.21213 7.07992
6.94511 6.80763
6.66736 6.52421
6.37807 6.22882
6.07634 5.92049
5.76112 5.59809
5.43123 5.26036
5.08528 4.90579
4.72165 4.53261
4.33839 4.13868
3.93315 3.7214
3.503 3.27746
3.04422 2.8026
2.55184 2.29099
2.0189 1.73413
1.43477 1.11818
0.780388 0.414371
0 8.13081
8.07192 7.95563
7.83727 7.71678
7.5941 7.46914
7.34185 7.21213
7.07992 6.94511
6.80763 6.66736
6.52421 6.37807
6.22882 6.07634
5.92049 5.76112
5.59809 5.43123
5.26036 5.08528
4.90579 4.72165
4.53261 4.33839
4.13868 3.93315
3.7214 3.503
3.27746 3.04422
2.8026 2.55184
2.29099 2.0189
1.73413 1.43477
1.11818 0.780388
0.414371 0
8.24409 8.1862
8.07192 7.95563
7.83727 7.71678
7.5941 7.46914
7.34185 7.21213
7.07992 6.94511
6.80763 6.66736
6.52421 6.37807
6.22882 6.07634
5.92049 5.76112
5.59809 5.43123
5.26036 5.08528
4.90579 4.72165
4.53261 4.33839
4.13868 3.93315
3.7214 3.503
3.27746 3.04422
2.8026 2.55184
2.29099 2.0189
1.73413 1.43477
1.11818 0.780388
0.414371 0
8.35545 8.29854
8.1862 8.07192
7.95563 7.83727
7.71678 7.5941
7.46914 7.34185
7.21213 7.07992
6.94511 6.80763
6.66736 6.52421
6.37807 6.22882
6.07634 5.92049
5.76112 5.59809
5.43123 5.26036
5.08528 4.90579
4.72165 4.53261
4.33839 4.13868
3.93315 3.7214
3.503 3.27746
3.04422 2.8026
2.55184 2.29099
2.0189 1.73413
1.43477 1.11818
0.780388 0.414371
0 8.46494
8.40899 8.29854
8.1862 8.07192
7.95563 7.83727
7.71678 7.5941
7.46914 7.34185
7.21213 7.07992
6.94511 6.80763
6.66736 6.52421
6.37807 6.22882
6.07634 5.92049
5.76112 5.59809
5.43123 5.26036
5.08528 4.90579
4.72165 4.53261
4.33839 4.13868
3.93315 3.7214
3.503 3.27746
3.04422 2.8026
2.55184 2.29099
2.0189 1.73413
1.43477 1.11818
0.780388 0.414371
0 8.57262
8.51759 8.40899
8.29854 8.1862
8.07192 7.95563
7.83727 7.71678
7.5941 7.46914
7.34185 7.21213
7.07992 6.94511
6.80763 6.66736
6.52421 6.37807
6.22882 6.07634
5.92049 5.76112
5.59809 5.43123
5.26036 5.08528
4.90579 4.72165
4.53261 4.33839
4.13868 3.93315
3.7214 3.503
3.27746 3.04422
2.8026 2.55184
2.29099 2.0189
1.73413 1.43477
1.11818 0.780388
0.414371 0
8.67854 8.62441
8.51759 8.40899
8.29854 8.1862
8.07192 7.95563
7.83727 7.71678
7.5941 7.46914
7.34185 7.21213
7.07992 6.94511
6.80763 6.66736
6.52421 6.37807
6.22882 6.07634
5.92049 5.76112
5.59809 5.43123
5.26036 5.08528
4.90579 4.72165
4.53261 4.33839
4.13868 3.93315
3.7214 3.503
3.27746 3.04422
2.8026 2.55184
2.29099 2.0189
1.73413 1.43477
1.11818 0.780388
0.414371 0
8.78275 8.72949
8.62441 8.51759
8.40899 8.29854
8.1862 8.07192
7.95563 7.83727
7.71678 7.5941
7.46914 7.34185
7.21213 7.07992
6.94511 6.80763
6.66736 6.52421
6.37807 6.22882
6.07634 5.92049
5.76112 5.59809
5.43123 5.26036
5.08528 4.90579
4.72165 4.53261
4.33839 4.13868
3.93315 3.7214
3.503 3.27746
3.04422 2.8026
2.55184 2.29099
2.0189 1.73413
1.43477 1.11818
0.780388 0.414371
0 8.88528
8.83287 8.72949
8.62441 8.51759
8.40899 8.29854
8.1862 8.07192
7.95563 7.83727
7.71678 7.5941
7.46914 7.34185
7.21213 7.07992
6.94511 6.80763
6.66736 6.52421
6.37807 6.22882
6.07634 5.92049
5.76112 5.59809
5.43123 5.26036
5.08528 4.90579
4.72165 4.53261
4.33839 4.13868
3.93315 3.7214
3.503 3.27746
3.04422 2.8026
2.55184 2.29099
2.0189 1.73413
1.43477 1.11818
0.780388 0.414371
0 8.98618
8.93461 8.83287
8.72949 8.62441
8.51759 8.40899
8.29854 8.1862
8.07192 7.95563
7.83727 7.71678
7.5941 7.46914
7.34185 7.21213
7.07992 6.94511
6.80763 6.66736
6.52421 6.37807
6.22882 6.07634
5.92049 5.76112
5.59809 5.43123
5.26036 5.08528
4.90579 4.72165
4.53261 4.33839
4.13868 3.93315
3.7214 3.503
3.27746 3.04422
2.8026 2.55184
2.29099 2.0189
1.73413 1.43477
1.11818 0.780388
0.414371 0
9.0855 9.03474
8.93461 8.83287
8.72949 8.62441
8.51759 8.40899
8.29854 8.1862
8.07192 7.95563
7.83727 7.71678
7.5941 7.46914
7.34185 7.21213
7.07992 6.94511
6.80763 6.66736
6.52421 6.37807
6.22882 6.07634
5.92049 5.76112
5.59809 5.43123
5.26036 5.08528
4.90579 4.72165
4.53261 4.33839
4.13868 3.93315
3.7214 3.503
3.27746 3.04422
2.8026 2.55184
2.29099 2.0189
1.73413 1.43477
1.11818 0.780388
0.414371 0
9.18328 9.1333
9.03474 8.93461
8.83287 8.72949
8.62441 8.51759
8.40899 8.29854
8.1862 8.07192
7.95563 7.83727
7.71678 7.5941
7.46914 7.34185
7.21213 7.07992
6.94511 6.80763
6.66736 6.52421
6.37807 6.22882
6.07634 5.92049
5.76112 5.59809
5.43123 5.26036
5.08528 4.90579
4.72165 4.53261
4.33839 4.13868
3.93315 3.7214
3.503 3.27746
3.04422 2.8026
2.55184 2.29099
2.0189 1.73413
1.43477 1.11818
0.780388 0.414371
0 9.27955
9.23034 9.1333
9.03474 8.93461
8.83287 8.72949
8.62441 8.51759
8.40899 8.29854
8.1862 8.07192
7.95563 7.83727
7.71678 7.5941
7.46914 7.34185
7.21213 7.07992
6.94511 6.80763
6.66736 6.52421
6.37807 6.22882
6.07634 5.92049
5.76112 5.59809
5.43123 5.26036
5.08528 4.90579
4.72165 4.53261
4.33839 4.13868
3.93315 3.7214
3.503 3.27746
3.04422 2.8026
2.55184 2.29099
2.0189 1.73413
1.43477 1.11818
0.780388 0.414371
0 9.37435
9.32589 9.23034
9.1333 9.03474
8.93461 8.83287
8.72949 8.62441
8.51759 8.40899
8.29854 8.1862
8.07192 7.95563
7.83727 7.71678
7.5941 7.46914
7.34185 7.21213
7.07992 6.94511
6.80763 6.66736
6.52421 6.37807
6.22882 6.07634
5.92049 5.76112
5.59809 5.43123
5.26036 5.08528
4.90579 4.72165
4.53261 4.33839
4.13868 3.93315
3.7214 3.503
3.27746 3.04422
2.8026 2.55184
2.29099 2.0189
1.73413 1.43477
1.11818 0.780388
0.414371 0
9.46772 9.41999
9.32589 9.23034
9.1333 9.03474
8.93461 8.83287
8.72949 8.62441
8.51759 8.40899
8.29854 8.1862
8.07192 7.95563
7.83727 7.71678
7.5941 7.46914
7.34185 7.21213
7.07992 6.94511
6.80763 6.66736
6.52421 6.37807
6.22882 6.07634
5.92049 5.76112
5.59809 5.43123
5.26036 5.08528
4.90579 4.72165
4.53261 4.33839
4.13868 3.93315
3.7214 3.503
3.27746 3.04422
2.8026 2.55184
2.29099 2.0189
1.73413 1.43477
1.11818 0.780388
0.414371 0
9.55969 9.51267
9.41999 9.32589
9.23034 9.1333
9.03474 8.93461
8.83287 8.72949
8.62441 8.51759
8.40899 8.29854
8.1862 8.07192
7.95563 7.83727
7.71678 7.5941
7.46914 7.34185
7.21213 7.07992
6.94511 6.80763
6.66736 6.52421
6.37807 6.22882
6.07634 5.92049
5.76112 5.59809
5.43123 5.26036
5.08528 4.90579
4.72165 4.53261
4.33839 4.13868
3.93315 3.7214
3.503 3.27746
3.04422 2.8026
2.55184 2.29099
2.0189 1.73413
1.43477 1.11818
0.780388 0.414371
0 9.6503
9.60398 9.51267
9.41999 9.32589
9.23034 9.1333
9.03474 8.93461
8.83287 8.72949
8.62441 8.51759
8.40899 8.29854
8.1862 8.07192
7.95563 7.83727
7.71678 7.5941
7.46914 7.34185
7.21213 7.07992
6.94511 6.80763
6.66736 6.52421
6.37807 6.22882
6.07634 5.92049
5.76112 5.59809
5.43123 5.26036
5.08528 4.90579
4.72165 4.53261
4.33839 4.13868
3.93315 3.7214
3.503 3.27746
3.04422 2.8026
2.55184 2.29099
2.0189 1.73413
1.43477 1.11818
0.780388 0.414371
0 9.73957
9.69393 9.60398
9.51267 9.41999
9.32589 9.23034
9.1333 9.03474
8.93461 8.83287
8.72949 8.62441
8.51759 8.40899
8.29854 8.1862
8.07192 7.95563
7.83727 7.71678
7.5941 7.46914
7.34185 7.21213
7.07992 6.94511
6.80763 6.66736
6.52421 6.37807
6.22882 6.07634
5.92049 5.76112
5.59809 5.43123
5.26036 5.08528
4.90579 4.72165
4.53261 4.33839
4.13868 3.93315
3.7214 3.503
3.27746 3.04422
2.8026 2.55184
2.29099 2.0189
1.73413 1.43477
1.11818 0.780388
0.414371 0
9.82754 9.78256
9.69393 9.60398
9.51267 9.41999
9.32589 9.23034
9.1333 9.03474
8.93461 8.83287
8.72949 8.62441
8.51759 8.40899
8.29854 8.1862
8.07192 7.95563
7.83727 7.71678
7.5941 7.46914
7.34185 7.21213
7.07992 6.94511
6.80763 6.66736
6.52421 6.37807
6.22882 6.07634
5.92049 5.76112
5.59809 5.43123
5.26036 5.08528
4.90579 4.72165
4.53261 4.33839
4.13868 3.93315
3.7214 3.503
3.27746 3.04422
2.8026 2.55184
2.29099 2.0189
1.73413 1.43477
1.11818 0.780388
0.414371 0
9.91424 9.86991
9.78256 9.69393
9.60398 9.51267
9.41999 9.32589
9.23034 9.1333
9.03474 8.93461
8.83287 8.72949
8.62441 8.51759
8.40899 8.29854
8.1862 8.07192
7.95563 7.83727
7.71678 7.5941
7.46914 7.34185
7.21213 7.07992
6.94511 6.80763
6.66736 6.52421
6.37807 6.22882
6.07634 5.92049
5.76112 5.59809
5.43123 5.26036
5.08528 4.90579
4.72165 4.53261
4.33839 4.13868
3.93315 3.7214
3.503 3.27746
3.04422 2.8026
2.55184 2.29099
2.0189 1.73413
1.43477 1.11818
0.780388 0.414371
0 9.9997
9.956 9.86991
9.78256 9.69393
9.60398 9.51267
9.41999 9.32589
9.23034 9.1333
9.03474 8.93461
8.83287 8.72949
8.62441 8.51759
8.40899 8.29854
8.1862 8.07192
7.95563 7.83727
7.71678 7.5941
7.46914 7.34185
7.21213 7.07992
6.94511 6.80763
6.66736 6.52421
6.37807 6.22882
6.07634 5.92049
5.76112 5.59809
5.43123 5.26036
5.08528 4.90579
4.72165 4.53261
4.33839 4.13868
3.93315 3.7214
3.503 3.27746
3.04422 2.8026
2.55184 2.29099
2.0189 1.73413
1.43477 1.11818
0.780388 0.414371
0 10.0839
10.0409 9.956
9.86991 9.78256
9.69393 9.60398
9.51267 9.41999
9.32589 9.23034
9.1333 9.03474
8.93461 8.83287
8.72949 8.62441
8.51759 8.40899
8.29854 8.1862
8.07192 7.95563
7.83727 7.71678
7.5941 7.46914
7.34185 7.21213
7.07992 6.94511
6.80763 6.66736
6.52421 6.37807
6.22882 6.07634
5.92049 5.76112
5.59809 5.43123
5.26036 5.08528
4.90579 4.72165
4.53261 4.33839
4.13868 3.93315
3.7214 3.503
3.27746 3.04422
2.8026 2.55184
2.29099 2.0189
1.73413 1.43477
1.11818 0.780388
0.414371 0
10.167 10.1245
10.0409 9.956
9.86991 9.78256
9.69393 9.60398
9.51267 9.41999
9.32589 9.23034
9.1333 9.03474
8.93461 8.83287
8.72949 8.62441
8.51759 8.40899
8.29854 8.1862
8.07192 7.95563
7.83727 7.71678
7.5941 7.46914
7.34185 7.21213
7.07992 6.94511
6.80763 6.66736
6.52421 6.37807
6.22882 6.07634
5.92049 5.76112
5.59809 5.43123
5.26036 5.08528
4.90579 4.72165
4.53261 4.33839
4.13868 3.93315
3.7214 3.503
3.27746 3.04422
2.8026 2.55184
2.29099 2.0189
1.73413 1.43477
1.11818 0.780388
0.414371 0
10.2489 10.207
10.1245 10.0409
9.956 9.86991
9.78256 9.69393
9.60398 9.51267
9.41999 9.32589
9.23034 9.1333
9.03474 8.93461
8.83287 8.72949
8.62441 8.51759
8.40899 8.29854
8.1862 8.07192
7.95563 7.83727
7.71678 7.5941
7.46914 7.34185
7.21213 7.07992
6.94511 6.80763
6.66736 6.52421
6.37807 6.22882
6.07634 5.92049
5.76112 5.59809
5.43123 5.26036
5.08528 4.90579
4.72165 4.53261
4.33839 4.13868
3.93315 3.7214
3.503 3.27746
3.04422 2.8026
2.55184 2.29099
2.0189 1.73413
1.43477 1.11818
0.780388 0.414371
0 10.3296
10.2883 10.207
10.1245 10.0409
9.956 9.86991
9.78256 9.69393
9.60398 9.51267
9.41999 9.32589
9.23034 9.1333
9.03474 8.93461
8.83287 8.72949
8.62441 8.51759
8.40899 8.29854
8.1862 8.07192
7.95563 7.83727
7.71678 7.5941
7.46914 7.34185
7.21213 7.07992
6.94511 6.80763
6.66736 6.52421
6.37807 6.22882
6.07634 5.92049
5.76112 5.59809
5.43123 5.26036
5.08528 4.90579
4.72165 4.53261
4.33839 4.13868
3.93315 3.7214
3.503 3.27746
3.04422 2.8026
2.55184 2.29099
2.0189 1.73413
1.43477 1.11818
0.780388 0.414371
0 10.4093
10.3686 10.2883
10.207 10.1245
10.0409 9.956
9.86991 9.78256
9.69393 9.60398
9.51267 9.41999
9.32589 9.23034
9.1333 9.03474
8.93461 8.83287
8.72949 8.62441
8.51759 8.40899
8.29854 8.1862
8.07192 7.95563
7.83727 7.71678
7.5941 7.46914
7.34185 7.21213
7.07992 6.94511
6.80763 6.66736
6.52421 6.37807
6.22882 6.07634
5.92049 5.76112
5.59809 5.43123
5.26036 5.08528
4.90579 4.72165
4.53261 4.33839
4.13868 3.93315
3.7214 3.503
3.27746 3.04422
2.8026 2.55184
2.29099 2.0189
1.73413 1.43477
1.11818 0.780388
0.414371 0
10.4878 10.4477
10.3686 10.2883
10.207 10.1245
10.0409 9.956
9.86991 9.78256
9.69393 9.60398
9.51267 9.41999
9.32589 9.23034
9.1333 9.03474
8.93461 8.83287
8.72949 8.62441
8.51759 8.40899
8.29854 8.1862
8.07192 7.95563
7.83727 7.71678
7.5941 7.46914
7.34185 7.21213
7.07992 6.94511
6.80763 6.66736
6.52421 6.37807
6.22882 6.07634
5.92049 5.76112
5.59809 5.43123
5.26036 5.08528
4.90579 4.72165
4.53261 4.33839
4.13868 3.93315
3.7214 3.503
3.27746 3.04422
2.8026 2.55184
2.29099 2.0189
1.73413 1.43477
1.11818 0.780388
0.414371 0
10.5653 10.5257
10.4477 10.3686
10.2883 10.207
10.1245 10.0409
9.956 9.86991
9.78256 9.69393
9.60398 9.51267
9.41999 9.32589
9.23034 9.1333
9.03474 8.93461
8.83287 8.72949
8.62441 8.51759
8.40899 8.29854
8.1862 8.07192
7.95563 7.83727
7.71678 7.5941
7.46914 7.34185
7.21213 7.07992
6.94511 6.80763
6.66736 6.52421
6.37807 6.22882
6.07634 5.92049
5.76112 5.59809
5.43123 5.26036
5.08528 4.90579
4.72165 4.53261
4.33839 4.13868
3.93315 3.7214
3.503 3.27746
3.04422 2.8026
2.55184 2.29099
2.0189 1.73413
1.43477 1.11818
0.780388 0.414371
0 10.6418
10.6027 10.5257
10.4477 10.3686
10.2883 10.207
10.1245 10.0409
9.956 9.86991
9.78256 9.69393
9.60398 9.51267
9.41999 9.32589
9.23034 9.1333
9.03474 8.93461
8.83287 8.72949
8.62441 8.51759
8.40899 8.29854
8.1862 8.07192
7.95563 7.83727
7.71678 7.5941
7.46914 7.34185
7.21213 7.07992
6.94511 6.80763
6.66736 6.52421
6.37807 6.22882
6.07634 5.92049
5.76112 5.59809
5.43123 5.26036
5.08528 4.90579
4.72165 4.53261
4.33839 4.13868
3.93315 3.7214
3.503 3.27746
3.04422 2.8026
2.55184 2.29099
2.0189 1.73413
1.43477 1.11818
0.780388 0.414371
0 10.7172
10.6786 10.6027
10.5257 10.4477
10.3686 10.2883
10.207 10.1245
10.0409 9.956
9.86991 9.78256
9.69393 9.60398
9.51267 9.41999
9.32589 9.23034
9.1333 9.03474
8.93461 8.83287
8.72949 8.62441
8.51759 8.40899
8.29854 8.1862
8.07192 7.95563
7.83727 7.71678
7.5941 7.46914
7.34185 7.21213
7.07992 6.94511
6.80763 6.66736
6.52421 6.37807
6.22882 6.07634
5.92049 5.76112
5.59809 5.43123
5.26036 5.08528
4.90579 4.72165
4.53261 4.33839
4.13868 3.93315
3.7214 3.503
3.27746 3.04422
2.8026 2.55184
2.29099 2.0189
1.73413 1.43477
1.11818 0.780388
0.414371 0
10.7916 10.7536
10.6786 10.6027
10.5257 10.4477
10.3686 10.2883
10.207 10.1245
10.0409 9.956
9.86991 9.78256
9.69393 9.60398
9.51267 9.41999
9.32589 9.23034
9.1333 9.03474
8.93461 8.83287
8.72949 8.62441
8.51759 8.40899
8.29854 8.1862
8.07192 7.95563
7.83727 7.71678
7.5941 7.46914
7.34185 7.21213
7.07992 6.94511
6.80763 6.66736
6.52421 6.37807
6.22882 6.07634
5.92049 5.76112
5.59809 5.43123
5.26036 5.08528
4.90579 4.72165
4.53261 4.33839
4.13868 3.93315
3.7214 3.503
3.27746 3.04422
2.8026 2.55184
2.29099 2.0189
1.73413 1.43477
1.11818 0.780388
0.414371 0
10.8651 10.8275
10.7536 10.6786
10.6027 10.5257
10.4477 10.3686
10.2883 10.207
10.1245 10.0409
9.956 9.86991
9.78256 9.69393
9.60398 9.51267
9.41999 9.32589
9.23034 9.1333
9.03474 8.93461
8.83287 8.72949
8.62441 8.51759
8.40899 8.29854
8.1862 8.07192
7.95563 7.83727
7.71678 7.5941
7.46914 7.34185
7.21213 7.07992
6.94511 6.80763
6.66736 6.52421
6.37807 6.22882
6.07634 5.92049
5.76112 5.59809
5.43123 5.26036
5.08528 4.90579
4.72165 4.53261
4.33839 4.13868
3.93315 3.7214
3.503 3.27746
3.04422 2.8026
2.55184 2.29099
2.0189 1.73413
1.43477 1.11818
0.780388 0.414371
0 10.9375
10.9005 10.8275
10.7536 10.6786
10.6027 10.5257
10.4477 10.3686
10.2883 10.207
10.1245 10.0409
9.956 9.86991
9.78256 9.69393
9.60398 9.51267
9.41999 9.32589
9.23034 9.1333
9.03474 8.93461
8.83287 8.72949
8.62441 8.51759
8.40899 8.29854
8.1862 8.07192
7.95563 7.83727
7.71678 7.5941
7.46914 7.34185
7.21213 7.07992
6.94511 6.80763
6.66736 6.52421
6.37807 6.22882
6.07634 5.92049
5.76112 5.59809
5.43123 5.26036
5.08528 4.90579
4.72165 4.53261
4.33839 4.13868
3.93315 3.7214
3.503 3.27746
3.04422 2.8026
2.55184 2.29099
2.0189 1.73413
1.43477 1.11818
0.780388 0.414371
0 11.0091
10.9725 10.9005
10.8275 10.7536
10.6786 10.6027
10.5257 10.4477
10.3686 10.2883
10.207 10.1245
10.0409 9.956
9.86991 9.78256
9.69393 9.60398
9.51267 9.41999
9.32589 9.23034
9.1333 9.03474
8.93461 8.83287
8.72949 8.62441
8.51759 8.40899
8.29854 8.1862
8.07192 7.95563
7.83727 7.71678
7.5941 7.46914
7.34185 7.21213
7.07992 6.94511
6.80763 6.66736
6.52421 6.37807
6.22882 6.07634
5.92049 5.76112
5.59809 5.43123
5.26036 5.08528
4.90579 4.72165
4.53261 4.33839
4.13868 3.93315
3.7214 3.503
3.27746 3.04422
2.8026 2.55184
2.29099 2.0189
1.73413 1.43477
1.11818 0.780388
0.414371 0
11.0797 11.0436
10.9725 10.9005
10.8275 10.7536
10.6786 10.6027
10.5257 10.4477
10.3686 10.2883
10.207 10.1245
10.0409 9.956
9.86991 9.78256
9.69393 9.60398
9.51267 9.41999
9.32589 9.23034
9.1333 9.03474
8.93461 8.83287
8.72949 8.62441
8.51759 8.40899
8.29854 8.1862
8.07192 7.95563
7.83727 7.71678
7.5941 7.46914
7.34185 7.21213
7.07992 6.94511
6.80763 6.66736
6.52421 6.37807
6.22882 6.07634
5.92049 5.76112
5.59809 5.43123
5.26036 5.08528
4.90579 4.72165
4.53261 4.33839
4.13868 3.93315
3.7214 3.503
3.27746 3.04422
2.8026 2.55184
2.29099 2.0189
1.73413 1.43477
1.11818 0.780388
0.414371 0
11.1494 11.1137
11.0436 10.9725
10.9005 10.8275
10.7536 10.6786
10.6027 10.5257
10.4477 10.3686
10.2883 10.207
10.1245 10.0409
9.956 9.86991
9.78256 9.69393
9.60398 9.51267
9.41999 9.32589
9.23034 9.1333
9.03474 8.93461
8.83287 8.72949
8.62441 8.51759
8.40899 8.29854
8.1862 8.07192
7.95563 7.83727
7.71678 7.5941
7.46914 7.34185
7.21213 7.07992
6.94511 6.80763
6.66736 6.52421
6.37807 6.22882
6.07634 5.92049
5.76112 5.59809
5.43123 5.26036
5.08528 4.90579
4.72165 4.53261
4.33839 4.13868
3.93315 3.7214
3.503 3.27746
3.04422 2.8026
2.55184 2.29099
2.0189 1.73413
1.43477 1.11818
0.780388 0.414371
0 11.2182
11.183 11.1137
11.0436 10.9725
10.9005 10.8275
10.7536 10.6786
10.6027 10.5257
10.4477 10.3686
10.2883 10.207
10.1245 10.0409
9.956 9.86991
9.78256 9.69393
9.60398 9.51267
9.41999 9.32589
9.23034 9.1333
9.03474 8.93461
8.83287 8.72949
8.62441 8.51759
8.40899 8.29854
8.1862 8.07192
7.95563 7.83727
7.71678 7.5941
7.46914 7.34185
7.21213 7.07992
6.94511 6.80763
6.66736 6.52421
6.37807 6.22882
6.07634 5.92049
5.76112 5.59809
5.43123 5.26036
5.08528 4.90579
4.72165 4.53261
4.33839 4.13868
3.93315 3.7214
3.503 3.27746
3.04422 2.8026
2.55184 2.29099
2.0189 1.73413
1.43477 1.11818
0.780388 0.414371
0 11.2862
11.2514 11.183
11.1137 11.0436
10.9725 10.9005
10.8275 10.7536
10.6786 10.6027
10.5257 10.4477
10.3686 10.2883
10.207 10.1245
10.0409 9.956
9.86991 9.78256
9.69393 9.60398
9.51267 9.41999
9.32589 9.23034
9.1333 9.03474
8.93461 8.83287
8.72949 8.62441
8.51759 8.40899
8.29854 8.1862
8.07192 7.95563
7.83727 7.71678
7.5941 7.46914
7.34185 7.21213
7.07992 6.94511
6.80763 6.66736
6.52421 6.37807
6.22882 6.07634
5.92049 5.76112
5.59809 5.43123
5.26036 5.08528
4.90579 4.72165
4.53261 4.33839
4.13868 3.93315
3.7214 3.503
3.27746 3.04422
2.8026 2.55184
2.29099 2.0189
1.73413 1.43477
1.11818 0.780388
0.414371 0
11.3533 11.3189
11.2514 11.183
11.1137 11.0436
10.9725 10.9005
10.8275 10.7536
10.6786 10.6027
10.5257 10.4477
10.3686 10.2883
10.207 10.1245
10.0409 9.956
9.86991 9.78256
9.69393 9.60398
9.51267 9.41999
9.32589 9.23034
9.1333 9.03474
8.93461 8.83287
8.72949 8.62441
8.51759 8.40899
8.29854 8.1862
8.07192 7.95563
7.83727 7.71678
7.5941 7.46914
7.34185 7.21213
7.07992 6.94511
6.80763 6.66736
6.52421 6.37807
6.22882 6.07634
5.92049 5.76112
5.59809 5.43123
5.26036 5.08528
4.90579 4.72165
4.53261 4.33839
4.13868 3.93315
3.7214 3.503
3.27746 3.04422
2.8026 2.55184
2.29099 2.0189
1.73413 1.43477
1.11818 0.780388
0.414371 0
11.4195 11.3856
11.3189 11.2514
11.183 11.1137
11.0436 10.9725
10.9005 10.8275
10.7536 10.6786
10.6027 10.5257
10.4477 10.3686
10.2883 10.207
10.1245 10.0409
9.956 9.86991
9.78256 9.69393
9.60398 9.51267
9.41999 9.32589
9.23034 9.1333
9.03474 8.93461
8.83287 8.72949
8.62441 8.51759
8.40899 8.29854
8.1862 8.07192
7.95563 7.83727
7.71678 7.5941
7.46914 7.34185
7.21213 7.07992
6.94511 6.80763
6.66736 6.52421
6.37807 6.22882
6.07634 5.92049
5.76112 5.59809
5.43123 5.26036
5.08528 4.90579
4.72165 4.53261
4.33839 4.13868
3.93315 3.7214
3.503 3.27746
3.04422 2.8026
2.55184 2.29099
2.0189 1.73413
1.43477 1.11818
0.780388 0.414371
0 11.485
11.4515 11.3856
11.3189 11.2514
11.183 11.1137
11.0436 10.9725
10.9005 10.8275
10.7536 10.6786
10.6027 10.5257
10.4477 10.3686
10.2883 10.207
10.1245 10.0409
9.956 9.86991
9.78256 9.69393
9.60398 9.51267
9.41999 9.32589
9.23034 9.1333
9.03474 8.93461
8.83287 8.72949
8.62441 8.51759
8.40899 8.29854
8.1862 8.07192
7.95563 7.83727
7.71678 7.5941
7.46914 7.34185
7.21213 7.07992
6.94511 6.80763
6.66736 6.52421
6.37807 6.22882
6.07634 5.92049
5.76112 5.59809
5.43123 5.26036
5.08528 4.90579
4.72165 4.53261
4.33839 4.13868
3.93315 3.7214
3.503 3.27746
3.04422 2.8026
2.55184 2.29099
2.0189 1.73413
1.43477 1.11818
0.780388 0.414371
0 11.5496
11.5165 11.4515
11.3856 11.3189
11.2514 11.183
11.1137 11.0436
10.9725 10.9005
10.8275 10.7536
10.6786 10.6027
10.5257 10.4477
10.3686 10.2883
10.207 10.1245
10.0409 9.956
9.86991 9.78256
9.69393 9.60398
9.51267 9.41999
9.32589 9.23034
9.1333 9.03474
8.93461 8.83287
8.72949 8.62441
8.51759 8.40899
8.29854 8.1862
8.07192 7.95563
7.83727 7.71678
7.5941 7.46914
7.34185 7.21213
7.07992 6.94511
6.80763 6.66736
6.52421 6.37807
6.22882 6.07634
5.92049 5.76112
5.59809 5.43123
5.26036 5.08528
4.90579 4.72165
4.53261 4.33839
4.13868 3.93315
3.7214 3.503
3.27746 3.04422
2.8026 2.55184
2.29099 2.0189
1.73413 1.43477
1.11818 0.780388
0.414371 0
11.6134 11.5808
11.5165 11.4515
11.3856 11.3189
11.2514 11.183
11.1137 11.0436
10.9725 10.9005
10.8275 10.7536
10.6786 10.6027
10.5257 10.4477
10.3686 10.2883
10.207 10.1245
10.0409 9.956
9.86991 9.78256
9.69393 9.60398
9.51267 9.41999
9.32589 9.23034
9.1333 9.03474
8.93461 8.83287
8.72949 8.62441
8.51759 8.40899
8.29854 8.1862
8.07192 7.95563
7.83727 7.71678
7.5941 7.46914
7.34185 7.21213
7.07992 6.94511
6.80763 6.66736
6.52421 6.37807
6.22882 6.07634
5.92049 5.76112
5.59809 5.43123
5.26036 5.08528
4.90579 4.72165
4.53261 4.33839
4.13868 3.93315
3.7214 3.503
3.27746 3.04422
2.8026 2.55184
2.29099 2.0189
1.73413 1.43477
1.11818 0.780388
0.414371 0
11.6765 11.6442
11.5808 11.5165
11.4515 11.3856
11.3189 11.2514
11.183 11.1137
11.0436 10.9725
10.9005 10.8275
10.7536 10.6786
10.6027 10.5257
10.4477 10.3686
10.2883 10.207
10.1245 10.0409
9.956 9.86991
9.78256 9.69393
9.60398 9.51267
9.41999 9.32589
9.23034 9.1333
9.03474 8.93461
8.83287 8.72949
8.62441 8.51759
8.40899 8.29854
8.1862 8.07192
7.95563 7.83727
7.71678 7.5941
7.46914 7.34185
7.21213 7.07992
6.94511 6.80763
6.66736 6.52421
6.37807 6.22882
6.07634 5.92049
5.76112 5.59809
5.43123 5.26036
5.08528 4.90579
4.72165 4.53261
4.33839 4.13868
3.93315 3.7214
3.503 3.27746
3.04422 2.8026
2.55184 2.29099
2.0189 1.73413
1.43477 1.11818
0.780388 0.414371
0 11.7388
11.7069 11.6442
11.5808 11.5165
11.4515 11.3856
11.3189 11.2514
11.183 11.1137
11.0436 10.9725
10.9005 10.8275
10.7536 10.6786
10.6027 10.5257
10.4477 10.3686
10.2883 10.207
10.1245 10.0409
9.956 9.86991
9.78256 9.69393
9.60398 9.51267
9.41999 9.32589
9.23034 9.1333
9.03474 8.93461
8.83287 8.72949
8.62441 8.51759
8.40899 8.29854
8.1862 8.07192
7.95563 7.83727
7.71678 7.5941
7.46914 7.34185
7.21213 7.07992
6.94511 6.80763
6.66736 6.52421
6.37807 6.22882
6.07634 5.92049
5.76112 5.59809
5.43123 5.26036
5.08528 4.90579
4.72165 4.53261
4.33839 4.13868
3.93315 3.7214
3.503 3.27746
3.04422 2.8026
2.55184 2.29099
2.0189 1.73413
1.43477 1.11818
0.780388 0.414371
0 11.8003
11.7688 11.7069
11.6442 11.5808
11.5165 11.4515
11.3856 11.3189
11.2514 11.183
11.1137 11.0436
10.9725 10.9005
10.8275 10.7536
10.6786 10.6027
10.5257 10.4477
10.3686 10.2883
10.207 10.1245
10.0409 9.956
9.86991 9.78256
9.69393 9.60398
9.51267 9.41999
9.32589 9.23034
9.1333 9.03474
8.93461 8.83287
8.72949 8.62441
8.51759 8.40899
8.29854 8.1862
8.07192 7.95563
7.83727 7.71678
7.5941 7.46914
7.34185 7.21213
7.07992 6.94511
6.80763 6.66736
6.52421 6.37807
6.22882 6.07634
5.92049 5.76112
5.59809 5.43123
5.26036 5.08528
4.90579 4.72165
4.53261 4.33839
4.13868 3.93315
3.7214 3.503
3.27746 3.04422
2.8026 2.55184
2.29099 2.0189
1.73413 1.43477
1.11818 0.780388
0.414371 0
11.8611 11.83
11.7688 11.7069
11.6442 11.5808
11.5165 11.4515
11.3856 11.3189
11.2514 11.183
11.1137 11.0436
10.9725 10.9005
10.8275 10.7536
10.6786 10.6027
10.5257 10.4477
10.3686 10.2883
10.207 10.1245
10.0409 9.956
9.86991 9.78256
9.69393 9.60398
9.51267 9.41999
9.32589 9.23034
9.1333 9.03474
8.93461 8.83287
8.72949 8.62441
8.51759 8.40899
8.29854 8.1862
8.07192 7.95563
7.83727 7.71678
7.5941 7.46914
7.34185 7.21213
7.07992 6.94511
6.80763 6.66736
6.52421 6.37807
6.22882 6.07634
5.92049 5.76112
5.59809 5.43123
5.26036 5.08528
4.90579 4.72165
4.53261 4.33839
4.13868 3.93315
3.7214 3.503
3.27746 3.04422
2.8026 2.55184
2.29099 2.0189
1.73413 1.43477
1.11818 0.780388
0.414371 0
11.9212 11.8905
11.83 11.7688
11.7069 11.6442
11.5808 11.5165
11.4515 11.3856
11.3189 11.2514
11.183 11.1137
11.0436 10.9725
10.9005 10.8275
10.7536 10.6786
10.6027 10.5257
10.4477 10.3686
10.2883 10.207
10.1245 10.0409
9.956 9.86991
9.78256 9.69393
9.60398 9.51267
9.41999 9.32589
9.23034 9.1333
9.03474 8.93461
8.83287 8.72949
8.62441 8.51759
8.40899 8.29854
8.1862 8.07192
7.95563 7.83727
7.71678 7.5941
7.46914 7.34185
7.21213 7.07992
6.94511 6.80763
6.66736 6.52421
6.37807 6.22882
6.07634 5.92049
5.76112 5.59809
5.43123 5.26036
5.08528 4.90579
4.72165 4.53261
4.33839 4.13868
3.93315 3.7214
3.503 3.27746
3.04422 2.8026
2.55184 2.29099
2.0189 1.73413
1.43477 1.11818
0.780388 0.414371
0 11.9806
11.9502 11.8905
11.83 11.7688
11.7069 11.6442
11.5808 11.5165
11.4515 11.3856
11.3189 11.2514
11.183 11.1137
11.0436 10.9725
10.9005 10.8275
10.7536 10.6786
10.6027 10.5257
10.4477 10.3686
10.2883 10.207
10.1245 10.0409
9.956 9.86991
9.78256 9.69393
9.60398 9.51267
9.41999 9.32589
9.23034 9.1333
9.03474 8.93461
8.83287 8.72949
8.62441 8.51759
8.40899 8.29854
8.1862 8.07192
7.95563 7.83727
7.71678 7.5941
7.46914 7.34185
7.21213 7.07992
6.94511 6.80763
6.66736 6.52421
6.37807 6.22882
6.07634 5.92049
5.76112 5.59809
5.43123 5.26036
5.08528 4.90579
4.72165 4.53261
4.33839 4.13868
3.93315 3.7214
3.503 3.27746
3.04422 2.8026
2.55184 2.29099
2.0189 1.73413
1.43477 1.11818
0.780388 0.414371
0 12.0392
12.0092 11.9502
11.8905 11.83
11.7688 11.7069
11.6442 11.5808
11.5165 11.4515
11.3856 11.3189
11.2514 11.183
11.1137 11.0436
10.9725 10.9005
10.8275 10.7536
10.6786 10.6027
10.5257 10.4477
10.3686 10.2883
10.207 10.1245
10.0409 9.956
9.86991 9.78256
9.69393 9.60398
9.51267 9.41999
9.32589 9.23034
9.1333 9.03474
8.93461 8.83287
8.72949 8.62441
8.51759 8.40899
8.29854 8.1862
8.07192 7.95563
7.83727 7.71678
7.5941 7.46914
7.34185 7.21213
7.07992 6.94511
6.80763 6.66736
6.52421 6.37807
6.22882 6.07634
5.92049 5.76112
5.59809 5.43123
5.26036 5.08528
4.90579 4.72165
4.53261 4.33839
4.13868 3.93315
3.7214 3.503
3.27746 3.04422
2.8026 2.55184
2.29099 2.0189
1.73413 1.43477
1.11818 0.780388
0.414371 0
12.0972 12.0676
12.0092 11.9502
11.8905 11.83
11.7688 11.7069
11.6442 11.5808
11.5165 11.4515
11.3856 11.3189
11.2514 11.183
11.1137 11.0436
10.9725 10.9005
10.8275 10.7536
10.6786 10.6027
10.5257 10.4477
10.3686 10.2883
10.207 10.1245
10.0409 9.956
9.86991 9.78256
9.69393 9.60398
9.51267 9.41999
9.32589 9.23034
9.1333 9.03474
8.93461 8.83287
8.72949 8.62441
8.51759 8.40899
8.29854 8.1862
8.07192 7.95563
7.83727 7.71678
7.5941 7.46914
7.34185 7.21213
7.07992 6.94511
6.80763 6.66736
6.52421 6.37807
6.22882 6.07634
5.92049 5.76112
5.59809 5.43123
5.26036 5.08528
4.90579 4.72165
4.53261 4.33839
4.13868 3.93315
3.7214 3.503
3.27746 3.04422
2.8026 2.55184
2.29099 2.0189
1.73413 1.43477
1.11818 0.780388
0.414371 0
12.1545 12.1252
12.0676 12.0092
11.9502 11.8905
11.83 11.7688
11.7069 11.6442
11.5808 11.5165
11.4515 11.3856
11.3189 11.2514
11.183 11.1137
11.0436 10.9725
10.9005 10.8275
10.7536 10.6786
10.6027 10.5257
10.4477 10.3686
10.2883 10.207
10.1245 10.0409
9.956 9.86991
9.78256 9.69393
9.60398 9.51267
9.41999 9.32589
9.23034 9.1333
9.03474 8.93461
8.83287 8.72949
8.62441 8.51759
8.40899 8.29854
8.1862 8.07192
7.95563 7.83727
7.71678 7.5941
7.46914 7.34185
7.21213 7.07992
6.94511 6.80763
6.66736 6.52421
6.37807 6.22882
6.07634 5.92049
5.76112 5.59809
5.43123 5.26036
5.08528 4.90579
4.72165 4.53261
4.33839 4.13868
3.93315 3.7214
3.503 3.27746
3.04422 2.8026
2.55184 2.29099
2.0189 1.73413
1.43477 1.11818
0.780388 0.414371
0 12.2112
12.1822 12.1252
12.0676 12.0092
11.9502 11.8905
11.83 11.7688
11.7069 11.6442
11.5808 11.5165
11.4515 11.3856
11.3189 11.2514
11.183 11.1137
11.0436 10.9725
10.9005 10.8275
10.7536 10.6786
10.6027 10.5257
10.4477 10.3686
10.2883 10.207
10.1245 10.0409
9.956 9.86991
9.78256 9.69393
9.60398 9.51267
9.41999 9.32589
9.23034 9.1333
9.03474 8.93461
8.83287 8.72949
8.62441 8.51759
8.40899 8.29854
8.1862 8.07192
7.95563 7.83727
7.71678 7.5941
7.46914 7.34185
7.21213 7.07992
6.94511 6.80763
6.66736 6.52421
6.37807 6.22882
6.07634 5.92049
5.76112 5.59809
5.43123 5.26036
5.08528 4.90579
4.72165 4.53261
4.33839 4.13868
3.93315 3.7214
3.503 3.27746
3.04422 2.8026
2.55184 2.29099
2.0189 1.73413
1.43477 1.11818
0.780388 0.414371
0 12.2672
12.2385 12.1822
12.1252 12.0676
12.0092 11.9502
11.8905 11.83
11.7688 11.7069
11.6442 11.5808
11.5165 11.4515
11.3856 11.3189
11.2514 11.183
11.1137 11.0436
10.9725 10.9005
10.8275 10.7536
10.6786 10.6027
10.5257 10.4477
10.3686 10.2883
10.207 10.1245
10.0409 9.956
9.86991 9.78256
9.69393 9.60398
9.51267 9.41999
9.32589 9.23034
9.1333 9.03474
8.93461 8.83287
8.72949 8.62441
8.51759 8.40899
8.29854 8.1862
8.07192 7.95563
7.83727 7.71678
7.5941 7.46914
7.34185 7.21213
7.07992 6.94511
6.80763 6.66736
6.52421 6.37807
6.22882 6.07634
5.92049 5.76112
5.59809 5.43123
5.26036 5.08528
4.90579 4.72165
4.53261 4.33839
4.13868 3.93315
3.7214 3.503
3.27746 3.04422
2.8026 2.55184
2.29099 2.0189
1.73413 1.43477
1.11818 0.780388
0.414371 0
12.3225 12.2942
12.2385 12.1822
12.1252 12.0676
12.0092 11.9502
11.8905 11.83
11.7688 11.7069
11.6442 11.5808
11.5165 11.4515
11.3856 11.3189
11.2514 11.183
11.1137 11.0436
10.9725 10.9005
10.8275 10.7536
10.6786 10.6027
10.5257 10.4477
10.3686 10.2883
10.207 10.1245
10.0409 9.956
9.86991 9.78256
9.69393 9.60398
9.51267 9.41999
9.32589 9.23034
9.1333 9.03474
8.93461 8.83287
8.72949 8.62441
8.51759 8.40899
8.29854 8.1862
8.07192 7.95563
7.83727 7.71678
7.5941 7.46914
7.34185 7.21213
7.07992 6.94511
6.80763 6.66736
6.52421 6.37807
6.22882 6.07634
5.92049 5.76112
5.59809 5.43123
5.26036 5.08528
4.90579 4.72165
4.53261 4.33839
4.13868 3.93315
3.7214 3.503
3.27746 3.04422
2.8026 2.55184
2.29099 2.0189
1.73413 1.43477
1.11818 0.780388
0.414371 0
12.3773 12.3493
12.2942 12.2385
12.1822 12.1252
12.0676 12.0092
11.9502 11.8905
11.83 11.7688
11.7069 11.6442
11.5808 11.5165
11.4515 11.3856
11.3189 11.2514
11.183 11.1137
11.0436 10.9725
10.9005 10.8275
10.7536 10.6786
10.6027 10.5257
10.4477 10.3686
10.2883 10.207
10.1245 10.0409
9.956 9.86991
9.78256 9.69393
9.60398 9.51267
9.41999 9.32589
9.23034 9.1333
9.03474 8.93461
8.83287 8.72949
8.62441 8.51759
8.40899 8.29854
8.1862 8.07192
7.95563 7.83727
7.71678 7.5941
7.46914 7.34185
7.21213 7.07992
6.94511 6.80763
6.66736 6.52421
6.37807 6.22882
6.07634 5.92049
5.76112 5.59809
5.43123 5.26036
5.08528 4.90579
4.72165 4.53261
4.33839 4.13868
3.93315 3.7214
3.503 3.27746
3.04422 2.8026
2.55184 2.29099
2.0189 1.73413
1.43477 1.11818
0.780388 0.414371
0 12.4314
12.4037 12.3493
12.2942 12.2385
12.1822 12.1252
12.0676 12.0092
11.9502 11.8905
11.83 11.7688
11.7069 11.6442
11.5808 11.5165
11.4515 11.3856
11.3189 11.2514
11.183 11.1137
11.0436 10.9725
10.9005 10.8275
10.7536 10.6786
10.6027 10.5257
10.4477 10.3686
10.2883 10.207
10.1245 10.0409
9.956 9.86991
9.78256 9.69393
9.60398 9.51267
9.41999 9.32589
9.23034 9.1333
9.03474 8.93461
8.83287 8.72949
8.62441 8.51759
8.40899 8.29854
8.1862 8.07192
7.95563 7.83727
7.71678 7.5941
7.46914 7.34185
7.21213 7.07992
6.94511 6.80763
6.66736 6.52421
6.37807 6.22882
6.07634 5.92049
5.76112 5.59809
5.43123 5.26036
5.08528 4.90579
4.72165 4.53261
4.33839 4.13868
3.93315 3.7214
3.503 3.27746
3.04422 2.8026
2.55184 2.29099
2.0189 1.73413
1.43477 1.11818
0.780388 0.414371
0 12.4849
12.4575 12.4037
12.3493 12.2942
12.2385 12.1822
12.1252 12.0676
12.0092 11.9502
11.8905 11.83
11.7688 11.7069
11.6442 11.5808
11.5165 11.4515
11.3856 11.3189
11.2514 11.183
11.1137 11.0436
10.9725 10.9005
10.8275 10.7536
10.6786 10.6027
10.5257 10.4477
10.3686 10.2883
10.207 10.1245
10.0409 9.956
9.86991 9.78256
9.69393 9.60398
9.51267 9.41999
9.32589 9.23034
9.1333 9.03474
8.93461 8.83287
8.72949 8.62441
8.51759 8.40899
8.29854 8.1862
8.07192 7.95563
7.83727 7.71678
7.5941 7.46914
7.34185 7.21213
7.07992 6.94511
6.80763 6.66736
6.52421 6.37807
6.22882 6.07634
5.92049 5.76112
5.59809 5.43123
5.26036 5.08528
4.90579 4.72165
4.53261 4.33839
4.13868 3.93315
3.7214 3.503
3.27746 3.04422
2.8026 2.55184
2.29099 2.0189
1.73413 1.43477
1.11818 0.780388
0.414371 0
12.5377 12.5107
12.4575 12.4037
12.3493 12.2942
12.2385 12.1822
12.1252 12.0676
12.0092 11.9502
11.8905 11.83
11.7688 11.7069
11.6442 11.5808
11.5165 11.4515
11.3856 11.3189
11.2514 11.183
11.1137 11.0436
10.9725 10.9005
10.8275 10.7536
10.6786 10.6027
10.5257 10.4477
10.3686 10.2883
10.207 10.1245
10.0409 9.956
9.86991 9.78256
9.69393 9.60398
9.51267 9.41999
9.32589 9.23034
9.1333 9.03474
8.93461 8.83287
8.72949 8.62441
8.51759 8.40899
8.29854 8.1862
8.07192 7.95563
7.83727 7.71678
7.5941 7.46914
7.34185 7.21213
7.07992 6.94511
6.80763 6.66736
6.52421 6.37807
6.22882 6.07634
5.92049 5.76112
5.59809 5.43123
5.26036 5.08528
4.90579 4.72165
4.53261 4.33839
4.13868 3.93315
3.7214 3.503
3.27746 3.04422
2.8026 2.55184
2.29099 2.0189
1.73413 1.43477
1.11818 0.780388
0.414371 0
12.5667 12.5398
12.487 12.4335
12.3794 12.3247
12.2694 12.2134
12.1568 12.0995
12.0416 11.9829
11.9236 11.8635
11.8027 11.7412
11.679 11.6159
11.5521 11.4875
11.4221 11.3559
11.2888 11.2209
11.1521 11.0825
11.0119 10.9404
10.8679 10.7945
10.7202 10.6448
10.5684 10.4909
10.4124 10.3328
10.2521 10.1703
10.0872 10.0031
9.91765 9.831
9.74308 9.65386
9.5633 9.47139
9.37807 9.28333
9.18712 9.0894
8.99015 8.8893
8.78684 8.6827
8.57685 8.46924
8.35982 8.24853
8.13533 8.02015
7.90294 7.78364
7.66218 7.53849
7.4125 7.28413
7.15331 7.01994
6.88395 6.74523
6.60369 6.45922
6.3117 6.16102
6.00705 5.84965
5.68866 5.52394
5.35531 5.18258
5.00555 4.82401
4.63771 4.44639
4.24976 4.04749
3.83922 3.62456
3.40303 3.17412
2.93722 2.69161
2.43646 2.17075
1.89319 1.60216
1.29548 0.97002
0.620781 0.237767
0 