# Created by Octave 6.2.0, Tue Jun 29 18:34:05 2021 CEST <alatina@andreas-imac.home>
# name: E0
# type: matrix
# rows: 189
# columns: 6
 0.28250000011300003 0.12479374759517423 9.1896055125254339e-05 1.3834822857055413 1.3923533746384171 315.03206909903093
 0.3225000001129994 0.12479374759517423 9.1896055125254339e-05 1.382399482230398 1.3934930063562976 315.03206927730679
 0.80484472458799938 0.12479374759517423 9.1896055125254339e-05 1.3813378783391805 1.3946446821190535 315.03207416198916
 0.84484472458800031 0.12479374759517423 9.1896055125254339e-05 1.3835675911083871 1.3941034132650794 315.03207872892449
 1.967155701405003 0.12479374759517423 9.1896055125254339e-05 1.3859984432685273 1.3936306660851914 315.03207992943027
 2.0071557014049977 0.12479374759517423 9.1896055125254339e-05 1.3859344802031999 1.3936426083656206 315.03208193656332
 6.5576517047350054 0.12479365918707261 9.1704723932749252e-05 1.3858734474446883 1.3931429971422287 314.48778472857339
 6.5976517047349832 0.12479365918707261 9.1704723932749252e-05 1.3850714703940912 1.3926759627305783 314.48778725801253
 6.9825258686729921 0.12479365918707261 9.1704723932749252e-05 1.3843508448356814 1.392648993417871 314.48779083474261
 7.0225258686730179 0.12479365918707261 9.1704723932749252e-05 1.3875349835528588 1.3928206777773955 314.48779261104318
 8.5672799456530111 0.12479365918707261 9.1704723932749252e-05 1.3920971329055956 1.3939068358184437 314.48779181335124
 8.6072799456529836 0.12479365918707261 9.1704723932749252e-05 1.3920022586301086 1.3926812449734618 314.48779187115343
 12.732282181906001 0.12475262652543925 8.5556598732184646e-05 1.4921809273656463 2.2836952504119035 314.48789418496227
 12.772282181905984 0.12475262652543925 8.5556598732184646e-05 1.4926890831008313 2.2845422618194471 314.48787758330474
 15.097282181905998 0.15051997460032446 0.00046751047132255632 1.582697766336959 2.3557239609994438 314.48797211349415
 15.137282181905976 0.15051997460032446 0.00046751047132255632 1.5777027034217961 2.3946314835180469 314.48795950928059
 17.462282181905962 0.1762873386141213 0.00092171700492519378 1.5819248615018322 2.5007325432566825 314.4879585836141
 17.502282181905972 0.1762873386141213 0.00092171700492519378 1.6091385706760066 2.4941133588999422 314.48805157309954
 19.827282181905971 0.20205471370451389 0.001378515997033548 1.7337970455370799 2.5548864298524854 314.48806370296802
 19.867282181905974 0.20205471370451389 0.001378515997033548 1.6887066826132746 2.6908004951426601 314.48811484954751
 22.192282181905998 0.2278220961439312 0.0018359732365380444 1.7907271403871312 2.9607168202904943 314.48822980510323
 22.23228218190599 0.2278220961439312 0.0018359732365380444 2.1206206453062606 2.8959957274289554 314.48828289564756
 24.55728218190599 0.25358948578005369 0.002293694620051712 2.6628840010689987 2.9517573105625177 314.48834708474936
 24.597282181905982 0.25358948578005369 0.002293694620051712 2.6133585144063662 3.257602187929145 314.48827960377486
 26.922282181906048 0.27935688377933199 0.0027515475045035258 2.5849758714619542 3.7203786838070716 314.48812677693547
 26.962282181906041 0.27935688377933199 0.0027515475045035258 2.637871525775203 3.678411685115718 314.48803359304384
 29.287282181906004 0.27156142862285831 0.002903311666966649 3.6534207415668889 4.3143473375129524 314.48796583022408
 29.327282181905989 0.27156142862285831 0.002903311666966649 3.5670065943387859 4.5953926358572943 314.48808363760787
 30.85415369762708 0.27156142862285831 0.002903311666966649 3.4816650055349849 4.9206408026759805 314.48829238879284
 30.894153697627065 0.27156142862285831 0.002903311666966649 3.5730558106426207 4.8792426939858311 314.48850043541375
 37.576734100557104 0.27156142862285831 0.002903311666966649 3.669671729901002 4.8390592151095122 314.48868425407807
 37.616734100557068 0.27156142862285831 0.002903311666966649 3.991122543845242 6.1042680955807667 314.48935396491356
 37.945751440232023 0.27156142862285831 0.002903311666966649 7.4617975430430512 7.627549989949423 314.49252881927356
 37.985751440231986 0.27156142862285831 0.002903311666966649 5.3694639021151547 7.2553185943427057 314.49669904556873
 38.31075815707608 0.27156142862285831 0.002903311666966649 3.5488870199294347 6.9093155950105567 314.49931149296799
 38.350758157076051 0.27156142862285831 0.002903311666966649 4.9982790043440755 6.5136791216457448 314.50039841541479
 49.190511307285007 0.27152990320823617 0.0028817645258948023 10.43191227624369 6.1447274546987538 27.018240918052133
 49.230511307284978 0.27152990320823617 0.0028817645258948023 10.325845276695201 7.7280477256586115 27.017465965505512
 49.806397788670068 0.27152990320823617 0.0028817645258948023 10.278701885142377 9.7258361883287243 27.013732639320565
 49.846397788670039 0.27152990320823617 0.0028817645258948023 10.917181032634437 8.357148760330686 27.011110980033415
 51.138873063569939 0.27152990320823617 0.0028817645258948023 12.216624350568647 7.1563849086314359 27.010757399714169
 51.17887306356991 0.27152990320823617 0.0028817645258948023 12.090761562637493 7.7990268468851776 27.009431204825216
 53.753873063569962 0.27152990320823617 0.0028817645258948023 11.970613098181163 8.4793391290532014 27.008580028853284
 53.793873063569947 0.27152990320823617 0.0028817645258948023 12.840648227120264 8.2688125701572535 27.007970561885276
 55.218873063569909 0.27152990320823617 0.0028817645258948023 13.931184482809156 8.066766775583865 27.007947504099942
 55.258873063569879 0.27152990320823617 0.0028817645258948023 13.386831230051312 8.5915294885152154 27.008063483192345
 56.683873063569983 0.27152990320823617 0.0028817645258948023 12.894801147427335 9.2118026041483105 27.007419590909873
 56.723873063569947 0.27152990320823617 0.0028817645258948023 14.342868133182742 8.9704413351691272 27.007062690918541
 58.148873063570051 0.27152990320823617 0.0028817645258948023 16.077061402400048 8.7466768412150451 27.006973068223161
 58.188873063570014 0.27152990320823617 0.0028817645258948023 15.545471731749206 9.3801770918615404 27.007106235013548
 59.61387306356999 0.27152990320823617 0.0028817645258948023 15.035125581694551 10.111299927976566 27.007704219657008
 59.653873063569989 0.27152990320823617 0.0028817645258948023 15.994683231116166 9.8455088003489415 27.008049448150437
 61.228957434157849 0.27152990320823617 0.0028817645258948023 16.976445000039632 9.5875841444409726 27.000379555351614
 61.268957434157812 0.27152990320823617 0.0028817645258948023 17.29276478664282 8.8385907437584539 26.998877136743754
 61.624168068364952 0.27152990320823617 0.0028817645258948023 17.601139134514835 8.1177956207167092 26.996647302043556
 61.664168068364916 0.27152990320823617 0.0028817645258948023 17.295578668900674 10.225938279757619 26.994514688181869
 63.706546779434809 0.27152990320823617 0.0028817645258948023 16.991994708538208 12.703632524676355 26.992301886966469
 63.746546779434809 0.27152990320823617 0.0028817645258948023 17.489497324231102 12.631869019750258 26.989698638139348
 64.071546790861944 0.27152990320823617 0.0028817645258948023 18.015838494735103 12.562338715222351 26.98769249617504
 64.11154679086205 0.27152990320823617 0.0028817645258948023 20.862544252589405 12.314055618221296 26.986873799519493
 66.546546790861839 0.3149527954758401 0.0028925155735406894 24.091809347520257 12.46396771661661 26.986560016123629
 66.586546790861846 0.3149527954758401 0.0028925155735406894 23.668115029201502 13.735358274563874 26.986384359151202
 69.021546790861962 0.35837573106434539 0.0029032995345523727 23.833857389434648 15.526157168849236 26.986869003654405
 69.061546790861954 0.35837573106434539 0.0029032995345523727 25.246799284583595 15.227342459652169 26.987079831411947
 71.496546790862098 0.40179870415631924 0.0029141140392707904 27.308893339780475 15.165833647857831 26.986765658344076
 71.53654679086209 0.40179870415631924 0.0029141140392707904 26.838175162693641 16.259710261116542 26.986358395766853
 73.971546790861979 0.44522171699825813 0.0029249546920514877 26.659180402556572 17.604091859569667 26.985655688639049
 74.011546790861942 0.44522171699825813 0.0029249546920514877 29.327752770333792 17.382934574792952 26.985310829172278
 76.446546790862143 0.48864476399186219 0.002935825141262872 32.270486344844521 17.505968784194117 26.985452855460089
 76.486546790862107 0.48864476399186219 0.002935825141262872 31.822906141937384 18.672171131781102 26.985754746672875
 78.921546790862294 0.5320678418439817 0.0029467288713668272 31.776133194704006 20.229288614461996 26.986191208824057
 78.961546790862272 0.5320678418439817 0.0029467288713668272 33.070858506602406 19.945273958995777 26.986343705884341
 81.396546790862033 0.57549094782815058 0.0029576615896372686 34.849657260276267 19.874175728959141 26.985989999974539
 81.436546790861996 0.57549094782815058 0.0029576615896372686 34.49954463061124 21.00121212920974 26.985503840312077
 83.871546790862283 0.61891408461981445 0.0029686201834493355 34.492962812726333 22.324633980594225 26.98506597207092
 83.911546790862261 0.61891408461981445 0.0029686201834493355 36.84399727667985 22.115215869903071 26.98492444535735
 86.34654679086205 0.61891408461981445 0.0029686201834493355 39.247278808521756 21.906349953062655 26.985253438092883
 86.386546790862411 0.61891408461981445 0.0029686201834493355 38.737051873502892 23.037858796914342 26.985669484513892
 88.583574001695339 0.61891408461981445 0.0029686201834493355 38.23249217657817 24.199644487708785 26.985916168201189
 88.623574001695246 0.61891408461981445 0.0029686201834493355 38.302010320591883 24.182765445348569 26.985992491637763
 94.075168430055157 0.61891408461981445 0.0029686201834493355 38.372755603688852 24.166224759841892 26.986065841416821
 94.115168430055036 0.61891408461981445 0.0029686201834493355 27.108520685472385 27.769230035776413 26.986800074194267
 94.444042266624223 0.61891408461981445 0.0029686201834493355 20.765520122860543 31.41682323832708 26.988299767063655
 94.484042266624073 0.61891408461981445 0.0029686201834493355 34.136662459553435 29.355360555130357 26.988978993497625
 108.24272577036407 0.61858154347983674 0.0026715154354359609 77.122151565660246 27.387972696870612 5.4276740894591615
 108.28272577036425 0.61858154347983674 0.0026715154354359609 82.277422228558137 20.412361488662484 5.4283361556052308
 108.96067255951658 0.61858154347983674 0.0026715154354359609 87.404774892313924 20.10958332522171 5.4306788751919157
 109.00067255951633 0.61858154347983674 0.0026715154354359609 86.647569920344097 36.907017206066399 5.4312464816951298
 110.58284668180622 0.61858154347983674 0.0026715154354359609 85.983120238362559 70.958091292116308 5.4308816239493014
 110.62284668180649 0.61858154347983674 0.0026715154354359609 87.812634916095249 66.836010265593444 5.4312609414907422
 113.8477904201761 0.61858154347983674 0.0026715154354359609 89.71961770839367 62.8980029858159 5.4309880062492191
 113.88779042017633 0.61858154347983674 0.0026715154354359609 94.267448584226997 62.154528039872332 5.4306650265898373
 116.32279042017632 0.63243943353776988 0.0025850337761423787 98.990454964035123 61.577476334419941 5.4301819312189492
 116.36279042017655 0.63243943353776988 0.0025850337761423787 98.664084847844876 65.195103326529136 5.429907123310155
 118.7977904201763 0.6462975049069033 0.0024988642969186216 98.521213060341253 69.231368784634682 5.4303943528876495
 118.83779042017655 0.6462975049069033 0.0024988642969186216 104.76595034916687 68.663682775022551 5.4309626069764692
 121.27279042017652 0.66015568632412325 0.0024130446936985574 111.41599421894801 68.211902970221956 5.4313790125974242
 121.31279042017619 0.66015568632412325 0.0024130446936985574 109.2851139049189 70.300639616682034 5.4317495767983859
 123.74779042017676 0.67401392526035253 0.0023276126895641052 107.44328088322945 72.486326389323764 5.431654350780426
 123.78779042017641 0.67401392526035253 0.0023276126895641052 113.85229954095499 71.858059405619429 5.4314815588264898
 124.99973076042636 0.67401392526035253 0.0023276126895641052 120.28874407421134 71.222752464268069 5.4314352801711889
 125.03973076042665 0.67401392526035253 0.0023276126895641052 119.22681914938104 72.066064873494966 5.43139266533999
 126.17784230393637 0.67401392526035253 0.0023276126895641052 118.2025523817196 72.933845776751014 5.431296291118759
 126.21784230393666 0.67401392526035253 0.0023276126895641052 119.6052420673211 69.642586155263686 5.4312808132412878
 126.55303800708734 0.67401392526035253 0.0023276126895641052 120.93637209366301 66.409696274684961 5.4316815299430008
 126.59303800708766 0.67401392526035253 0.0023276126895641052 120.23024715124785 72.990482312411118 5.4322994313345703
 129.16803800708783 0.67393582592068579 0.0022859076078561181 119.61741343068293 80.358615299490197 5.4326108593514846
 129.20803800708748 0.67393582592068579 0.0022859076078561181 124.05902124631062 79.039518544612989 5.4328855862968801
 130.63303800708729 0.67393582592068579 0.0022859076078561181 128.57172538198137 77.736701987354152 5.43285134299723
 130.67303800708757 0.67393582592068579 0.0022859076078561181 126.516568473091 80.853976608020687 5.4327908754162664
 132.09803800708741 0.67393582592068579 0.0022859076078561181 124.46434381211208 84.036538175705971 5.4328821421222786
 132.13803800708772 0.67393582592068579 0.0022859076078561181 129.38582226284836 83.179744624943936 5.4328882500119082
 133.56303800708744 0.67393582592068579 0.0022859076078561181 134.31544094049005 82.340983760880349 5.4330740673907982
 133.60303800708778 0.67393582592068579 0.0022859076078561181 133.09741902513056 83.992067286585382 5.4331749746960796
 135.0280380070873 0.67393582592068579 0.0022859076078561181 131.91029069252679 85.645717888584841 5.4328722947205588
 135.06803800708761 0.67393582592068579 0.0022859076078561181 133.82226903660731 84.939960067733693 5.4325114148470357
 136.49303800708742 0.67393582592068579 0.0022859076078561181 135.73610738850775 84.224913784947546 5.4325700570811719
 136.53303800708775 0.67393582592068579 0.0022859076078561181 134.94898935500171 87.067484646137402 5.4325000282851112
 139.77599213125734 0.67393582592068579 0.0022859076078561181 134.14733523607697 89.972401814573459 5.432444654856968
 139.8159921312577 0.67393582592068579 0.0022859076078561181 133.80445862931336 90.002404080278325 5.4324498917046364
 142.94099068422787 0.67393582592068579 0.0022859076078561181 133.45474215206823 90.032689178666132 5.4324483809935922
 142.98099068422746 0.67393582592068579 0.0022859076078561181 186.60479726846782 84.547156358807811 5.4323275941330325
 143.55362747142084 0.67393582592068579 0.0022859076078561181 240.57941296469195 78.882145362692086 5.4290784056180463
 143.59362747142043 0.67393582592068579 0.0022859076078561181 220.77619118269507 92.421127358498694 5.4250665426904456
 149.33739206153626 0.67393098527842543 0.0022833273812976939 202.24764547691757 106.6604122038412 5.4233810147234349
 149.37739206153663 0.67393098527842543 0.0022833273812976939 190.09868439329006 108.15268072276933 5.4206652223994407
 149.60239206331244 0.67393098527842543 0.0022833273812976939 177.51590205034515 109.60447365669089 5.4132382429581556
 149.64239206331283 0.67393098527842543 0.0022833273812976939 207.80917797265684 107.81224422699235 5.4085273121787543
 150.69448071508316 0.67393098527842543 0.0022833273812976939 239.59760156281544 106.06849591565658 5.4080070216388547
 150.73448071508355 0.67393098527842543 0.0022833273812976939 230.13524111142004 107.44423535778061 5.407107254204087
 150.95948071883458 0.67393098527842543 0.0022833273812976939 220.74407947155595 108.83688764278948 5.4072971488245241
 150.99948071883421 0.67393098527842543 0.0022833273812976939 228.93678306514812 107.76237475986215 5.4074970506551372
 155.59448071883392 0.70165994384822794 0.002115295301099046 238.31649882247396 107.69994365688783 5.4069089277608295
 155.63448071883428 0.70165994384822794 0.002115295301099046 236.92324203814735 113.64709148122297 5.4060282204801249
 160.22948071883403 0.72938906078928412 0.0019497552378946103 236.97965444986153 120.45071703069306 5.4052701078881622
 160.26948071883442 0.72938906078928412 0.0019497552378946103 245.72061236406765 120.03588150220028 5.4047001442057319
 164.8644807188339 0.75711841271665359 0.0017873198381332064 256.31836596702806 120.3273583750502 5.4049045802993643
 164.90448071883432 0.75711841271665359 0.0017873198381332064 255.61316774097745 125.79456971177929 5.4058258298824242
 169.49948071883406 0.78484797487551505 0.0016288302767842986 256.05278163479682 132.18818509079767 5.4068525805200602
 169.53948071883366 0.78484797487551505 0.0016288302767842986 263.65557670116317 131.40067329989691 5.4073398628604403
 174.13448071883408 0.81257766595260339 0.0014754385432977641 272.12772016177246 131.35952898008907 5.4073075915819775
 174.17448071883371 0.81257766595260339 0.0014754385432977641 271.06162571738656 134.53865776044074 5.4069005079105787
 178.76948071883413 0.84030750013515332 0.0013287554162588248 271.71281934442135 138.30319231732736 5.4061459093927224
 178.80948071883375 0.84030750013515332 0.0013287554162588248 276.22592818674542 137.92956026337887 5.4058119013640145
 183.40448071883333 0.86803752321790684 0.00119098963593598 282.57410836906502 138.4459166271071 5.4058667080926917
 183.44448071883377 0.86803752321790684 0.00119098963593598 282.07180132567782 143.02977683933193 5.4063271743571182
 188.03948071883349 0.89576773425944944 0.0010652476597999398 282.38683769236206 148.65144039302393 5.407194741991673
 188.07948071883368 0.89576773425944944 0.0010652476597999398 289.07065892993228 148.2277799968484 5.4074496580278311
 192.67448071883339 0.92349809465090116 0.00095593319253892768 296.5930778317807 148.35702714792683 5.4075513978755181
 192.71448071883387 0.92349809465090116 0.00095593319253892768 296.02616601549062 150.02454318755267 5.4076879103317479
 197.30948071883324 0.95122859337523957 0.00086898402934845232 297.20903909097274 152.2108851485755 5.4072948791877051
 197.34948071883301 0.95122859337523957 0.00086898402934845232 298.60436188377594 151.88516462022301 5.4073550710091141
 201.94448071883352 0.97895923018452535 0.00081180467563906527 301.60922720078594 152.42720923963918 5.4073651089958075
 201.98448071883328 0.97895923018452535 0.00081180467563906527 301.14192579110068 155.25803254666039 5.4069897168785905
 206.57948071883328 1.0066900298996211 0.00079248851615596676 301.43198989704922 159.02497006935442 5.4071737474745305
 206.6194807188331 1.0066900298996211 0.00079248851615596676 305.93508243384838 158.84623902153993 5.4072423308686357
 211.21448071883316 1.034421008949862 0.00081666216353697878 311.48778000638407 159.22088125961562 5.4075731040356381
 211.25448071883287 1.034421008949862 0.00081666216353697878 311.37249967340563 160.0693043848045 5.408303556194511
 215.84948071883275 1.0621521512790062 0.00088285836805944515 312.69494358584041 161.54751241813898 5.4086284941730067
 215.88948071883325 1.0621521512790062 0.00088285836805944515 312.91389903032245 161.31693515245959 5.4088683830528064
 220.48448071883334 1.0898834020770543 0.00098259640865868423 314.34685416482864 161.75576683460099 5.408753171396345
 220.52448071883293 1.0898834020770543 0.00098259640865868423 313.98626265588427 162.78211506453471 5.4082173792929886
 225.11948071883305 1.1176147806657142 0.0011058160476389762 314.62359749381989 164.54435919146792 5.4078836487530477
 225.15948071883292 1.1176147806657142 0.0011058160476389762 315.60798366291027 164.54851510128435 5.4077953006197319
 229.75448071883253 1.1453463370116286 0.0012446891721851977 318.08525212922666 165.13866618927193 5.4081905005724984
 229.79448071883243 1.1453463370116286 0.0012446891721851977 318.2956658644049 165.48513794397397 5.4089278172025184
 233.04081982274974 1.1453463370116286 0.0012446891721851977 318.51078818844695 166.10331212507907 5.4096910575230508
 233.08081982274965 1.1453463370116286 0.0012446891721851977 318.29730337413258 166.77739604833121 5.4110031030909127
 234.95616296567943 1.1453463370116286 0.0012446891721851977 318.33575335239357 167.50324804309105 5.4143971107681148
 234.99616296567936 1.1453463370116286 0.0012446891721851977 331.39695248388512 166.9903428780168 5.4166466000978382
 236.07351505900112 1.1453463370116286 0.0012446891721851977 365.63388366261597 166.49988467105598 5.4206884658199987
 236.11351505900163 1.1453463370116286 0.0012446891721851977 357.33287864268721 172.61012701568933 5.4268023512534258
 242.26962969877152 1.1453414917349165 0.0012468959318438545 350.02066476114561 183.74571981424 5.4282248426205566
 242.30962969877149 1.1453414917349165 0.0012468959318438545 352.00139554275205 183.27773865314003 5.4286056508506215
 249.86313315943218 1.1453414917349165 0.0012468959318438545 354.20752780394486 182.82481369476574 5.4288836633952178
 249.90313315943149 1.1453414917349165 0.0012468959318438545 344.75549440957298 180.58547348673582 5.429781564063223
 250.22828849515986 1.1453414917349165 0.0012468959318438545 336.09735177874921 179.75298727818989 5.4352120017402603
 250.26828849515982 1.1453414917349165 0.0012468959318438545 349.04454403543173 180.21696958110729 5.4405985643156392
 262.6251439195193 1.1453373145415366 0.0012745918955773619 364.58586635648192 181.21512920344972 5.5291532887740633
 262.67514391952022 1.1453373145415366 0.0012745918955773619 365.35481488373824 183.90229453478207 5.5290745183607797
 263.77250309208125 1.1453373145415366 0.0012745918955773619 366.24509298879673 186.77272712115462 5.5286062061443166
 263.82250309208121 1.1453373145415366 0.0012745918955773619 364.72692641222807 185.48235391040728 5.528666824762511
 266.97230968441107 1.1453373145415366 0.0012745918955773619 364.3653527418104 184.26351184761313 5.5289161722472082
 267.02230968441199 1.1453373145415366 0.0012745918955773619 363.49661612971448 184.69094206194811 5.52899648447789
 267.78457598011408 1.1453373145415366 0.0012745918955773619 362.66368734801603 185.11328478388589 5.5291795582424186
 267.83457598011501 1.1453373145415366 0.0012745918955773619 364.44638039641461 185.0663337074372 5.5294360268407612
 270.15257598011516 1.1453373145415366 0.0012745918955773619 366.37212842424202 185.0450193524922 5.5294599100391659
 270.20257598011455 1.1453373145415366 0.0012745918955773619 365.74728942491208 184.45984596424461 5.5294360547767871
 272.42057598011519 1.1453373145415366 0.0012745918955773619 365.1358702730015 183.96614276401206 5.5294520445072308


