# Created by Octave 4.2.1, Wed Jun 02 22:15:07 2021 CEST <alatina@lxclicbpk20>
# name: E3
# type: matrix
# rows: 179
# columns: 6
 0.2825000001970003 0.1247937475952051 9.189603452948163e-05 1.383482285705567 1.392353374638421 315.0320690990702
 0.3225000001969996 0.1247937475952051 9.189603453004795e-05 1.382743419603175 1.393984356598528 315.0320695528317
 0.8048447247700012 0.1247937475952051 9.189603453287945e-05 1.38154360738811 1.395131446030868 315.0320752650212
 0.8448447247699992 0.1247937475952051 9.189603453118054e-05 1.383967221840151 1.394270724155273 315.0320811585095
 1.967155700901002 0.1247937475952051 9.189603452900967e-05 1.38666163976467 1.393782332172396 315.0320829998809
 2.007155700900997 0.1247937475952051 9.189603452891531e-05 1.386296554093968 1.393777699470711 315.0320852533862
 6.557651703986003 0.1247936597548639 9.169358967345188e-05 1.386751795952349 1.393772862701868 314.4876660679304
 6.597651703986002 0.1247936597548639 9.169358967581668e-05 1.388791352957941 1.394054795930675 314.4876682589592
 6.982525867992994 0.1247936597548639 9.169358967316809e-05 1.389644488702183 1.39416740561908 314.4876682486637
 7.022525867992993 0.1247936597548639 9.169358967420862e-05 1.389728999540458 1.394226824552296 314.4876682180302
 8.567279945423017 0.1247936597548639 9.169358967468158e-05 1.391109792208813 1.39438935675037 314.487671368938
 8.60727994542299 0.1247936597548639 9.169358967383024e-05 1.390926202580883 1.394189089347361 314.4876752512248
 12.73228218159398 0.1247526271282623 8.554599121975669e-05 1.392037960826051 1.400626964846628 314.4876753536981
 12.772282181594 0.1247526271282623 8.554599121276068e-05 1.39208954381754 1.400428082083907 314.4876736776545
 15.09728218159399 0.1505200525386547 0.0004674990995347774 1.393155483788854 1.402478495537274 314.4876696041881
 15.13728218159396 0.1505200525386547 0.0004674990995342579 1.393333567335318 1.401859891556585 314.4876673149732
 17.462282181594 0.1762874795620088 0.0009217007767087806 1.394984393493419 1.40218224409922 314.4876645022256
 17.50228218159397 0.1762874795620088 0.0009217007767093268 1.394722631710094 1.402466787377219 314.4876626728224
 19.827282181594 0.2020549081787057 0.001378495002596733 1.39557863342861 1.403205396012349 314.4876612698729
 19.86728218159398 0.2020549081787057 0.001378495002595148 1.39603998031045 1.409261167111405 314.4876593878545
 22.19228218159403 0.2278223383844132 0.001835947564200227 1.397131977326679 1.417105886962687 314.4876557798817
 22.232282181594 0.2278223383844132 0.001835947564199849 1.4084272439636 1.418077513592418 314.4876519234629
 24.55728218159402 0.2535897704051326 0.002293664483869536 1.418545899786128 1.418191456351499 314.4876446443174
 24.59728218159399 0.2535897704051326 0.002293664483868326 1.412421195675509 1.417066888170504 314.4876374804765
 26.92228218159397 0.279357204475449 0.002751513733192558 1.413329623209622 1.419248263441628 314.4876351467579
 26.96228218159406 0.2793572044754491 0.002751513733192733 1.414035974065276 1.417797777453523 314.4876324322978
 29.28728218159403 0.2715617589284129 0.002903304841747013 1.466345262544907 1.453306051974347 314.4876298182767
 29.327282181594 0.2715617589284129 0.002903304841745532 1.461986407759972 1.475001629373479 314.4876249934578
 30.84296371273509 0.2715617589284129 0.00290330484174601 1.461098882476017 1.489848091615285 314.4876198322244
 30.88296371273508 0.2715617589284129 0.002903304841746249 1.461259539830998 1.467248807392142 314.487611177744
 37.57460726533508 0.2715617589284129 0.002903304841745794 1.462264791293425 1.46706109003905 314.4876096956768
 37.61460726533505 0.2715617589284129 0.0029033048417457 2.220607675850156 1.746915625243537 314.4876122117769
 37.94414383924411 0.2715617589284129 0.002903304841745437 2.153243616641759 1.765782578880341 314.4875133815601
 37.98414383924408 0.2715617589284129 0.002903304841745772 2.422317220693603 1.691475880381719 314.4873949667978
 38.3091453619281 0.2715617589284129 0.002903304841745938 2.452329417022218 1.685336906834492 314.4872960778238
 38.34914536192807 0.2715617589284129 0.002903304841745963 1.541656063437311 1.465559837288182 314.4872089219014
 49.18757817436502 0.2715347787205973 0.002885170855336678 1.674665304767936 1.470223699018174 27.02673605723135
 49.22757817436499 0.2715347787205973 0.002885170855336989 1.720285004330513 1.629470264231722 27.0267310339139
 49.81445071952202 0.2715347787205973 0.002885170855337352 1.719197072120428 1.666907183992944 27.02669307650303
 49.854450719522 0.2715347787205972 0.002885170855337807 1.692085570037514 1.527091512386251 27.02666053817465
 51.17135258093192 0.2715347787205973 0.00288517085533682 1.692412326567105 1.506969452380039 27.0266505295544
 51.21135258093191 0.2715347787205973 0.002885170855337855 1.675516838941151 1.517607422962072 27.0266386323132
 53.78635258093196 0.2715347787205973 0.002885170855337759 1.673643096188645 1.527741934762534 27.02663684452356
 53.82635258093192 0.2715347787205973 0.002885170855336629 1.702982482470392 1.530081781985388 27.02663531474757
 55.25135258093187 0.2715347787205973 0.002885170855338 1.711522909435963 1.528489059579876 27.02662247906404
 55.29135258093184 0.2715347787205973 0.002885170855336654 1.693251850461548 1.535772288231454 27.02660154828179
 56.71635258093193 0.2715347787205972 0.002885170855337495 1.69793917021792 1.536840713592859 27.02659379387725
 56.75635258093191 0.2715347787205973 0.002885170855339058 1.696785816460585 1.529317612985633 27.02658397828383
 58.18135258093201 0.2715347787205973 0.002885170855338624 1.686050684851406 1.527854468786324 27.02657624782479
 58.22135258093201 0.2715347787205972 0.002885170855337301 1.687502907868565 1.540732917771539 27.02656889776829
 59.64635258093197 0.2715347787205973 0.002885170855336484 1.685917718858646 1.553001841046313 27.02656150968823
 59.68635258093195 0.2715347787205973 0.002885170855337375 1.705480963227785 1.549878756170088 27.02655084248993
 61.26464430495796 0.2715347787205972 0.002885170855337809 1.723759569209774 1.542141676417563 27.02646243755979
 61.30464430495794 0.2715347787205973 0.002885170855337807 1.746398777114435 1.668166068370607 27.02645421395661
 61.65988453864604 0.2715347787205972 0.002885170855336894 1.748319358154826 1.654591704330769 27.02638398659979
 61.699884538646 0.2715347787205973 0.002885170855338072 1.704937960882026 1.553653940243882 27.02629122756438
 63.81202528088581 0.2715347787205973 0.00288517085533747 1.704337841253304 1.575463194454161 27.02628293805322
 63.85202528088581 0.2715347787205972 0.002885170855337302 1.939208157246811 1.629318961911384 27.02627433708152
 64.1885764796928 0.2715347787205972 0.002885170855337903 1.940553675561849 1.628344014641208 27.02616281806531
 64.22857647969278 0.2715347787205973 0.00288517085533711 1.69853338423083 1.573744114257822 27.02605397991232
 66.66357647969291 0.3713029935913143 0.00324006470200068 1.68971983124187 1.573295014234421 27.02605164723226
 66.70357647969287 0.3713029935913144 0.003240064702002137 1.687099151345478 1.563376027168449 27.02604847163579
 69.13857647969304 0.4710712243816945 0.003595113757443986 1.688039134424169 1.558442503394409 27.02604694910089
 69.17857647969301 0.4710712243816945 0.003595113757443061 1.697865433669581 1.562332125446401 27.0260471725377
 71.61357647969292 0.5708394712203142 0.003950276144217861 1.704871285101385 1.559046059372669 27.02604487627767
 71.65357647969292 0.5708394712203142 0.003950276144217723 1.706589902213678 1.571723676482701 27.02604479028422
 74.08857647969306 0.6706077319933391 0.004305523774197435 1.704365439480197 1.572747065570429 27.02604154188419
 74.12857647969305 0.6706077319933389 0.004305523774194984 1.696015341429148 1.573976721625555 27.02604001316156
 76.56357647969321 0.7703760064760599 0.004660837130164343 1.682250122165693 1.574293274946064 27.02603983189486
 76.6035764796932 0.77037600647606 0.004660837130167322 1.679715746640806 1.566012757973568 27.02604056796265
 79.03857647969295 0.8701442954243319 0.005016202233946032 1.682766797407401 1.558965920708374 27.02604035623199
 79.07857647969304 0.8701442954243319 0.00501620223394913 1.687324074120138 1.562225158232948 27.02603991156462
 81.51357647969324 0.9699125979237805 0.005371608754664086 1.691351342841031 1.561292965512646 27.02603818983949
 81.55357647969321 0.9699125979237805 0.005371608754667705 1.69058171608289 1.56354150683548 27.02603847297852
 83.98857647969338 1.069680916045529 0.005727048991114816 1.687970497039447 1.56828031536357 27.02603921937037
 84.02857647969337 1.069680916045529 0.005727048991121215 1.687917579872293 1.56993061118563 27.02603925494731
 86.46357647969313 1.069680916045529 0.005727048991113851 1.682734926465701 1.56888872323759 27.0260390162968
 86.50357647969315 1.069680916045529 0.005727048991115011 1.68381601543431 1.562938285001228 27.02603732457791
 88.66651155795725 1.069680916045529 0.005727048991115788 1.687164087450437 1.558744739235808 27.0260389984498
 88.70651155795714 1.069680916045529 0.005727048991124314 1.688832777235771 1.556806646375014 27.02603658088582
 94.13553359258729 1.069680916045529 0.005727048991120635 1.688766497991831 1.556827374222151 27.02603547220711
 94.17553359258714 1.069680916045529 0.005727048991115979 1.746406259400491 1.592870412776423 27.02603482670885
 94.50537755163344 1.069680916045529 0.005727048991120243 1.702634422568525 1.591992402207701 27.02601206856912
 94.54537755163329 1.069680916045529 0.005727048991115783 1.711427561835571 1.584350828894116 27.02598438399985
 108.1589058227133 1.069281731883848 0.00506776416913994 2.865367662165371 1.572232648839098 2.489172985457659
 108.1989058227135 1.069281731883848 0.005067764169140631 2.90430432206959 1.63287824236958 2.489171757741515
 108.8015334312022 1.069281731883848 0.005067764169142596 2.911263536153847 1.636225796455066 2.489166031753409
 108.8415334312024 1.069281731883848 0.005067764169140869 2.900406861000304 1.624049925756285 2.489152467013448
 110.3418542229423 1.069281731883848 0.005067764169138827 2.894780426979682 1.537296498266399 2.489145900265405
 110.3818542229421 1.069281731883848 0.00506776416913886 2.892651961357889 1.541621676805597 2.489139955825364
 113.6068542229325 1.069281731883848 0.005067764169146545 2.894048008625876 1.534710980457273 2.489137456378084
 113.6468542229322 1.069281731883848 0.005067764169138672 2.909080134750746 1.537265617843149 2.489139341893573
 116.0818542229322 1.186416676742473 0.004948540687015245 2.903521620183209 1.534352713136389 2.489138435805616
 116.1218542229326 1.186416676742473 0.004948540687020584 2.9006558296033 1.53234344170724 2.489139897486106
 118.5568542229322 1.303551616829427 0.00482944843742319 2.89579726669582 1.531521035933842 2.489141371632709
 118.5968542229325 1.303551616829427 0.004829448437420482 2.902049686248542 1.531970304175744 2.489140700922214
 121.0318542229325 1.42068655215731 0.004710497411301222 2.907046500789298 1.532054230812452 2.489140426751114
 121.0718542229327 1.42068655215731 0.004710497411300401 2.905963458020123 1.532682283855633 2.489143915011509
 123.5068542229327 1.537821482932134 0.004591698584627383 2.907810780082847 1.530243321721303 2.489146078149975
 123.5468542229324 1.537821482932134 0.004591698584628745 2.910031646884257 1.530187053428334 2.489146322978456
 124.8753495200126 1.537821482932134 0.00459169858461947 2.910682132095554 1.529560182724614 2.489146121189898
 124.9153495200122 1.537821482932134 0.004591698584620958 2.914572173949436 1.532997508903198 2.489145212458499
 125.7693533669967 1.537821482932134 0.004591698584644689 2.914442523651823 1.533800218789096 2.489144466784549
 125.8093533669963 1.537821482932134 0.004591698584622025 2.915466574421373 1.533360888198146 2.489144653240935
 126.1343543003064 1.537821482932134 0.004591698584612794 2.923651663987557 1.533560093086676 2.489146354255439
 126.1743543003067 1.537821482932134 0.004591698584631637 2.917455776087555 1.530639840942439 2.489148057030801
 128.7493543003062 1.53774109989968 0.004547111799770184 2.913989685441999 1.530335136974532 2.489148739463867
 128.7893543003065 1.53774109989968 0.004547111799778345 2.915694789085207 1.52864927283608 2.489148555690947
 130.2143543003063 1.53774109989968 0.004547111799774484 2.912719499733064 1.530275901340528 2.489150837679932
 130.2543543003066 1.53774109989968 0.00454711179977056 2.912144605341281 1.530856369291117 2.489151607496774
 131.6793543003064 1.53774109989968 0.004547111799776966 2.912913159348087 1.525625694139316 2.489151382224591
 131.7193543003067 1.53774109989968 0.004547111799756438 2.90833703855137 1.528005913295033 2.489151919852219
 133.1443543003062 1.53774109989968 0.004547111799775932 2.90579815228807 1.527903319103141 2.489151855441869
 133.1843543003068 1.53774109989968 0.004547111799765352 2.914163204911273 1.52740467950064 2.48915108864688
 134.6093543003063 1.53774109989968 0.004547111799767658 2.909542961775839 1.52843815777054 2.489148051849365
 134.6493543003067 1.53774109989968 0.004547111799776416 2.916276331157119 1.525930092145717 2.489150760805476
 136.0743543003064 1.53774109989968 0.004547111799773068 2.92380391116742 1.526594229134073 2.489151200229229
 136.1143543003067 1.53774109989968 0.004547111799757305 2.919815098582623 1.528959084955581 2.489149171672575
 139.4893534594962 1.53774109989968 0.00454711179976188 2.916028465102899 1.52980852683633 2.489147496491429
 139.5293534594966 1.53774109989968 0.004547111799763757 2.91724493637803 1.52931639876047 2.489149196146818
 142.5177528307163 1.537741099899679 0.004547111799779401 2.917454004345844 1.529387261717395 2.489150308663818
 142.5577528307166 1.53774109989968 0.004547111799756391 2.91946800575833 1.53515495628223 2.48914738263576
 143.1353911329006 1.53774109989968 0.004547111799769147 2.91132461642956 1.531132717521667 2.489139526827015
 143.1753911329002 1.537741099899679 0.004547111799768674 2.912120446012497 1.536433884272693 2.489143681192396
 148.9004261119722 1.537736189726285 0.004544383144003247 2.911203817574747 1.539090754833751 2.489142760965245
 148.9404261119725 1.537736189726284 0.004544383144008973 2.925162967707239 1.540491789197276 2.489144631913694
 149.2654314600367 1.537736189726284 0.004544383143996896 2.935992907297918 1.538462511497116 2.489144500366215
 149.3054314600362 1.537736189726284 0.004544383143992873 2.931097318563536 1.537641025970393 2.489144850949072
 152.0904944152262 1.537736189726284 0.004544383144003591 2.927132993214095 1.538389206229017 2.489144870563971
 152.1304944152266 1.537736189726284 0.004544383144009582 2.931509777871685 1.535618693315544 2.489145190269507
 154.8675900852864 1.537736189726284 0.004544383143992371 2.929925052527748 1.536727378719007 2.489145005112157
 154.907590085286 1.537736189726284 0.00454438314400656 2.928280178975663 1.540237074434809 2.489144511683897
 159.5025900852866 1.772005884775142 0.004307436183597022 2.921231237066657 1.5396334429169 2.489145127118758
 159.5425900852861 1.772005884775141 0.004307436183572749 2.922246200864472 1.534540864161078 2.489145102646053
 164.1375900852858 2.006275571963839 0.004071287383357688 2.922719588515524 1.535961922611236 2.489144388189757
 164.1775900852863 2.006275571963839 0.004071287383363087 2.930560692350294 1.536258377222728 2.489144725935239
 168.7725900852857 2.240545249288256 0.00383608418927545 2.942188918857852 1.535656362541558 2.489144980930732
 168.8125900852862 2.240545249288256 0.003836084189289211 2.941537812983412 1.53526313554912 2.489143042068846
 173.407590085286 2.474814918304795 0.003602012129146315 2.941832538289423 1.532768999865821 2.489141331555202
 173.4475900852862 2.474814918304796 0.003602012129191384 2.936102120442215 1.533078433738166 2.48914057997858
 178.042590085286 2.709084577677446 0.003369306927013308 2.933240078562495 1.533028881497247 2.48913952287226
 178.0825900852857 2.709084577677446 0.003369306927054934 2.931473507965216 1.533590699478028 2.48914028616392
 182.6775900852858 2.943354229048751 0.003138272660752394 2.931981143458876 1.535050480052774 2.489142308089572
 182.7175900852855 2.94335422904875 0.003138272660741505 2.937365490941178 1.535101223598405 2.489142058582212
 187.3125900852861 3.177623872044066 0.002909307637829054 2.940857642791714 1.534990205810955 2.489142652900909
 187.3525900852858 3.177623872044066 0.0029093076379296 2.940299832248359 1.533556358301883 2.489142422809049
 191.9475900852852 3.411893505808318 0.002682941947307588 2.940985525525185 1.531071431996921 2.489142496872462
 191.9875900852857 3.411893505808318 0.002682941947326949 2.938013811826688 1.531329549841586 2.489144080314732
 196.5825900852855 3.646163131315419 0.002459893617517705 2.940389488440489 1.531284385399178 2.489145424989068
 196.6225900852854 3.64616313131542 0.002459893617382122 2.94054116152197 1.53217312406098 2.489145953715385
 201.2175900852853 3.880432747843603 0.002241153793647376 2.939365490790628 1.533282458201165 2.489147624143488
 201.2575900852858 3.880432747843603 0.002241153793497276 2.940819007181772 1.533222542525525 2.489147337792013
 205.8525900852851 4.114702354982091 0.00202811754852786 2.942023335802693 1.533561021289425 2.489146954370288
 205.8925900852849 4.114702354982091 0.002028117548460192 2.941953372341879 1.53215702158266 2.489146213425086
 210.4875900852855 4.348971953742192 0.001822786370623589 2.9431440590289 1.531257338762537 2.489146066738491
 210.5275900852853 4.348971953742192 0.001822786370662171 2.942508820140277 1.531102088683936 2.489145863418011
 215.1225900852845 4.583241543324039 0.001628078688929961 2.94366838783068 1.53127977952653 2.489145041827017
 215.162590085285 4.583241543324039 0.001628078688797205 2.943452317908682 1.531438220688966 2.489145279733706
 219.7575900852851 4.817511123945612 0.001448284739656306 2.943240993816432 1.531598365777677 2.489145380429775
 219.7975900852847 4.817511123945611 0.001448284739750873 2.943324663640746 1.531843635478321 2.489145003987859
 224.3925900852847 5.051780695499079 0.001289652974541666 2.943645432053559 1.531817551760775 2.489145773951998
 224.4325900852852 5.051780695499079 0.001289652974464691 2.943741528335003 1.5317491695878 2.489144908445232
 229.0275900852843 5.286050258244988 0.001160879513942605 2.943808155538954 1.531839647432165 2.489144213892484
 229.0675900852842 5.286050258244988 0.001160879513698473 2.944851892155145 1.531798998064322 2.489145033541629
 233.662590085285 5.520319812179519 0.001072749750386196 2.945065023012784 1.531747263554655 2.489145231218406
 233.7025900852849 5.52031981217952 0.001072749750454117 2.944925588854756 1.531414985854304 2.489146001273038
 239.1866722244849 5.520319812179519 0.001072749750416303 2.94486005596217 1.531228803561904 2.489146152513396
 239.2266722244848 5.52031981217952 0.001072749751048642 2.945003416838425 1.531218725105064 2.489145582927303
 242.184254960425 5.52031981217952 0.001072749750931481 2.945201450889455 1.531197497375596 2.489144657752993
 242.2242549604244 5.520319812179519 0.001072749750070212 2.943336323937022 1.531108442447444 2.489145373820746
 244.5818946286745 5.52031981217952 0.001072749750833722 2.941462878582641 1.531061838018202 2.489146320790687
 244.6218946286751 5.52031981217952 0.001072749751397326 2.941794551592957 1.53120152082401 2.489145560623891
 250.7126423569707 5.520314902004436 0.001072021833782536 2.941954872942566 1.531538425806768 2.489145316027987
 250.75264235697 5.520314902004436 0.001072021833929759 2.942059264519389 1.531574311176637 2.489145956543881
 258.0484308486409 5.520314902004435 0.001072021834694182 2.942015100156176 1.531600755192683 2.489145972878514
 258.0884308486409 5.520314902004435 0.001072021834676906 2.942761291458408 1.531588282551849 2.489146421755676
 258.5975959270971 5.520314902004435 0.00107202183479487 2.943306755424335 1.531575504480317 2.48914498538562
 258.6375959270964 5.520314902004435 0.001072021834693707 2.942329551966565 1.531549071264413 2.48914188515066
 264.6301090570962 5.52031623636393 0.001061365278517439 3.000224360483847 1.531500493252464 2.475033044672331


