# Created by Octave 5.1.0, Sun Jun 16 08:24:59 2019 CEST <alatina@pc31.home>
# name: X_opt
# type: matrix
# rows: 1
# columns: 7
 0.0013221226239678355 -0.019243915862753889 0.29326128415666941 0.75002581163937343 -0.026626797415463262 0.0012616787911237499 8.3563612959562393e-06


