 -0.20000000    0.00000000
 -0.19950000    0.00001155
 -0.19900000    0.00002310
 -0.19850000    0.00003466
 -0.19800000    0.00004623
 -0.19750000    0.00005782
 -0.19700000    0.00006943
 -0.19650000    0.00008107
 -0.19600000    0.00009274
 -0.19550000    0.00010444
 -0.19500000    0.00011649
 -0.19450000    0.00012825
 -0.19400000    0.00014008
 -0.19350000    0.00015198
 -0.19300000    0.00016378
 -0.19250000    0.00017576
 -0.19200000    0.00018794
 -0.19150000    0.00020015
 -0.19100000    0.00021243
 -0.19050000    0.00022478
 -0.19000000    0.00023698
 -0.18950000    0.00024948
 -0.18900000    0.00026201
 -0.18850000    0.00027455
 -0.18800000    0.00028709
 -0.18750000    0.00029949
 -0.18700000    0.00031197
 -0.18650000    0.00032446
 -0.18600000    0.00033692
 -0.18550000    0.00034936
 -0.18500000    0.00036177
 -0.18450000    0.00037420
 -0.18400000    0.00038662
 -0.18350000    0.00039904
 -0.18300000    0.00041149
 -0.18250000    0.00042402
 -0.18200000    0.00043667
 -0.18150000    0.00044928
 -0.18100000    0.00046197
 -0.18050000    0.00047474
 -0.18000000    0.00048756
 -0.17950000    0.00050047
 -0.17900000    0.00051345
 -0.17850000    0.00052649
 -0.17800000    0.00053957
 -0.17750000    0.00055258
 -0.17700000    0.00056559
 -0.17650000    0.00057869
 -0.17600000    0.00059179
 -0.17550000    0.00060486
 -0.17500000    0.00061786
 -0.17450000    0.00063094
 -0.17400000    0.00064403
 -0.17350000    0.00065713
 -0.17300000    0.00067027
 -0.17250000    0.00068357
 -0.17200000    0.00069693
 -0.17150000    0.00071030
 -0.17100000    0.00072378
 -0.17050000    0.00073739
 -0.17000000    0.00075120
 -0.16950000    0.00076499
 -0.16900000    0.00077890
 -0.16850000    0.00079291
 -0.16800000    0.00080700
 -0.16750000    0.00082104
 -0.16700000    0.00083531
 -0.16650000    0.00084957
 -0.16600000    0.00086388
 -0.16550000    0.00087822
 -0.16500000    0.00089259
 -0.16450000    0.00090708
 -0.16400000    0.00092162
 -0.16350000    0.00093623
 -0.16300000    0.00095091
 -0.16250000    0.00096574
 -0.16200000    0.00098046
 -0.16150000    0.00099538
 -0.16100000    0.00101039
 -0.16050000    0.00102547
 -0.16000000    0.00104061
 -0.15950000    0.00105589
 -0.15900000    0.00107125
 -0.15850000    0.00108668
 -0.15800000    0.00110220
 -0.15750000    0.00111779
 -0.15700000    0.00113367
 -0.15650000    0.00114953
 -0.15600000    0.00116551
 -0.15550000    0.00118164
 -0.15500000    0.00119784
 -0.15450000    0.00121416
 -0.15400000    0.00123060
 -0.15350000    0.00124716
 -0.15300000    0.00126381
 -0.15250000    0.00128045
 -0.15200000    0.00129723
 -0.15150000    0.00131407
 -0.15100000    0.00133094
 -0.15050000    0.00134784
 -0.15000000    0.00136506
 -0.14950000    0.00138224
 -0.14900000    0.00139952
 -0.14850000    0.00141694
 -0.14800000    0.00143450
 -0.14750000    0.00145242
 -0.14700000    0.00147014
 -0.14650000    0.00148825
 -0.14600000    0.00150654
 -0.14550000    0.00152503
 -0.14500000    0.00154329
 -0.14450000    0.00156208
 -0.14400000    0.00158099
 -0.14350000    0.00159999
 -0.14300000    0.00161909
 -0.14250000    0.00163814
 -0.14200000    0.00165771
 -0.14150000    0.00167715
 -0.14100000    0.00169673
 -0.14050000    0.00171646
 -0.14000000    0.00173677
 -0.13950000    0.00175678
 -0.13900000    0.00177702
 -0.13850000    0.00179747
 -0.13800000    0.00181814
 -0.13750000    0.00183899
 -0.13700000    0.00185996
 -0.13650000    0.00188116
 -0.13600000    0.00190252
 -0.13550000    0.00192401
 -0.13500000    0.00194536
 -0.13450000    0.00196723
 -0.13400000    0.00198923
 -0.13350000    0.00201136
 -0.13300000    0.00203365
 -0.13250000    0.00205618
 -0.13200000    0.00207887
 -0.13150000    0.00210175
 -0.13100000    0.00212485
 -0.13050000    0.00214819
 -0.13000000    0.00217184
 -0.12950000    0.00219566
 -0.12900000    0.00221972
 -0.12850000    0.00224403
 -0.12800000    0.00226857
 -0.12750000    0.00229328
 -0.12700000    0.00231823
 -0.12650000    0.00234340
 -0.12600000    0.00236877
 -0.12550000    0.00239434
 -0.12500000    0.00242022
 -0.12450000    0.00244637
 -0.12400000    0.00247276
 -0.12350000    0.00249941
 -0.12300000    0.00252632
 -0.12250000    0.00255368
 -0.12200000    0.00258089
 -0.12150000    0.00260867
 -0.12100000    0.00263675
 -0.12050000    0.00266512
 -0.12000000    0.00269354
 -0.11950000    0.00272248
 -0.11900000    0.00275168
 -0.11850000    0.00278114
 -0.11800000    0.00281086
 -0.11750000    0.00284081
 -0.11700000    0.00287143
 -0.11650000    0.00290211
 -0.11600000    0.00293316
 -0.11550000    0.00296460
 -0.11500000    0.00299665
 -0.11450000    0.00302869
 -0.11400000    0.00306114
 -0.11350000    0.00309399
 -0.11300000    0.00312722
 -0.11250000    0.00316061
 -0.11200000    0.00319484
 -0.11150000    0.00322914
 -0.11100000    0.00326378
 -0.11050000    0.00329878
 -0.11000000    0.00333415
 -0.10950000    0.00336997
 -0.10900000    0.00340619
 -0.10850000    0.00344284
 -0.10800000    0.00347992
 -0.10750000    0.00351752
 -0.10700000    0.00355528
 -0.10650000    0.00359368
 -0.10600000    0.00363252
 -0.10550000    0.00367179
 -0.10500000    0.00371133
 -0.10450000    0.00375169
 -0.10400000    0.00379251
 -0.10350000    0.00383380
 -0.10300000    0.00387558
 -0.10250000    0.00391799
 -0.10200000    0.00396062
 -0.10150000    0.00400400
 -0.10100000    0.00404793
 -0.10050000    0.00409244
 -0.10000000    0.00413759
 -0.09950000    0.00418333
 -0.09900000    0.00422966
 -0.09850000    0.00427660
 -0.09800000    0.00432416
 -0.09750000    0.00437236
 -0.09700000    0.00442121
 -0.09650000    0.00447071
 -0.09600000    0.00452090
 -0.09550000    0.00457178
 -0.09500000    0.00462326
 -0.09450000    0.00467550
 -0.09400000    0.00472847
 -0.09350000    0.00478217
 -0.09300000    0.00483660
 -0.09250000    0.00489176
 -0.09200000    0.00494761
 -0.09150000    0.00500429
 -0.09100000    0.00506175
 -0.09050000    0.00512001
 -0.09000000    0.00517885
 -0.08950000    0.00523864
 -0.08900000    0.00529927
 -0.08850000    0.00536076
 -0.08800000    0.00542314
 -0.08750000    0.00548657
 -0.08700000    0.00555074
 -0.08650000    0.00561591
 -0.08600000    0.00568207
 -0.08550000    0.00574924
 -0.08500000    0.00581788
 -0.08450000    0.00588719
 -0.08400000    0.00595765
 -0.08350000    0.00602928
 -0.08300000    0.00610211
 -0.08250000    0.00617627
 -0.08200000    0.00625164
 -0.08150000    0.00632828
 -0.08100000    0.00640626
 -0.08050000    0.00648560
 -0.08000000    0.00656609
 -0.07950000    0.00664824
 -0.07900000    0.00673181
 -0.07850000    0.00681681
 -0.07800000    0.00690327
 -0.07750000    0.00699113
 -0.07700000    0.00708032
 -0.07650000    0.00717125
 -0.07600000    0.00726373
 -0.07550000    0.00735780
 -0.07500000    0.00745328
 -0.07450000    0.00755056
 -0.07400000    0.00764954
 -0.07350000    0.00775029
 -0.07300000    0.00785285
 -0.07250000    0.00795746
 -0.07200000    0.00806392
 -0.07150000    0.00817233
 -0.07100000    0.00828285
 -0.07050000    0.00839551
 -0.07000000    0.00851051
 -0.06950000    0.00862758
 -0.06900000    0.00874701
 -0.06850000    0.00886884
 -0.06800000    0.00899311
 -0.06750000    0.00911998
 -0.06700000    0.00924889
 -0.06650000    0.00938074
 -0.06600000    0.00951523
 -0.06550000    0.00965241
 -0.06500000    0.00979183
 -0.06450000    0.00993458
 -0.06400000    0.01008025
 -0.06350000    0.01022891
 -0.06300000    0.01038069
 -0.06250000    0.01053612
 -0.06200000    0.01069417
 -0.06150000    0.01085593
 -0.06100000    0.01102127
 -0.06050000    0.01119029
 -0.06000000    0.01136323
 -0.05950000    0.01153982
 -0.05900000    0.01172047
 -0.05850000    0.01190527
 -0.05800000    0.01209435
 -0.05750000    0.01228814
 -0.05700000    0.01248601
 -0.05650000    0.01268865
 -0.05600000    0.01289611
 -0.05550000    0.01310853
 -0.05500000    0.01332581
 -0.05450000    0.01354867
 -0.05400000    0.01377699
 -0.05350000    0.01401092
 -0.05300000    0.01425064
 -0.05250000    0.01449684
 -0.05200000    0.01474760
 -0.05150000    0.01500564
 -0.05100000    0.01527018
 -0.05050000    0.01554140
 -0.05000000    0.01581841
 -0.04950000    0.01610348
 -0.04900000    0.01639585
 -0.04850000    0.01669578
 -0.04800000    0.01700356
 -0.04750000    0.01732024
 -0.04700000    0.01764433
 -0.04650000    0.01797754
 -0.04600000    0.01831994
 -0.04550000    0.01867186
 -0.04500000    0.01903379
 -0.04450000    0.01940535
 -0.04400000    0.01978751
 -0.04350000    0.02018061
 -0.04300000    0.02058499
 -0.04250000    0.02100170
 -0.04200000    0.02142837
 -0.04150000    0.02186863
 -0.04100000    0.02232166
 -0.04050000    0.02278793
 -0.04000000    0.02326623
 -0.03950000    0.02375987
 -0.03900000    0.02426814
 -0.03850000    0.02479159
 -0.03800000    0.02533080
 -0.03750000    0.02588775
 -0.03700000    0.02645901
 -0.03650000    0.02704916
 -0.03600000    0.02765767
 -0.03550000    0.02828526
 -0.03500000    0.02893181
 -0.03450000    0.02959877
 -0.03400000    0.03028700
 -0.03350000    0.03099725
 -0.03300000    0.03173031
 -0.03250000    0.03248866
 -0.03200000    0.03326677
 -0.03150000    0.03407290
 -0.03100000    0.03490520
 -0.03050000    0.03576468
 -0.03000000    0.03664999
 -0.02950000    0.03756551
 -0.02900000    0.03851125
 -0.02850000    0.03948836
 -0.02800000    0.04049804
 -0.02750000    0.04154415
 -0.02700000    0.04261936
 -0.02650000    0.04373414
 -0.02600000    0.04488679
 -0.02550000    0.04607874
 -0.02500000    0.04730787
 -0.02450000    0.04857975
 -0.02400000    0.04989516
 -0.02350000    0.05125556
 -0.02300000    0.05266252
 -0.02250000    0.05412096
 -0.02200000    0.05562156
 -0.02150000    0.05717757
 -0.02100000    0.05878696
 -0.02050000    0.06045163
 -0.02000000    0.06217060
 -0.01950000    0.06394853
 -0.01900000    0.06578768
 -0.01850000    0.06769013
 -0.01800000    0.06965794
 -0.01750000    0.07169938
 -0.01700000    0.07379728
 -0.01650000    0.07597347
 -0.01600000    0.07822383
 -0.01550000    0.08055070
 -0.01500000    0.08295122
 -0.01450000    0.08543488
 -0.01400000    0.08800215
 -0.01350000    0.09065549
 -0.01300000    0.09339742
 -0.01250000    0.09623838
 -0.01200000    0.09915571
 -0.01150000    0.10217791
 -0.01100000    0.10529892
 -0.01050000    0.10852153
 -0.01000000    0.11184305
 -0.00950000    0.11527196
 -0.00900000    0.11881018
 -0.00850000    0.12245999
 -0.00800000    0.12622410
 -0.00750000    0.13011472
 -0.00700000    0.13410354
 -0.00650000    0.13822415
 -0.00600000    0.14246887
 -0.00550000    0.14683999
 -0.00500000    0.15133551
 -0.00450000    0.15596062
 -0.00400000    0.16071854
 -0.00350000    0.16561106
 -0.00300000    0.17064028
 -0.00250000    0.17581920
 -0.00200000    0.18111412
 -0.00150000    0.18656155
 -0.00100000    0.19215167
 -0.00050000    0.19788559
  0.00000000    0.20376312
  0.00050000    0.20978174
  0.00100000    0.21594646
  0.00150000    0.22225759
  0.00200000    0.22871531
  0.00250000    0.23533104
  0.00300000    0.24206847
  0.00350000    0.24896260
  0.00400000    0.25600122
  0.00450000    0.26318315
  0.00500000    0.27051008
  0.00550000    0.27796881
  0.00600000    0.28556604
  0.00650000    0.29329917
  0.00700000    0.30116570
  0.00750000    0.30917264
  0.00800000    0.31728677
  0.00850000    0.32553350
  0.00900000    0.33389994
  0.00950000    0.34238207
  0.01000000    0.35098370
  0.01050000    0.35967904
  0.01100000    0.36847597
  0.01150000    0.37736891
  0.01200000    0.38635215
  0.01250000    0.39542558
  0.01300000    0.40456662
  0.01350000    0.41378346
  0.01400000    0.42306539
  0.01450000    0.43240563
  0.01500000    0.44181017
  0.01550000    0.45124380
  0.01600000    0.46071474
  0.01650000    0.47021518
  0.01700000    0.47973752
  0.01750000    0.48927496
  0.01800000    0.49881870
  0.01850000    0.50836053
  0.01900000    0.51789347
  0.01950000    0.52740981
  0.02000000    0.53691475
  0.02050000    0.54637659
  0.02100000    0.55579972
  0.02150000    0.56517686
  0.02200000    0.57450080
  0.02250000    0.58376054
  0.02300000    0.59296287
  0.02350000    0.60208681
  0.02400000    0.61113104
  0.02450000    0.62008938
  0.02500000    0.62896622
  0.02550000    0.63774025
  0.02600000    0.64641259
  0.02650000    0.65497812
  0.02700000    0.66343255
  0.02750000    0.67176419
  0.02800000    0.67998622
  0.02850000    0.68809045
  0.02900000    0.69606208
  0.02950000    0.70390452
  0.03000000    0.71162005
  0.03050000    0.71920228
  0.03100000    0.72664871
  0.03150000    0.73395764
  0.03200000    0.74112766
  0.03250000    0.74814849
  0.03300000    0.75503962
  0.03350000    0.76179745
  0.03400000    0.76840517
  0.03450000    0.77487110
  0.03500000    0.78119622
  0.03550000    0.78738545
  0.03600000    0.79343417
  0.03650000    0.79934320
  0.03700000    0.80510432
  0.03750000    0.81073734
  0.03800000    0.81623546
  0.03850000    0.82160829
  0.03900000    0.82683881
  0.03950000    0.83193803
  0.04000000    0.83690575
  0.04050000    0.84175317
  0.04100000    0.84647489
  0.04150000    0.85107300
  0.04200000    0.85554102
  0.04250000    0.85989854
  0.04300000    0.86413986
  0.04350000    0.86827577
  0.04400000    0.87229059
  0.04450000    0.87619530
  0.04500000    0.87998862
  0.04550000    0.88368533
  0.04600000    0.88727885
  0.04650000    0.89077176
  0.04700000    0.89415958
  0.04750000    0.89745849
  0.04800000    0.90066400
  0.04850000    0.90378622
  0.04900000    0.90681243
  0.04950000    0.90975184
  0.05000000    0.91260225
  0.05050000    0.91537906
  0.05100000    0.91807557
  0.05150000    0.92069398
  0.05200000    0.92323139
  0.05250000    0.92570010
  0.05300000    0.92809691
  0.05350000    0.93043032
  0.05400000    0.93269053
  0.05450000    0.93488474
  0.05500000    0.93701085
  0.05550000    0.93908176
  0.05600000    0.94109196
  0.05650000    0.94304327
  0.05700000    0.94493358
  0.05750000    0.94677239
  0.05800000    0.94855739
  0.05850000    0.95029510
  0.05900000    0.95197771
  0.05950000    0.95361101
  0.06000000    0.95519392
  0.06050000    0.95673513
  0.06100000    0.95823123
  0.06150000    0.95968334
  0.06200000    0.96108994
  0.06250000    0.96245825
  0.06300000    0.96378626
  0.06350000    0.96507906
  0.06400000    0.96633077
  0.06450000    0.96754557
  0.06500000    0.96872277
  0.06550000    0.96986878
  0.06600000    0.97098098
  0.06650000    0.97206039
  0.06700000    0.97310549
  0.06750000    0.97412210
  0.06800000    0.97510860
  0.06850000    0.97606900
  0.06900000    0.97699811
  0.06950000    0.97789971
  0.07000000    0.97877332
  0.07050000    0.97962332
  0.07100000    0.98044792
  0.07150000    0.98124762
  0.07200000    0.98202143
  0.07250000    0.98277363
  0.07300000    0.98350313
  0.07350000    0.98421234
  0.07400000    0.98489804
  0.07450000    0.98556254
  0.07500000    0.98620544
  0.07550000    0.98683065
  0.07600000    0.98743615
  0.07650000    0.98802265
  0.07700000    0.98858895
  0.07750000    0.98913856
  0.07800000    0.98967066
  0.07850000    0.99018726
  0.07900000    0.99068536
  0.07950000    0.99116706
  0.08000000    0.99163167
  0.08050000    0.99208257
  0.08100000    0.99251797
  0.08150000    0.99293837
  0.08200000    0.99334257
  0.08250000    0.99373377
  0.08300000    0.99411088
  0.08350000    0.99447518
  0.08400000    0.99482478
  0.08450000    0.99516118
  0.08500000    0.99548358
  0.08550000    0.99579458
  0.08600000    0.99609288
  0.08650000    0.99637869
  0.08700000    0.99665149
  0.08750000    0.99691319
  0.08800000    0.99716329
  0.08850000    0.99740259
  0.08900000    0.99762969
  0.08950000    0.99784569
  0.09000000    0.99805019
  0.09050000    0.99824439
  0.09100000    0.99842779
  0.09150000    0.99860049
  0.09200000    0.99876180
  0.09250000    0.99891360
  0.09300000    0.99905520
  0.09350000    0.99918740
  0.09400000    0.99930860
  0.09450000    0.99941980
  0.09500000    0.99952120
  0.09550000    0.99961280
  0.09600000    0.99969450
  0.09650000    0.99976650
  0.09700000    0.99982820
  0.09750000    0.99988080
  0.09800000    0.99992370
  0.09850000    0.99995770
  0.09900000    0.99998140
  0.09950000    0.99999550
  0.10000000    1.00000000
  0.10050000    0.99999520
  0.10100000    0.99998080
  0.10150000    0.99995680
  0.10200000    0.99992270
  0.10250000    0.99987940
  0.10300000    0.99982660
  0.10350000    0.99976490
  0.10400000    0.99969270
  0.10450000    0.99961070
  0.10500000    0.99951930
  0.10550000    0.99941820
  0.10600000    0.99930710
  0.10650000    0.99918590
  0.10700000    0.99905400
  0.10750000    0.99891250
  0.10800000    0.99876070
  0.10850000    0.99859919
  0.10900000    0.99842629
  0.10950000    0.99824259
  0.11000000    0.99804829
  0.11050000    0.99784359
  0.11100000    0.99762769
  0.11150000    0.99740049
  0.11200000    0.99716109
  0.11250000    0.99691079
  0.11300000    0.99664879
  0.11350000    0.99637599
  0.11400000    0.99608988
  0.11450000    0.99579148
  0.11500000    0.99548048
  0.11550000    0.99515748
  0.11600000    0.99482148
  0.11650000    0.99447198
  0.11700000    0.99410778
  0.11750000    0.99373087
  0.11800000    0.99333997
  0.11850000    0.99293597
  0.11900000    0.99251577
  0.11950000    0.99208057
  0.12000000    0.99163027
  0.12050000    0.99116476
  0.12100000    0.99068306
  0.12150000    0.99018486
  0.12200000    0.98966836
  0.12250000    0.98913626
  0.12300000    0.98858655
  0.12350000    0.98801995
  0.12400000    0.98743345
  0.12450000    0.98682795
  0.12500000    0.98620374
  0.12550000    0.98555964
  0.12600000    0.98489504
  0.12650000    0.98420934
  0.12700000    0.98350013
  0.12750000    0.98277083
  0.12800000    0.98201883
  0.12850000    0.98124462
  0.12900000    0.98044502
  0.12950000    0.97962072
  0.13000000    0.97877242
  0.13050000    0.97789761
  0.13100000    0.97699591
  0.13150000    0.97606660
  0.13200000    0.97510670
  0.13250000    0.97412010
  0.13300000    0.97310349
  0.13350000    0.97205799
  0.13400000    0.97097858
  0.13450000    0.96986648
  0.13500000    0.96872267
  0.13550000    0.96754357
  0.13600000    0.96632867
  0.13650000    0.96507706
  0.13700000    0.96378456
  0.13750000    0.96245645
  0.13800000    0.96108824
  0.13850000    0.95968194
  0.13900000    0.95822973
  0.13950000    0.95673373
  0.14000000    0.95519532
  0.14050000    0.95360971
  0.14100000    0.95197621
  0.14150000    0.95029340
  0.14200000    0.94855559
  0.14250000    0.94677019
  0.14300000    0.94493108
  0.14350000    0.94304057
  0.14400000    0.94108886
  0.14450000    0.93907836
  0.14500000    0.93701035
  0.14550000    0.93487994
  0.14600000    0.93268533
  0.14650000    0.93042492
  0.14700000    0.92809091
  0.14750000    0.92569360
  0.14800000    0.92322449
  0.14850000    0.92068718
  0.14900000    0.91806857
  0.14950000    0.91537206
  0.15000000    0.91259925
  0.15050000    0.90974404
  0.15100000    0.90680443
  0.15150000    0.90377822
  0.15200000    0.90065590
  0.15250000    0.89745029
  0.15300000    0.89415128
  0.15350000    0.89076356
  0.15400000    0.88727055
  0.15450000    0.88367673
  0.15500000    0.87998422
  0.15550000    0.87618690
  0.15600000    0.87228189
  0.15650000    0.86826677
  0.15700000    0.86413066
  0.15750000    0.85988924
  0.15800000    0.85553142
  0.15850000    0.85106290
  0.15900000    0.84646439
  0.15950000    0.84174227
  0.16000000    0.83689695
  0.16050000    0.83192733
  0.16100000    0.82682801
  0.16150000    0.82159729
  0.16200000    0.81622366
  0.16250000    0.81072564
  0.16300000    0.80509242
  0.16350000    0.79933120
  0.16400000    0.79342187
  0.16450000    0.78737285
  0.16500000    0.78118382
  0.16550000    0.77485950
  0.16600000    0.76839367
  0.16650000    0.76178605
  0.16700000    0.75502712
  0.16750000    0.74813619
  0.16800000    0.74110626
  0.16850000    0.73394594
  0.16900000    0.72663711
  0.16950000    0.71919058
  0.17000000    0.71160375
  0.17050000    0.70389332
  0.17100000    0.69605108
  0.17150000    0.68807955
  0.17200000    0.67997402
  0.17250000    0.67175219
  0.17300000    0.66342145
  0.17350000    0.65496712
  0.17400000    0.64640159
  0.17450000    0.63772935
  0.17500000    0.62894512
  0.17550000    0.62007848
  0.17600000    0.61112014
  0.17650000    0.60207601
  0.17700000    0.59294847
  0.17750000    0.58374903
  0.17800000    0.57449020
  0.17850000    0.56516646
  0.17900000    0.55578962
  0.17950000    0.54636679
  0.18000000    0.53689155
  0.18050000    0.52739971
  0.18100000    0.51788357
  0.18150000    0.50835073
  0.18200000    0.49880910
  0.18250000    0.48926476
  0.18300000    0.47972842
  0.18350000    0.47020638
  0.18400000    0.46070614
  0.18450000    0.45123550
  0.18500000    0.44178877
  0.18550000    0.43239733
  0.18600000    0.42305709
  0.18650000    0.41377506
  0.18700000    0.40455822
  0.18750000    0.39541678
  0.18800000    0.38634425
  0.18850000    0.37736111
  0.18900000    0.36846837
  0.18950000    0.35967184
  0.19000000    0.35096800
  0.19050000    0.34237477
  0.19100000    0.33389264
  0.19150000    0.32552620
  0.19200000    0.31727947
  0.19250000    0.30916414
  0.19300000    0.30115860
  0.19350000    0.29329217
  0.19400000    0.28555924
  0.19450000    0.27796231
  0.19500000    0.27050068
  0.19550000    0.26317645
  0.19600000    0.25599442
  0.19650000    0.24895590
  0.19700000    0.24206187
  0.19750000    0.23532324
  0.19800000    0.22870921
  0.19850000    0.22225189
  0.19900000    0.21594106
  0.19950000    0.20977674
  0.20000000    0.20375992
  0.20050000    0.19788089
  0.20100000    0.19214677
  0.20150000    0.18655655
  0.20200000    0.18110902
  0.20250000    0.17581310
  0.20300000    0.17063568
  0.20350000    0.16560656
  0.20400000    0.16071404
  0.20450000    0.15595642
  0.20500000    0.15133561
  0.20550000    0.14683579
  0.20600000    0.14246467
  0.20650000    0.13822015
  0.20700000    0.13409974
  0.20750000    0.13011012
  0.20800000    0.12622080
  0.20850000    0.12245699
  0.20900000    0.11880748
  0.20950000    0.11526976
  0.21000000    0.11184625
  0.21050000    0.10851953
  0.21100000    0.10529702
  0.21150000    0.10217611
  0.21200000    0.09915415
  0.21250000    0.09623592
  0.21300000    0.09339607
  0.21350000    0.09065432
  0.21400000    0.08800118
  0.21450000    0.08543415
  0.21500000    0.08295568
  0.21550000    0.08054985
  0.21600000    0.07822305
  0.21650000    0.07597280
  0.21700000    0.07379673
  0.21750000    0.07169820
  0.21800000    0.06965775
  0.21850000    0.06768987
  0.21900000    0.06578725
  0.21950000    0.06394779
  0.22000000    0.06217332
  0.22050000    0.06045142
  0.22100000    0.05878685
  0.22150000    0.05717762
  0.22200000    0.05562184
  0.22250000    0.05412181
  0.22300000    0.05266332
  0.22350000    0.05125673
  0.22400000    0.04989664
  0.22450000    0.04858146
  0.22500000    0.04731258
  0.22550000    0.04608071
  0.22600000    0.04488938
  0.22650000    0.04373708
  0.22700000    0.04262244
  0.22750000    0.04154703
  0.22800000    0.04050074
  0.22850000    0.03949089
  0.22900000    0.03851361
  0.22950000    0.03756778
  0.23000000    0.03665437
  0.23050000    0.03576676
  0.23100000    0.03490746
  0.23150000    0.03407541
  0.23200000    0.03326962
  0.23250000    0.03249120
  0.23300000    0.03173306
  0.23350000    0.03100031
  0.23400000    0.03029028
  0.23450000    0.02960214
  0.23500000    0.02893662
  0.23550000    0.02828905
  0.23600000    0.02766121
  0.23650000    0.02705238
  0.23700000    0.02646185
  0.23750000    0.02589041
  0.23800000    0.02533315
  0.23850000    0.02479360
  0.23900000    0.02426992
  0.23950000    0.02376155
  0.24000000    0.02326900
  0.24050000    0.02278904
  0.24100000    0.02232291
  0.24150000    0.02187009
  0.24200000    0.02143014
  0.24250000    0.02100358
  0.24300000    0.02058703
  0.24350000    0.02018295
  0.24400000    0.01979005
  0.24450000    0.01940796
  0.24500000    0.01903697
  0.24550000    0.01867495
  0.24600000    0.01832274
  0.24650000    0.01797997
  0.24700000    0.01764633
  0.24750000    0.01732220
  0.24800000    0.01700519
  0.24850000    0.01669707
  0.24900000    0.01639693
  0.24950000    0.01610450
  0.25000000    0.01582003
  0.25050000    0.01554198
  0.25100000    0.01527096
  0.25150000    0.01500673
  0.25200000    0.01474906
  0.25250000    0.01449827
  0.25300000    0.01425259
  0.25350000    0.01401335
  0.25400000    0.01377988
  0.25450000    0.01355200
  0.25500000    0.01332990
  0.25550000    0.01311247
  0.25600000    0.01290016
  0.25650000    0.01269280
  0.25700000    0.01249024
  0.25750000    0.01229270
  0.25800000    0.01209893
  0.25850000    0.01190987
  0.25900000    0.01172505
  0.25950000    0.01154435
  0.26000000    0.01136790
  0.26050000    0.01119491
  0.26100000    0.01102571
  0.26150000    0.01086019
  0.26200000    0.01069822
  0.26250000    0.01053998
  0.26300000    0.01038456
  0.26350000    0.01023265
  0.26400000    0.01008391
  0.26450000    0.00993825
  0.26500000    0.00979574
  0.26550000    0.00965587
  0.26600000    0.00951885
  0.26650000    0.00938459
  0.26700000    0.00925301
  0.26750000    0.00912424
  0.26800000    0.00899761
  0.26850000    0.00887363
  0.26900000    0.00875207
  0.26950000    0.00863285
  0.27000000    0.00851603
  0.27050000    0.00840122
  0.27100000    0.00828858
  0.27150000    0.00817806
  0.27200000    0.00806959
  0.27250000    0.00796328
  0.27300000    0.00785861
  0.27350000    0.00775598
  0.27400000    0.00765521
  0.27450000    0.00755625
  0.27500000    0.00745915
  0.27550000    0.00736359
  0.27600000    0.00726973
  0.27650000    0.00717749
  0.27700000    0.00708686
  0.27750000    0.00699792
  0.27800000    0.00691024
  0.27850000    0.00682417
  0.27900000    0.00673955
  0.27950000    0.00665634
  0.28000000    0.00657459
  0.28050000    0.00649406
  0.28100000    0.00641485
  0.28150000    0.00633694
  0.28200000    0.00626028
  0.28250000    0.00618495
  0.28300000    0.00611064
  0.28350000    0.00603759
  0.28400000    0.00596569
  0.28450000    0.00589492
  0.28500000    0.00582530
  0.28550000    0.00575665
  0.28600000    0.00568906
  0.28650000    0.00562251
  0.28700000    0.00555696
  0.28750000    0.00549247
  0.28800000    0.00542880
  0.28850000    0.00536614
  0.28900000    0.00530441
  0.28950000    0.00524358
  0.29000000    0.00518367
  0.29050000    0.00512456
  0.29100000    0.00506630
  0.29150000    0.00500887
  0.29200000    0.00495226
  0.29250000    0.00489650
  0.29300000    0.00484141
  0.29350000    0.00478714
  0.29400000    0.00473362
  0.29450000    0.00468084
  0.29500000    0.00462881
  0.29550000    0.00457742
  0.29600000    0.00452673
  0.29650000    0.00447672
  0.29700000    0.00442738
  0.29750000    0.00437873
  0.29800000    0.00433064
  0.29850000    0.00428322
  0.29900000    0.00423641
  0.29950000    0.00419021
  0.30000000    0.00414464
  0.30050000    0.00409959
  0.30100000    0.00405512
  0.30150000    0.00401120
  0.30200000    0.00396785
  0.30250000    0.00392507
  0.30300000    0.00388275
  0.30350000    0.00384098
  0.30400000    0.00379972
  0.30450000    0.00375897
  0.30500000    0.00371873
  0.30550000    0.00367894
  0.30600000    0.00363962
  0.30650000    0.00360078
  0.30700000    0.00356239
  0.30750000    0.00352449
  0.30800000    0.00348697
  0.30850000    0.00344991
  0.30900000    0.00341329
  0.30950000    0.00337708
  0.31000000    0.00334130
  0.31050000    0.00330590
  0.31100000    0.00327090
  0.31150000    0.00323629
  0.31200000    0.00320208
  0.31250000    0.00316826
  0.31300000    0.00313477
  0.31350000    0.00310167
  0.31400000    0.00306894
  0.31450000    0.00303656
  0.31500000    0.00300453
  0.31550000    0.00297283
  0.31600000    0.00294147
  0.31650000    0.00291044
  0.31700000    0.00287974
  0.31750000    0.00284938
  0.31800000    0.00281929
  0.31850000    0.00278954
  0.31900000    0.00276009
  0.31950000    0.00273095
  0.32000000    0.00270211
  0.32050000    0.00267355
  0.32100000    0.00264527
  0.32150000    0.00261727
  0.32200000    0.00258956
  0.32250000    0.00256213
  0.32300000    0.00253495
  0.32350000    0.00250804
  0.32400000    0.00248139
  0.32450000    0.00245501
  0.32500000    0.00242888
  0.32550000    0.00240299
  0.32600000    0.00237734
  0.32650000    0.00235194
  0.32700000    0.00232678
  0.32750000    0.00230186
  0.32800000    0.00227715
  0.32850000    0.00225268
  0.32900000    0.00222843
  0.32950000    0.00220441
  0.33000000    0.00218061
  0.33050000    0.00215701
  0.33100000    0.00213362
  0.33150000    0.00211044
  0.33200000    0.00208746
  0.33250000    0.00206470
  0.33300000    0.00204212
  0.33350000    0.00201974
  0.33400000    0.00199755
  0.33450000    0.00197555
  0.33500000    0.00195375
  0.33550000    0.00193212
  0.33600000    0.00191067
  0.33650000    0.00188940
  0.33700000    0.00186830
  0.33750000    0.00184740
  0.33800000    0.00182663
  0.33850000    0.00180605
  0.33900000    0.00178564
  0.33950000    0.00176539
  0.34000000    0.00174530
  0.34050000    0.00172537
  0.34100000    0.00170558
  0.34150000    0.00168596
  0.34200000    0.00166649
  0.34250000    0.00164717
  0.34300000    0.00162798
  0.34350000    0.00160895
  0.34400000    0.00159006
  0.34450000    0.00157132
  0.34500000    0.00155271
  0.34550000    0.00153424
  0.34600000    0.00151589
  0.34650000    0.00149768
  0.34700000    0.00147961
  0.34750000    0.00146167
  0.34800000    0.00144384
  0.34850000    0.00142614
  0.34900000    0.00140857
  0.34950000    0.00139111
  0.35000000    0.00137378
  0.35050000    0.00135656
  0.35100000    0.00133946
  0.35150000    0.00132247
  0.35200000    0.00130559
  0.35250000    0.00128883
  0.35300000    0.00127217
  0.35350000    0.00125562
  0.35400000    0.00123917
  0.35450000    0.00122283
  0.35500000    0.00120660
  0.35550000    0.00119046
  0.35600000    0.00117442
  0.35650000    0.00115848
  0.35700000    0.00114263
  0.35750000    0.00112688
  0.35800000    0.00111122
  0.35850000    0.00109565
  0.35900000    0.00108017
  0.35950000    0.00106478
  0.36000000    0.00104948
  0.36050000    0.00103427
  0.36100000    0.00101913
  0.36150000    0.00100408
  0.36200000    0.00098911
  0.36250000    0.00097423
  0.36300000    0.00095941
  0.36350000    0.00094468
  0.36400000    0.00093002
  0.36450000    0.00091544
  0.36500000    0.00090093
  0.36550000    0.00088649
  0.36600000    0.00087212
  0.36650000    0.00085783
  0.36700000    0.00084360
  0.36750000    0.00082944
  0.36800000    0.00081534
  0.36850000    0.00080131
  0.36900000    0.00078734
  0.36950000    0.00077344
  0.37000000    0.00075960
  0.37050000    0.00074581
  0.37100000    0.00073208
  0.37150000    0.00071841
  0.37200000    0.00070480
  0.37250000    0.00069125
  0.37300000    0.00067774
  0.37350000    0.00066429
  0.37400000    0.00065089
  0.37450000    0.00063754
  0.37500000    0.00062425
  0.37550000    0.00061099
  0.37600000    0.00059779
  0.37650000    0.00058463
  0.37700000    0.00057152
  0.37750000    0.00055846
  0.37800000    0.00054543
  0.37850000    0.00053245
  0.37900000    0.00051951
  0.37950000    0.00050661
  0.38000000    0.00049375
  0.38050000    0.00048093
  0.38100000    0.00046814
  0.38150000    0.00045539
  0.38200000    0.00044267
  0.38250000    0.00042999
  0.38300000    0.00041734
  0.38350000    0.00040473
  0.38400000    0.00039214
  0.38450000    0.00037958
  0.38500000    0.00036705
  0.38550000    0.00035456
  0.38600000    0.00034209
  0.38650000    0.00032964
  0.38700000    0.00031722
  0.38750000    0.00030483
  0.38800000    0.00029245
  0.38850000    0.00028010
  0.38900000    0.00026777
  0.38950000    0.00025546
  0.39000000    0.00024316
  0.39050000    0.00023089
  0.39100000    0.00021864
  0.39150000    0.00020640
  0.39200000    0.00019418
  0.39250000    0.00018197
  0.39300000    0.00016978
  0.39350000    0.00015759
  0.39400000    0.00014542
  0.39450000    0.00013326
  0.39500000    0.00012112
  0.39550000    0.00010898
  0.39600000    0.00009685
  0.39650000    0.00008473
  0.39700000    0.00007261
  0.39750000    0.00006050
  0.39800000    0.00004840
  0.39850000    0.00003629
  0.39900000    0.00002419
  0.39950000    0.00001210
