%!PS-Adobe-2.0 EPSF-2.0
%%Title: plot_emittx_b_0.1.eps
%%Creator: gnuplot 5.2 patchlevel 2
%%CreationDate: Wed Jun 17 22:17:23 2020
%%DocumentFonts: (atend)
%%BoundingBox: 50 50 410 302
%%EndComments
%%BeginProlog
/gnudict 256 dict def
gnudict begin
%
% The following true/false flags may be edited by hand if desired.
% The unit line width and grayscale image gamma correction may also be changed.
%
/Color true def
/Blacktext false def
/Solid false def
/Dashlength 1 def
/Landscape false def
/Level1 false def
/Level3 false def
/Rounded false def
/ClipToBoundingBox false def
/SuppressPDFMark false def
/TransparentPatterns false def
/gnulinewidth 5.000 def
/userlinewidth gnulinewidth def
/Gamma 1.0 def
/BackgroundColor {-1.000 -1.000 -1.000} def
%
/vshift -60 def
/dl1 {
  10.0 Dashlength userlinewidth gnulinewidth div mul mul mul
  Rounded { currentlinewidth 0.75 mul sub dup 0 le { pop 0.01 } if } if
} def
/dl2 {
  10.0 Dashlength userlinewidth gnulinewidth div mul mul mul
  Rounded { currentlinewidth 0.75 mul add } if
} def
/hpt_ 31.5 def
/vpt_ 31.5 def
/hpt hpt_ def
/vpt vpt_ def
/doclip {
  ClipToBoundingBox {
    newpath 50 50 moveto 410 50 lineto 410 302 lineto 50 302 lineto closepath
    clip
  } if
} def
%
% Gnuplot Prolog Version 5.1 (Oct 2015)
%
%/SuppressPDFMark true def
%
/M {moveto} bind def
/L {lineto} bind def
/R {rmoveto} bind def
/V {rlineto} bind def
/N {newpath moveto} bind def
/Z {closepath} bind def
/C {setrgbcolor} bind def
/f {rlineto fill} bind def
/g {setgray} bind def
/Gshow {show} def   % May be redefined later in the file to support UTF-8
/vpt2 vpt 2 mul def
/hpt2 hpt 2 mul def
/Lshow {currentpoint stroke M 0 vshift R 
	Blacktext {gsave 0 setgray textshow grestore} {textshow} ifelse} def
/Rshow {currentpoint stroke M dup stringwidth pop neg vshift R
	Blacktext {gsave 0 setgray textshow grestore} {textshow} ifelse} def
/Cshow {currentpoint stroke M dup stringwidth pop -2 div vshift R 
	Blacktext {gsave 0 setgray textshow grestore} {textshow} ifelse} def
/UP {dup vpt_ mul /vpt exch def hpt_ mul /hpt exch def
  /hpt2 hpt 2 mul def /vpt2 vpt 2 mul def} def
/DL {Color {setrgbcolor Solid {pop []} if 0 setdash}
 {pop pop pop 0 setgray Solid {pop []} if 0 setdash} ifelse} def
/BL {stroke userlinewidth 2 mul setlinewidth
	Rounded {1 setlinejoin 1 setlinecap} if} def
/AL {stroke userlinewidth 2 div setlinewidth
	Rounded {1 setlinejoin 1 setlinecap} if} def
/UL {dup gnulinewidth mul /userlinewidth exch def
	dup 1 lt {pop 1} if 10 mul /udl exch def} def
/PL {stroke userlinewidth setlinewidth
	Rounded {1 setlinejoin 1 setlinecap} if} def
3.8 setmiterlimit
% Classic Line colors (version 5.0)
/LCw {1 1 1} def
/LCb {0 0 0} def
/LCa {0 0 0} def
/LC0 {1 0 0} def
/LC1 {0 1 0} def
/LC2 {0 0 1} def
/LC3 {1 0 1} def
/LC4 {0 1 1} def
/LC5 {1 1 0} def
/LC6 {0 0 0} def
/LC7 {1 0.3 0} def
/LC8 {0.5 0.5 0.5} def
% Default dash patterns (version 5.0)
/LTB {BL [] LCb DL} def
/LTw {PL [] 1 setgray} def
/LTb {PL [] LCb DL} def
/LTa {AL [1 udl mul 2 udl mul] 0 setdash LCa setrgbcolor} def
/LT0 {PL [] LC0 DL} def
/LT1 {PL [2 dl1 3 dl2] LC1 DL} def
/LT2 {PL [1 dl1 1.5 dl2] LC2 DL} def
/LT3 {PL [6 dl1 2 dl2 1 dl1 2 dl2] LC3 DL} def
/LT4 {PL [1 dl1 2 dl2 6 dl1 2 dl2 1 dl1 2 dl2] LC4 DL} def
/LT5 {PL [4 dl1 2 dl2] LC5 DL} def
/LT6 {PL [1.5 dl1 1.5 dl2 1.5 dl1 1.5 dl2 1.5 dl1 6 dl2] LC6 DL} def
/LT7 {PL [3 dl1 3 dl2 1 dl1 3 dl2] LC7 DL} def
/LT8 {PL [2 dl1 2 dl2 2 dl1 6 dl2] LC8 DL} def
/SL {[] 0 setdash} def
/Pnt {stroke [] 0 setdash gsave 1 setlinecap M 0 0 V stroke grestore} def
/Dia {stroke [] 0 setdash 2 copy vpt add M
  hpt neg vpt neg V hpt vpt neg V
  hpt vpt V hpt neg vpt V closepath stroke
  Pnt} def
/Pls {stroke [] 0 setdash vpt sub M 0 vpt2 V
  currentpoint stroke M
  hpt neg vpt neg R hpt2 0 V stroke
 } def
/Box {stroke [] 0 setdash 2 copy exch hpt sub exch vpt add M
  0 vpt2 neg V hpt2 0 V 0 vpt2 V
  hpt2 neg 0 V closepath stroke
  Pnt} def
/Crs {stroke [] 0 setdash exch hpt sub exch vpt add M
  hpt2 vpt2 neg V currentpoint stroke M
  hpt2 neg 0 R hpt2 vpt2 V stroke} def
/TriU {stroke [] 0 setdash 2 copy vpt 1.12 mul add M
  hpt neg vpt -1.62 mul V
  hpt 2 mul 0 V
  hpt neg vpt 1.62 mul V closepath stroke
  Pnt} def
/Star {2 copy Pls Crs} def
/BoxF {stroke [] 0 setdash exch hpt sub exch vpt add M
  0 vpt2 neg V hpt2 0 V 0 vpt2 V
  hpt2 neg 0 V closepath fill} def
/TriUF {stroke [] 0 setdash vpt 1.12 mul add M
  hpt neg vpt -1.62 mul V
  hpt 2 mul 0 V
  hpt neg vpt 1.62 mul V closepath fill} def
/TriD {stroke [] 0 setdash 2 copy vpt 1.12 mul sub M
  hpt neg vpt 1.62 mul V
  hpt 2 mul 0 V
  hpt neg vpt -1.62 mul V closepath stroke
  Pnt} def
/TriDF {stroke [] 0 setdash vpt 1.12 mul sub M
  hpt neg vpt 1.62 mul V
  hpt 2 mul 0 V
  hpt neg vpt -1.62 mul V closepath fill} def
/DiaF {stroke [] 0 setdash vpt add M
  hpt neg vpt neg V hpt vpt neg V
  hpt vpt V hpt neg vpt V closepath fill} def
/Pent {stroke [] 0 setdash 2 copy gsave
  translate 0 hpt M 4 {72 rotate 0 hpt L} repeat
  closepath stroke grestore Pnt} def
/PentF {stroke [] 0 setdash gsave
  translate 0 hpt M 4 {72 rotate 0 hpt L} repeat
  closepath fill grestore} def
/Circle {stroke [] 0 setdash 2 copy
  hpt 0 360 arc stroke Pnt} def
/CircleF {stroke [] 0 setdash hpt 0 360 arc fill} def
/C0 {BL [] 0 setdash 2 copy moveto vpt 90 450 arc} bind def
/C1 {BL [] 0 setdash 2 copy moveto
	2 copy vpt 0 90 arc closepath fill
	vpt 0 360 arc closepath} bind def
/C2 {BL [] 0 setdash 2 copy moveto
	2 copy vpt 90 180 arc closepath fill
	vpt 0 360 arc closepath} bind def
/C3 {BL [] 0 setdash 2 copy moveto
	2 copy vpt 0 180 arc closepath fill
	vpt 0 360 arc closepath} bind def
/C4 {BL [] 0 setdash 2 copy moveto
	2 copy vpt 180 270 arc closepath fill
	vpt 0 360 arc closepath} bind def
/C5 {BL [] 0 setdash 2 copy moveto
	2 copy vpt 0 90 arc
	2 copy moveto
	2 copy vpt 180 270 arc closepath fill
	vpt 0 360 arc} bind def
/C6 {BL [] 0 setdash 2 copy moveto
	2 copy vpt 90 270 arc closepath fill
	vpt 0 360 arc closepath} bind def
/C7 {BL [] 0 setdash 2 copy moveto
	2 copy vpt 0 270 arc closepath fill
	vpt 0 360 arc closepath} bind def
/C8 {BL [] 0 setdash 2 copy moveto
	2 copy vpt 270 360 arc closepath fill
	vpt 0 360 arc closepath} bind def
/C9 {BL [] 0 setdash 2 copy moveto
	2 copy vpt 270 450 arc closepath fill
	vpt 0 360 arc closepath} bind def
/C10 {BL [] 0 setdash 2 copy 2 copy moveto vpt 270 360 arc closepath fill
	2 copy moveto
	2 copy vpt 90 180 arc closepath fill
	vpt 0 360 arc closepath} bind def
/C11 {BL [] 0 setdash 2 copy moveto
	2 copy vpt 0 180 arc closepath fill
	2 copy moveto
	2 copy vpt 270 360 arc closepath fill
	vpt 0 360 arc closepath} bind def
/C12 {BL [] 0 setdash 2 copy moveto
	2 copy vpt 180 360 arc closepath fill
	vpt 0 360 arc closepath} bind def
/C13 {BL [] 0 setdash 2 copy moveto
	2 copy vpt 0 90 arc closepath fill
	2 copy moveto
	2 copy vpt 180 360 arc closepath fill
	vpt 0 360 arc closepath} bind def
/C14 {BL [] 0 setdash 2 copy moveto
	2 copy vpt 90 360 arc closepath fill
	vpt 0 360 arc} bind def
/C15 {BL [] 0 setdash 2 copy vpt 0 360 arc closepath fill
	vpt 0 360 arc closepath} bind def
/Rec {newpath 4 2 roll moveto 1 index 0 rlineto 0 exch rlineto
	neg 0 rlineto closepath} bind def
/Square {dup Rec} bind def
/Bsquare {vpt sub exch vpt sub exch vpt2 Square} bind def
/S0 {BL [] 0 setdash 2 copy moveto 0 vpt rlineto BL Bsquare} bind def
/S1 {BL [] 0 setdash 2 copy vpt Square fill Bsquare} bind def
/S2 {BL [] 0 setdash 2 copy exch vpt sub exch vpt Square fill Bsquare} bind def
/S3 {BL [] 0 setdash 2 copy exch vpt sub exch vpt2 vpt Rec fill Bsquare} bind def
/S4 {BL [] 0 setdash 2 copy exch vpt sub exch vpt sub vpt Square fill Bsquare} bind def
/S5 {BL [] 0 setdash 2 copy 2 copy vpt Square fill
	exch vpt sub exch vpt sub vpt Square fill Bsquare} bind def
/S6 {BL [] 0 setdash 2 copy exch vpt sub exch vpt sub vpt vpt2 Rec fill Bsquare} bind def
/S7 {BL [] 0 setdash 2 copy exch vpt sub exch vpt sub vpt vpt2 Rec fill
	2 copy vpt Square fill Bsquare} bind def
/S8 {BL [] 0 setdash 2 copy vpt sub vpt Square fill Bsquare} bind def
/S9 {BL [] 0 setdash 2 copy vpt sub vpt vpt2 Rec fill Bsquare} bind def
/S10 {BL [] 0 setdash 2 copy vpt sub vpt Square fill 2 copy exch vpt sub exch vpt Square fill
	Bsquare} bind def
/S11 {BL [] 0 setdash 2 copy vpt sub vpt Square fill 2 copy exch vpt sub exch vpt2 vpt Rec fill
	Bsquare} bind def
/S12 {BL [] 0 setdash 2 copy exch vpt sub exch vpt sub vpt2 vpt Rec fill Bsquare} bind def
/S13 {BL [] 0 setdash 2 copy exch vpt sub exch vpt sub vpt2 vpt Rec fill
	2 copy vpt Square fill Bsquare} bind def
/S14 {BL [] 0 setdash 2 copy exch vpt sub exch vpt sub vpt2 vpt Rec fill
	2 copy exch vpt sub exch vpt Square fill Bsquare} bind def
/S15 {BL [] 0 setdash 2 copy Bsquare fill Bsquare} bind def
/D0 {gsave translate 45 rotate 0 0 S0 stroke grestore} bind def
/D1 {gsave translate 45 rotate 0 0 S1 stroke grestore} bind def
/D2 {gsave translate 45 rotate 0 0 S2 stroke grestore} bind def
/D3 {gsave translate 45 rotate 0 0 S3 stroke grestore} bind def
/D4 {gsave translate 45 rotate 0 0 S4 stroke grestore} bind def
/D5 {gsave translate 45 rotate 0 0 S5 stroke grestore} bind def
/D6 {gsave translate 45 rotate 0 0 S6 stroke grestore} bind def
/D7 {gsave translate 45 rotate 0 0 S7 stroke grestore} bind def
/D8 {gsave translate 45 rotate 0 0 S8 stroke grestore} bind def
/D9 {gsave translate 45 rotate 0 0 S9 stroke grestore} bind def
/D10 {gsave translate 45 rotate 0 0 S10 stroke grestore} bind def
/D11 {gsave translate 45 rotate 0 0 S11 stroke grestore} bind def
/D12 {gsave translate 45 rotate 0 0 S12 stroke grestore} bind def
/D13 {gsave translate 45 rotate 0 0 S13 stroke grestore} bind def
/D14 {gsave translate 45 rotate 0 0 S14 stroke grestore} bind def
/D15 {gsave translate 45 rotate 0 0 S15 stroke grestore} bind def
/DiaE {stroke [] 0 setdash vpt add M
  hpt neg vpt neg V hpt vpt neg V
  hpt vpt V hpt neg vpt V closepath stroke} def
/BoxE {stroke [] 0 setdash exch hpt sub exch vpt add M
  0 vpt2 neg V hpt2 0 V 0 vpt2 V
  hpt2 neg 0 V closepath stroke} def
/TriUE {stroke [] 0 setdash vpt 1.12 mul add M
  hpt neg vpt -1.62 mul V
  hpt 2 mul 0 V
  hpt neg vpt 1.62 mul V closepath stroke} def
/TriDE {stroke [] 0 setdash vpt 1.12 mul sub M
  hpt neg vpt 1.62 mul V
  hpt 2 mul 0 V
  hpt neg vpt -1.62 mul V closepath stroke} def
/PentE {stroke [] 0 setdash gsave
  translate 0 hpt M 4 {72 rotate 0 hpt L} repeat
  closepath stroke grestore} def
/CircE {stroke [] 0 setdash 
  hpt 0 360 arc stroke} def
/Opaque {gsave closepath 1 setgray fill grestore 0 setgray closepath} def
/DiaW {stroke [] 0 setdash vpt add M
  hpt neg vpt neg V hpt vpt neg V
  hpt vpt V hpt neg vpt V Opaque stroke} def
/BoxW {stroke [] 0 setdash exch hpt sub exch vpt add M
  0 vpt2 neg V hpt2 0 V 0 vpt2 V
  hpt2 neg 0 V Opaque stroke} def
/TriUW {stroke [] 0 setdash vpt 1.12 mul add M
  hpt neg vpt -1.62 mul V
  hpt 2 mul 0 V
  hpt neg vpt 1.62 mul V Opaque stroke} def
/TriDW {stroke [] 0 setdash vpt 1.12 mul sub M
  hpt neg vpt 1.62 mul V
  hpt 2 mul 0 V
  hpt neg vpt -1.62 mul V Opaque stroke} def
/PentW {stroke [] 0 setdash gsave
  translate 0 hpt M 4 {72 rotate 0 hpt L} repeat
  Opaque stroke grestore} def
/CircW {stroke [] 0 setdash 
  hpt 0 360 arc Opaque stroke} def
/BoxFill {gsave Rec 1 setgray fill grestore} def
/Density {
  /Fillden exch def
  currentrgbcolor
  /ColB exch def /ColG exch def /ColR exch def
  /ColR ColR Fillden mul Fillden sub 1 add def
  /ColG ColG Fillden mul Fillden sub 1 add def
  /ColB ColB Fillden mul Fillden sub 1 add def
  ColR ColG ColB setrgbcolor} def
/BoxColFill {gsave Rec PolyFill} def
/PolyFill {gsave Density fill grestore grestore} def
/h {rlineto rlineto rlineto gsave closepath fill grestore} bind def
%
% PostScript Level 1 Pattern Fill routine for rectangles
% Usage: x y w h s a XX PatternFill
%	x,y = lower left corner of box to be filled
%	w,h = width and height of box
%	  a = angle in degrees between lines and x-axis
%	 XX = 0/1 for no/yes cross-hatch
%
/PatternFill {gsave /PFa [ 9 2 roll ] def
  PFa 0 get PFa 2 get 2 div add PFa 1 get PFa 3 get 2 div add translate
  PFa 2 get -2 div PFa 3 get -2 div PFa 2 get PFa 3 get Rec
  TransparentPatterns {} {gsave 1 setgray fill grestore} ifelse
  clip
  currentlinewidth 0.5 mul setlinewidth
  /PFs PFa 2 get dup mul PFa 3 get dup mul add sqrt def
  0 0 M PFa 5 get rotate PFs -2 div dup translate
  0 1 PFs PFa 4 get div 1 add floor cvi
	{PFa 4 get mul 0 M 0 PFs V} for
  0 PFa 6 get ne {
	0 1 PFs PFa 4 get div 1 add floor cvi
	{PFa 4 get mul 0 2 1 roll M PFs 0 V} for
 } if
  stroke grestore} def
%
/languagelevel where
 {pop languagelevel} {1} ifelse
dup 2 lt
	{/InterpretLevel1 true def
	 /InterpretLevel3 false def}
	{/InterpretLevel1 Level1 def
	 2 gt
	    {/InterpretLevel3 Level3 def}
	    {/InterpretLevel3 false def}
	 ifelse }
 ifelse
%
% PostScript level 2 pattern fill definitions
%
/Level2PatternFill {
/Tile8x8 {/PaintType 2 /PatternType 1 /TilingType 1 /BBox [0 0 8 8] /XStep 8 /YStep 8}
	bind def
/KeepColor {currentrgbcolor [/Pattern /DeviceRGB] setcolorspace} bind def
<< Tile8x8
 /PaintProc {0.5 setlinewidth pop 0 0 M 8 8 L 0 8 M 8 0 L stroke} 
>> matrix makepattern
/Pat1 exch def
<< Tile8x8
 /PaintProc {0.5 setlinewidth pop 0 0 M 8 8 L 0 8 M 8 0 L stroke
	0 4 M 4 8 L 8 4 L 4 0 L 0 4 L stroke}
>> matrix makepattern
/Pat2 exch def
<< Tile8x8
 /PaintProc {0.5 setlinewidth pop 0 0 M 0 8 L
	8 8 L 8 0 L 0 0 L fill}
>> matrix makepattern
/Pat3 exch def
<< Tile8x8
 /PaintProc {0.5 setlinewidth pop -4 8 M 8 -4 L
	0 12 M 12 0 L stroke}
>> matrix makepattern
/Pat4 exch def
<< Tile8x8
 /PaintProc {0.5 setlinewidth pop -4 0 M 8 12 L
	0 -4 M 12 8 L stroke}
>> matrix makepattern
/Pat5 exch def
<< Tile8x8
 /PaintProc {0.5 setlinewidth pop -2 8 M 4 -4 L
	0 12 M 8 -4 L 4 12 M 10 0 L stroke}
>> matrix makepattern
/Pat6 exch def
<< Tile8x8
 /PaintProc {0.5 setlinewidth pop -2 0 M 4 12 L
	0 -4 M 8 12 L 4 -4 M 10 8 L stroke}
>> matrix makepattern
/Pat7 exch def
<< Tile8x8
 /PaintProc {0.5 setlinewidth pop 8 -2 M -4 4 L
	12 0 M -4 8 L 12 4 M 0 10 L stroke}
>> matrix makepattern
/Pat8 exch def
<< Tile8x8
 /PaintProc {0.5 setlinewidth pop 0 -2 M 12 4 L
	-4 0 M 12 8 L -4 4 M 8 10 L stroke}
>> matrix makepattern
/Pat9 exch def
/Pattern1 {PatternBgnd KeepColor Pat1 setpattern} bind def
/Pattern2 {PatternBgnd KeepColor Pat2 setpattern} bind def
/Pattern3 {PatternBgnd KeepColor Pat3 setpattern} bind def
/Pattern4 {PatternBgnd KeepColor Landscape {Pat5} {Pat4} ifelse setpattern} bind def
/Pattern5 {PatternBgnd KeepColor Landscape {Pat4} {Pat5} ifelse setpattern} bind def
/Pattern6 {PatternBgnd KeepColor Landscape {Pat9} {Pat6} ifelse setpattern} bind def
/Pattern7 {PatternBgnd KeepColor Landscape {Pat8} {Pat7} ifelse setpattern} bind def
} def
%
%
%End of PostScript Level 2 code
%
/PatternBgnd {
  TransparentPatterns {} {gsave 1 setgray fill grestore} ifelse
} def
%
% Substitute for Level 2 pattern fill codes with
% grayscale if Level 2 support is not selected.
%
/Level1PatternFill {
/Pattern1 {0.250 Density} bind def
/Pattern2 {0.500 Density} bind def
/Pattern3 {0.750 Density} bind def
/Pattern4 {0.125 Density} bind def
/Pattern5 {0.375 Density} bind def
/Pattern6 {0.625 Density} bind def
/Pattern7 {0.875 Density} bind def
} def
%
% Now test for support of Level 2 code
%
Level1 {Level1PatternFill} {Level2PatternFill} ifelse
%
/Symbol-Oblique /Symbol findfont [1 0 .167 1 0 0] makefont
dup length dict begin {1 index /FID eq {pop pop} {def} ifelse} forall
currentdict end definefont pop
%
/Metrics {ExtendTextBox Gswidth} def
/Lwidth {currentpoint stroke M 0 vshift R Metrics} def
/Rwidth {currentpoint stroke M dup stringwidth pop neg vshift R Metrics} def
/Cwidth {currentpoint stroke M dup stringwidth pop -2 div vshift R Metrics} def
/GLwidth {currentpoint stroke M 0 vshift R {ExtendTextBox} forall} def
/GRwidth {currentpoint stroke M dup Gwidth vshift R {ExtendTextBox} forall} def
/GCwidth {currentpoint stroke M dup Gwidth 2 div vshift R {ExtendTextBox} forall} def
/GLwidth2 {0 Gwidth AddGlyphWidth} def
/GRwidth2 {Gwidth -1 mul 0 AddGlyphWidth} def
/GCwidth2 {Gwidth 2 div dup -1 mul AddGlyphWidth} def
/AddGlyphWidth { dup TBx2 gt {userdict /TBx2 3 -1 roll put} {pop} ifelse
                 dup TBx1 lt {userdict /TBx1 3 -1 roll put} {pop} ifelse } def
/MFshow {
   { dup 5 get 3 ge
     { 5 get 3 eq {gsave} {grestore} ifelse }
     {dup dup 0 get findfont exch 1 get scalefont setfont
     [ currentpoint ] exch dup 2 get 0 exch R dup 5 get 2 ne {dup dup 6
     get exch 4 get {textshow} {Metrics pop 0 R} ifelse }if dup 5 get 0 eq
     {dup 3 get {2 get neg 0 exch R pop} {pop aload pop M} ifelse} {dup 5
     get 1 eq {dup 2 get exch dup 3 get exch 6 get Gswidth pop -2 div
     dup 0 R} {dup 6 get Gswidth pop -2 div 0 R 6 get
     textshow 2 index {aload pop M neg 3 -1 roll neg R pop pop} {pop pop pop
     pop aload pop M} ifelse }ifelse }ifelse }
     ifelse }
   forall} def
/Gswidth {dup type /stringtype eq {stringwidth} {pop (n) stringwidth} ifelse} def
/MFwidth {0 exch { dup 5 get 3 ge { 5 get 3 eq { 0 } { pop } ifelse }
 {dup 3 get{dup dup 0 get findfont exch 1 get scalefont setfont
     6 get Gswidth pop add} {pop} ifelse} ifelse} forall} def
/MLshow { currentpoint stroke M
  0 exch R
  Blacktext {gsave 0 setgray MFshow grestore} {MFshow} ifelse } bind def
/MRshow { currentpoint stroke M
  exch dup MFwidth neg 3 -1 roll R
  Blacktext {gsave 0 setgray MFshow grestore} {MFshow} ifelse } bind def
/MCshow { currentpoint stroke M
  exch dup MFwidth -2 div 3 -1 roll R
  Blacktext {gsave 0 setgray MFshow grestore} {MFshow} ifelse } bind def
/XYsave    { [( ) 1 2 true false 3 ()] } bind def
/XYrestore { [( ) 1 2 true false 4 ()] } bind def
Level1 SuppressPDFMark or 
{} {
/SDict 10 dict def
systemdict /pdfmark known not {
  userdict /pdfmark systemdict /cleartomark get put
} if
SDict begin [
  /Title (plot_emittx_b_0.1.eps)
  /Subject (gnuplot plot)
  /Creator (gnuplot 5.2 patchlevel 2)
%  /Producer (gnuplot)
%  /Keywords ()
  /CreationDate (Wed Jun 17 22:17:23 2020)
  /DOCINFO pdfmark
end
} ifelse
%
% Support for boxed text - Ethan A Merritt Sep 2016
%
/InitTextBox { userdict /TBy2 3 -1 roll put userdict /TBx2 3 -1 roll put
           userdict /TBy1 3 -1 roll put userdict /TBx1 3 -1 roll put
	   /Boxing true def } def
/ExtendTextBox { dup type /stringtype eq
    { Boxing { gsave dup false charpath pathbbox
      dup TBy2 gt {userdict /TBy2 3 -1 roll put} {pop} ifelse
      dup TBx2 gt {userdict /TBx2 3 -1 roll put} {pop} ifelse
      dup TBy1 lt {userdict /TBy1 3 -1 roll put} {pop} ifelse
      dup TBx1 lt {userdict /TBx1 3 -1 roll put} {pop} ifelse
      grestore } if }
    {} ifelse} def
/PopTextBox { newpath TBx1 TBxmargin sub TBy1 TBymargin sub M
               TBx1 TBxmargin sub TBy2 TBymargin add L
	       TBx2 TBxmargin add TBy2 TBymargin add L
	       TBx2 TBxmargin add TBy1 TBymargin sub L closepath } def
/DrawTextBox { PopTextBox stroke /Boxing false def} def
/FillTextBox { gsave PopTextBox fill grestore /Boxing false def} def
0 0 0 0 InitTextBox
/TBxmargin 20 def
/TBymargin 20 def
/Boxing false def
/textshow { ExtendTextBox Gshow } def
%
end
%%EndProlog
%%Page: 1 1
gnudict begin
gsave
doclip
50 50 translate
0.050 0.050 scale
0 setgray
newpath
(Helvetica) findfont 180 scalefont setfont
BackgroundColor 0 lt 3 1 roll 0 lt exch 0 lt or or not {BackgroundColor C 1.000 0 0 7200.00 5040.00 BoxColFill} if
1.000 UL
LTb
LCb setrgbcolor
990 576 M
63 0 V
5822 0 R
-63 0 V
stroke
882 576 M
[ [(Helvetica) 180.0 0.0 true true 0 ( 0.14)]
] -60.0 MRshow
1.000 UL
LTb
LCb setrgbcolor
990 1188 M
63 0 V
5822 0 R
-63 0 V
stroke
882 1188 M
[ [(Helvetica) 180.0 0.0 true true 0 ( 0.16)]
] -60.0 MRshow
1.000 UL
LTb
LCb setrgbcolor
990 1800 M
63 0 V
5822 0 R
-63 0 V
stroke
882 1800 M
[ [(Helvetica) 180.0 0.0 true true 0 ( 0.18)]
] -60.0 MRshow
1.000 UL
LTb
LCb setrgbcolor
990 2412 M
63 0 V
5822 0 R
-63 0 V
stroke
882 2412 M
[ [(Helvetica) 180.0 0.0 true true 0 ( 0.2)]
] -60.0 MRshow
1.000 UL
LTb
LCb setrgbcolor
990 3023 M
63 0 V
5822 0 R
-63 0 V
stroke
882 3023 M
[ [(Helvetica) 180.0 0.0 true true 0 ( 0.22)]
] -60.0 MRshow
1.000 UL
LTb
LCb setrgbcolor
990 3635 M
63 0 V
5822 0 R
-63 0 V
stroke
882 3635 M
[ [(Helvetica) 180.0 0.0 true true 0 ( 0.24)]
] -60.0 MRshow
1.000 UL
LTb
LCb setrgbcolor
990 4247 M
63 0 V
5822 0 R
-63 0 V
stroke
882 4247 M
[ [(Helvetica) 180.0 0.0 true true 0 ( 0.26)]
] -60.0 MRshow
1.000 UL
LTb
LCb setrgbcolor
990 4859 M
63 0 V
5822 0 R
-63 0 V
stroke
882 4859 M
[ [(Helvetica) 180.0 0.0 true true 0 ( 0.28)]
] -60.0 MRshow
1.000 UL
LTb
LCb setrgbcolor
990 576 M
0 63 V
0 4220 R
0 -63 V
stroke
990 396 M
[ [(Helvetica) 180.0 0.0 true true 0 ( 0)]
] -60.0 MCshow
1.000 UL
LTb
LCb setrgbcolor
2167 576 M
0 63 V
0 4220 R
0 -63 V
stroke
2167 396 M
[ [(Helvetica) 180.0 0.0 true true 0 ( 50)]
] -60.0 MCshow
1.000 UL
LTb
LCb setrgbcolor
3344 576 M
0 63 V
0 4220 R
0 -63 V
stroke
3344 396 M
[ [(Helvetica) 180.0 0.0 true true 0 ( 100)]
] -60.0 MCshow
1.000 UL
LTb
LCb setrgbcolor
4521 576 M
0 63 V
0 4220 R
0 -63 V
stroke
4521 396 M
[ [(Helvetica) 180.0 0.0 true true 0 ( 150)]
] -60.0 MCshow
1.000 UL
LTb
LCb setrgbcolor
5698 576 M
0 63 V
0 4220 R
0 -63 V
stroke
5698 396 M
[ [(Helvetica) 180.0 0.0 true true 0 ( 200)]
] -60.0 MCshow
1.000 UL
LTb
LCb setrgbcolor
6875 576 M
0 63 V
0 4220 R
0 -63 V
stroke
6875 396 M
[ [(Helvetica) 180.0 0.0 true true 0 ( 250)]
] -60.0 MCshow
1.000 UL
LTb
LCb setrgbcolor
1.000 UL
LTB
LCb setrgbcolor
990 4859 N
990 576 L
5885 0 V
0 4283 V
-5885 0 V
Z stroke
1.000 UP
1.000 UL
LTb
LCb setrgbcolor
LCb setrgbcolor
162 2717 M
currentpoint gsave translate -270 rotate 0 0 moveto
[ [(Symbol) 180.0 0.0 true true 0 (e)]
[(Helvetica) 144.0 -54.0 true true 0 (x)]
[(Helvetica) 180.0 0.0 true true 0 ( [mm.mrad])]
] -42.0 MCshow
grestore
LTb
LCb setrgbcolor
3932 126 M
[ [(Helvetica) 180.0 0.0 true true 0 (s [m])]
] -60.0 MCshow
LTb
% Begin plot #1
1.000 UP
1.000 UL
LTb
0.58 0.00 0.83 C LCb setrgbcolor
6056 4706 M
[ [(Helvetica) 180.0 0.0 true true 0 (orbit correction)]
] -60.0 MRshow
1.000 UP
1.000 UL
LTb
0.58 0.00 0.83 C 6164 4706 M
495 0 V
1008 1264 M
14 -24 V
10 -123 V
16 -8 V
53 20 V
55 -60 V
55 35 V
55 67 V
54 182 V
55 160 V
78 25 V
36 316 V
13 984 V
7 -1110 V
232 184 V
29 -89 V
31 25 V
18 -11 V
44 14 V
58 -30 V
57 9 V
57 51 V
58 1 V
57 -22 V
58 -1 V
57 19 V
58 -17 V
25 14 V
93 111 V
12 -122 V
226 2422 V
9 -253 V
12 -32 V
74 182 V
9 -103 V
12 -99 V
197 56 V
14 169 V
9 -209 V
42 26 V
69 21 V
58 -14 V
57 8 V
57 73 V
58 -34 V
57 20 V
58 -19 V
57 90 V
13 -48 V
13 58 V
11 -71 V
172 20 V
23 23 V
28 21 V
69 -12 V
50 8 V
109 50 V
108 -24 V
108 5 V
108 -10 V
109 49 V
108 -7 V
108 22 V
109 -28 V
108 39 V
108 26 V
108 -28 V
109 15 V
108 18 V
108 -1 V
109 11 V
108 15 V
108 -12 V
108 6 V
109 61 V
108 -7 V
1 -12 V
1008 1264 Pls
1022 1240 Pls
1032 1117 Pls
1048 1109 Pls
1101 1129 Pls
1156 1069 Pls
1211 1104 Pls
1266 1171 Pls
1320 1353 Pls
1375 1513 Pls
1453 1538 Pls
1489 1854 Pls
1502 2838 Pls
1509 1728 Pls
1741 1912 Pls
1770 1823 Pls
1801 1848 Pls
1819 1837 Pls
1863 1851 Pls
1921 1821 Pls
1978 1830 Pls
2035 1881 Pls
2093 1882 Pls
2150 1860 Pls
2208 1859 Pls
2265 1878 Pls
2323 1861 Pls
2348 1875 Pls
2441 1986 Pls
2453 1864 Pls
2679 4286 Pls
2688 4033 Pls
2700 4001 Pls
2774 4183 Pls
2783 4080 Pls
2795 3981 Pls
2992 4037 Pls
3006 4206 Pls
3015 3997 Pls
3057 4023 Pls
3126 4044 Pls
3184 4030 Pls
3241 4038 Pls
3298 4111 Pls
3356 4077 Pls
3413 4097 Pls
3471 4078 Pls
3528 4168 Pls
3541 4120 Pls
3554 4178 Pls
3565 4107 Pls
3737 4127 Pls
3760 4150 Pls
3788 4171 Pls
3857 4159 Pls
3907 4167 Pls
4016 4217 Pls
4124 4193 Pls
4232 4198 Pls
4340 4188 Pls
4449 4237 Pls
4557 4230 Pls
4665 4252 Pls
4774 4224 Pls
4882 4263 Pls
4990 4289 Pls
5098 4261 Pls
5207 4276 Pls
5315 4294 Pls
5423 4293 Pls
5532 4304 Pls
5640 4319 Pls
5748 4307 Pls
5856 4313 Pls
5965 4374 Pls
6073 4367 Pls
6074 4355 Pls
6411 4706 Pls
% End plot #1
% Begin plot #2
1.000 UP
1.000 UL
LTb
0.00 0.62 0.45 C LCb setrgbcolor
6056 4526 M
[ [(Helvetica) 180.0 0.0 true true 0 (dispersion-free correction)]
] -60.0 MRshow
1.000 UP
1.000 UL
LTb
0.00 0.62 0.45 C 6164 4526 M
495 0 V
1008 1312 M
14 -14 V
10 -171 V
16 -12 V
53 20 V
55 -59 V
55 24 V
55 53 V
54 176 V
55 106 V
78 -1 V
36 149 V
13 62 V
7 -70 V
232 114 V
29 -74 V
31 13 V
18 0 V
44 -13 V
58 -18 V
57 -3 V
57 36 V
58 1 V
57 -19 V
58 -4 V
57 11 V
58 14 V
25 -6 V
93 26 V
12 -23 V
226 2355 V
9 -126 V
12 -78 V
74 127 V
9 -79 V
12 -49 V
197 19 V
14 110 V
9 -114 V
42 22 V
69 17 V
58 0 V
57 3 V
57 60 V
58 -14 V
57 9 V
58 -7 V
57 56 V
13 12 V
13 -4 V
11 -16 V
172 43 V
23 66 V
28 31 V
69 -11 V
50 2 V
109 53 V
108 -5 V
108 1 V
108 -7 V
109 56 V
108 14 V
108 8 V
109 -19 V
108 39 V
108 7 V
108 -10 V
109 6 V
108 21 V
108 5 V
109 29 V
108 -11 V
108 0 V
108 -1 V
109 69 V
108 -11 V
1 -13 V
1008 1312 Crs
1022 1298 Crs
1032 1127 Crs
1048 1115 Crs
1101 1135 Crs
1156 1076 Crs
1211 1100 Crs
1266 1153 Crs
1320 1329 Crs
1375 1435 Crs
1453 1434 Crs
1489 1583 Crs
1502 1645 Crs
1509 1575 Crs
1741 1689 Crs
1770 1615 Crs
1801 1628 Crs
1819 1628 Crs
1863 1615 Crs
1921 1597 Crs
1978 1594 Crs
2035 1630 Crs
2093 1631 Crs
2150 1612 Crs
2208 1608 Crs
2265 1619 Crs
2323 1633 Crs
2348 1627 Crs
2441 1653 Crs
2453 1630 Crs
2679 3985 Crs
2688 3859 Crs
2700 3781 Crs
2774 3908 Crs
2783 3829 Crs
2795 3780 Crs
2992 3799 Crs
3006 3909 Crs
3015 3795 Crs
3057 3817 Crs
3126 3834 Crs
3184 3834 Crs
3241 3837 Crs
3298 3897 Crs
3356 3883 Crs
3413 3892 Crs
3471 3885 Crs
3528 3941 Crs
3541 3953 Crs
3554 3949 Crs
3565 3933 Crs
3737 3976 Crs
3760 4042 Crs
3788 4073 Crs
3857 4062 Crs
3907 4064 Crs
4016 4117 Crs
4124 4112 Crs
4232 4113 Crs
4340 4106 Crs
4449 4162 Crs
4557 4176 Crs
4665 4184 Crs
4774 4165 Crs
4882 4204 Crs
4990 4211 Crs
5098 4201 Crs
5207 4207 Crs
5315 4228 Crs
5423 4233 Crs
5532 4262 Crs
5640 4251 Crs
5748 4251 Crs
5856 4250 Crs
5965 4319 Crs
6073 4308 Crs
6074 4295 Crs
6411 4526 Crs
% End plot #2
% Begin plot #3
1.000 UP
1.000 UL
LTb
0.34 0.71 0.91 C LCb setrgbcolor
6056 4346 M
[ [(Helvetica) 180.0 0.0 true true 0 (wakefield-free correction)]
] -60.0 MRshow
1.000 UP
1.000 UL
LTb
0.34 0.71 0.91 C 6164 4346 M
495 0 V
1008 1321 M
14 -19 V
10 -176 V
16 -11 V
53 20 V
55 -60 V
55 22 V
55 56 V
54 162 V
55 -8 V
78 9 V
36 111 V
13 136 V
7 -110 V
232 130 V
29 -87 V
31 14 V
18 -12 V
44 2 V
58 -26 V
57 1 V
57 35 V
58 7 V
57 -37 V
58 6 V
57 8 V
58 14 V
25 -5 V
93 19 V
12 -19 V
226 2176 V
9 -141 V
12 -61 V
74 96 V
9 -40 V
12 -49 V
197 10 V
14 112 V
9 -114 V
42 18 V
69 8 V
58 12 V
57 1 V
57 64 V
58 -25 V
57 5 V
58 -11 V
57 53 V
13 11 V
13 -1 V
11 -15 V
172 66 V
23 46 V
28 25 V
69 -16 V
50 19 V
109 52 V
108 -6 V
108 -2 V
108 -8 V
109 50 V
108 4 V
108 8 V
109 -19 V
108 34 V
108 9 V
108 -6 V
109 3 V
108 21 V
108 6 V
109 30 V
108 -7 V
108 0 V
108 -4 V
109 64 V
108 -11 V
1 -6 V
1008 1321 Star
1022 1302 Star
1032 1126 Star
1048 1115 Star
1101 1135 Star
1156 1075 Star
1211 1097 Star
1266 1153 Star
1320 1315 Star
1375 1307 Star
1453 1316 Star
1489 1427 Star
1502 1563 Star
1509 1453 Star
1741 1583 Star
1770 1496 Star
1801 1510 Star
1819 1498 Star
1863 1500 Star
1921 1474 Star
1978 1475 Star
2035 1510 Star
2093 1517 Star
2150 1480 Star
2208 1486 Star
2265 1494 Star
2323 1508 Star
2348 1503 Star
2441 1522 Star
2453 1503 Star
2679 3679 Star
2688 3538 Star
2700 3477 Star
2774 3573 Star
2783 3533 Star
2795 3484 Star
2992 3494 Star
3006 3606 Star
3015 3492 Star
3057 3510 Star
3126 3518 Star
3184 3530 Star
3241 3531 Star
3298 3595 Star
3356 3570 Star
3413 3575 Star
3471 3564 Star
3528 3617 Star
3541 3628 Star
3554 3627 Star
3565 3612 Star
3737 3678 Star
3760 3724 Star
3788 3749 Star
3857 3733 Star
3907 3752 Star
4016 3804 Star
4124 3798 Star
4232 3796 Star
4340 3788 Star
4449 3838 Star
4557 3842 Star
4665 3850 Star
4774 3831 Star
4882 3865 Star
4990 3874 Star
5098 3868 Star
5207 3871 Star
5315 3892 Star
5423 3898 Star
5532 3928 Star
5640 3921 Star
5748 3921 Star
5856 3917 Star
5965 3981 Star
6073 3970 Star
6074 3964 Star
6411 4346 Star
% End plot #3
2.000 UL
LTb
LCb setrgbcolor
1.000 UL
LTB
LCb setrgbcolor
990 4859 N
990 576 L
5885 0 V
0 4283 V
-5885 0 V
Z stroke
1.000 UP
1.000 UL
LTb
LCb setrgbcolor
stroke
grestore
end
showpage
%%Trailer
%%DocumentFonts: Symbol Helvetica
