%!PS-Adobe-2.0 EPSF-2.0
%%Title: plot_emitty_b_0.1.eps
%%Creator: gnuplot 5.2 patchlevel 2
%%CreationDate: Wed Jun 17 22:17:23 2020
%%DocumentFonts: (atend)
%%BoundingBox: 50 50 410 302
%%EndComments
%%BeginProlog
/gnudict 256 dict def
gnudict begin
%
% The following true/false flags may be edited by hand if desired.
% The unit line width and grayscale image gamma correction may also be changed.
%
/Color true def
/Blacktext false def
/Solid false def
/Dashlength 1 def
/Landscape false def
/Level1 false def
/Level3 false def
/Rounded false def
/ClipToBoundingBox false def
/SuppressPDFMark false def
/TransparentPatterns false def
/gnulinewidth 5.000 def
/userlinewidth gnulinewidth def
/Gamma 1.0 def
/BackgroundColor {-1.000 -1.000 -1.000} def
%
/vshift -60 def
/dl1 {
  10.0 Dashlength userlinewidth gnulinewidth div mul mul mul
  Rounded { currentlinewidth 0.75 mul sub dup 0 le { pop 0.01 } if } if
} def
/dl2 {
  10.0 Dashlength userlinewidth gnulinewidth div mul mul mul
  Rounded { currentlinewidth 0.75 mul add } if
} def
/hpt_ 31.5 def
/vpt_ 31.5 def
/hpt hpt_ def
/vpt vpt_ def
/doclip {
  ClipToBoundingBox {
    newpath 50 50 moveto 410 50 lineto 410 302 lineto 50 302 lineto closepath
    clip
  } if
} def
%
% Gnuplot Prolog Version 5.1 (Oct 2015)
%
%/SuppressPDFMark true def
%
/M {moveto} bind def
/L {lineto} bind def
/R {rmoveto} bind def
/V {rlineto} bind def
/N {newpath moveto} bind def
/Z {closepath} bind def
/C {setrgbcolor} bind def
/f {rlineto fill} bind def
/g {setgray} bind def
/Gshow {show} def   % May be redefined later in the file to support UTF-8
/vpt2 vpt 2 mul def
/hpt2 hpt 2 mul def
/Lshow {currentpoint stroke M 0 vshift R 
	Blacktext {gsave 0 setgray textshow grestore} {textshow} ifelse} def
/Rshow {currentpoint stroke M dup stringwidth pop neg vshift R
	Blacktext {gsave 0 setgray textshow grestore} {textshow} ifelse} def
/Cshow {currentpoint stroke M dup stringwidth pop -2 div vshift R 
	Blacktext {gsave 0 setgray textshow grestore} {textshow} ifelse} def
/UP {dup vpt_ mul /vpt exch def hpt_ mul /hpt exch def
  /hpt2 hpt 2 mul def /vpt2 vpt 2 mul def} def
/DL {Color {setrgbcolor Solid {pop []} if 0 setdash}
 {pop pop pop 0 setgray Solid {pop []} if 0 setdash} ifelse} def
/BL {stroke userlinewidth 2 mul setlinewidth
	Rounded {1 setlinejoin 1 setlinecap} if} def
/AL {stroke userlinewidth 2 div setlinewidth
	Rounded {1 setlinejoin 1 setlinecap} if} def
/UL {dup gnulinewidth mul /userlinewidth exch def
	dup 1 lt {pop 1} if 10 mul /udl exch def} def
/PL {stroke userlinewidth setlinewidth
	Rounded {1 setlinejoin 1 setlinecap} if} def
3.8 setmiterlimit
% Classic Line colors (version 5.0)
/LCw {1 1 1} def
/LCb {0 0 0} def
/LCa {0 0 0} def
/LC0 {1 0 0} def
/LC1 {0 1 0} def
/LC2 {0 0 1} def
/LC3 {1 0 1} def
/LC4 {0 1 1} def
/LC5 {1 1 0} def
/LC6 {0 0 0} def
/LC7 {1 0.3 0} def
/LC8 {0.5 0.5 0.5} def
% Default dash patterns (version 5.0)
/LTB {BL [] LCb DL} def
/LTw {PL [] 1 setgray} def
/LTb {PL [] LCb DL} def
/LTa {AL [1 udl mul 2 udl mul] 0 setdash LCa setrgbcolor} def
/LT0 {PL [] LC0 DL} def
/LT1 {PL [2 dl1 3 dl2] LC1 DL} def
/LT2 {PL [1 dl1 1.5 dl2] LC2 DL} def
/LT3 {PL [6 dl1 2 dl2 1 dl1 2 dl2] LC3 DL} def
/LT4 {PL [1 dl1 2 dl2 6 dl1 2 dl2 1 dl1 2 dl2] LC4 DL} def
/LT5 {PL [4 dl1 2 dl2] LC5 DL} def
/LT6 {PL [1.5 dl1 1.5 dl2 1.5 dl1 1.5 dl2 1.5 dl1 6 dl2] LC6 DL} def
/LT7 {PL [3 dl1 3 dl2 1 dl1 3 dl2] LC7 DL} def
/LT8 {PL [2 dl1 2 dl2 2 dl1 6 dl2] LC8 DL} def
/SL {[] 0 setdash} def
/Pnt {stroke [] 0 setdash gsave 1 setlinecap M 0 0 V stroke grestore} def
/Dia {stroke [] 0 setdash 2 copy vpt add M
  hpt neg vpt neg V hpt vpt neg V
  hpt vpt V hpt neg vpt V closepath stroke
  Pnt} def
/Pls {stroke [] 0 setdash vpt sub M 0 vpt2 V
  currentpoint stroke M
  hpt neg vpt neg R hpt2 0 V stroke
 } def
/Box {stroke [] 0 setdash 2 copy exch hpt sub exch vpt add M
  0 vpt2 neg V hpt2 0 V 0 vpt2 V
  hpt2 neg 0 V closepath stroke
  Pnt} def
/Crs {stroke [] 0 setdash exch hpt sub exch vpt add M
  hpt2 vpt2 neg V currentpoint stroke M
  hpt2 neg 0 R hpt2 vpt2 V stroke} def
/TriU {stroke [] 0 setdash 2 copy vpt 1.12 mul add M
  hpt neg vpt -1.62 mul V
  hpt 2 mul 0 V
  hpt neg vpt 1.62 mul V closepath stroke
  Pnt} def
/Star {2 copy Pls Crs} def
/BoxF {stroke [] 0 setdash exch hpt sub exch vpt add M
  0 vpt2 neg V hpt2 0 V 0 vpt2 V
  hpt2 neg 0 V closepath fill} def
/TriUF {stroke [] 0 setdash vpt 1.12 mul add M
  hpt neg vpt -1.62 mul V
  hpt 2 mul 0 V
  hpt neg vpt 1.62 mul V closepath fill} def
/TriD {stroke [] 0 setdash 2 copy vpt 1.12 mul sub M
  hpt neg vpt 1.62 mul V
  hpt 2 mul 0 V
  hpt neg vpt -1.62 mul V closepath stroke
  Pnt} def
/TriDF {stroke [] 0 setdash vpt 1.12 mul sub M
  hpt neg vpt 1.62 mul V
  hpt 2 mul 0 V
  hpt neg vpt -1.62 mul V closepath fill} def
/DiaF {stroke [] 0 setdash vpt add M
  hpt neg vpt neg V hpt vpt neg V
  hpt vpt V hpt neg vpt V closepath fill} def
/Pent {stroke [] 0 setdash 2 copy gsave
  translate 0 hpt M 4 {72 rotate 0 hpt L} repeat
  closepath stroke grestore Pnt} def
/PentF {stroke [] 0 setdash gsave
  translate 0 hpt M 4 {72 rotate 0 hpt L} repeat
  closepath fill grestore} def
/Circle {stroke [] 0 setdash 2 copy
  hpt 0 360 arc stroke Pnt} def
/CircleF {stroke [] 0 setdash hpt 0 360 arc fill} def
/C0 {BL [] 0 setdash 2 copy moveto vpt 90 450 arc} bind def
/C1 {BL [] 0 setdash 2 copy moveto
	2 copy vpt 0 90 arc closepath fill
	vpt 0 360 arc closepath} bind def
/C2 {BL [] 0 setdash 2 copy moveto
	2 copy vpt 90 180 arc closepath fill
	vpt 0 360 arc closepath} bind def
/C3 {BL [] 0 setdash 2 copy moveto
	2 copy vpt 0 180 arc closepath fill
	vpt 0 360 arc closepath} bind def
/C4 {BL [] 0 setdash 2 copy moveto
	2 copy vpt 180 270 arc closepath fill
	vpt 0 360 arc closepath} bind def
/C5 {BL [] 0 setdash 2 copy moveto
	2 copy vpt 0 90 arc
	2 copy moveto
	2 copy vpt 180 270 arc closepath fill
	vpt 0 360 arc} bind def
/C6 {BL [] 0 setdash 2 copy moveto
	2 copy vpt 90 270 arc closepath fill
	vpt 0 360 arc closepath} bind def
/C7 {BL [] 0 setdash 2 copy moveto
	2 copy vpt 0 270 arc closepath fill
	vpt 0 360 arc closepath} bind def
/C8 {BL [] 0 setdash 2 copy moveto
	2 copy vpt 270 360 arc closepath fill
	vpt 0 360 arc closepath} bind def
/C9 {BL [] 0 setdash 2 copy moveto
	2 copy vpt 270 450 arc closepath fill
	vpt 0 360 arc closepath} bind def
/C10 {BL [] 0 setdash 2 copy 2 copy moveto vpt 270 360 arc closepath fill
	2 copy moveto
	2 copy vpt 90 180 arc closepath fill
	vpt 0 360 arc closepath} bind def
/C11 {BL [] 0 setdash 2 copy moveto
	2 copy vpt 0 180 arc closepath fill
	2 copy moveto
	2 copy vpt 270 360 arc closepath fill
	vpt 0 360 arc closepath} bind def
/C12 {BL [] 0 setdash 2 copy moveto
	2 copy vpt 180 360 arc closepath fill
	vpt 0 360 arc closepath} bind def
/C13 {BL [] 0 setdash 2 copy moveto
	2 copy vpt 0 90 arc closepath fill
	2 copy moveto
	2 copy vpt 180 360 arc closepath fill
	vpt 0 360 arc closepath} bind def
/C14 {BL [] 0 setdash 2 copy moveto
	2 copy vpt 90 360 arc closepath fill
	vpt 0 360 arc} bind def
/C15 {BL [] 0 setdash 2 copy vpt 0 360 arc closepath fill
	vpt 0 360 arc closepath} bind def
/Rec {newpath 4 2 roll moveto 1 index 0 rlineto 0 exch rlineto
	neg 0 rlineto closepath} bind def
/Square {dup Rec} bind def
/Bsquare {vpt sub exch vpt sub exch vpt2 Square} bind def
/S0 {BL [] 0 setdash 2 copy moveto 0 vpt rlineto BL Bsquare} bind def
/S1 {BL [] 0 setdash 2 copy vpt Square fill Bsquare} bind def
/S2 {BL [] 0 setdash 2 copy exch vpt sub exch vpt Square fill Bsquare} bind def
/S3 {BL [] 0 setdash 2 copy exch vpt sub exch vpt2 vpt Rec fill Bsquare} bind def
/S4 {BL [] 0 setdash 2 copy exch vpt sub exch vpt sub vpt Square fill Bsquare} bind def
/S5 {BL [] 0 setdash 2 copy 2 copy vpt Square fill
	exch vpt sub exch vpt sub vpt Square fill Bsquare} bind def
/S6 {BL [] 0 setdash 2 copy exch vpt sub exch vpt sub vpt vpt2 Rec fill Bsquare} bind def
/S7 {BL [] 0 setdash 2 copy exch vpt sub exch vpt sub vpt vpt2 Rec fill
	2 copy vpt Square fill Bsquare} bind def
/S8 {BL [] 0 setdash 2 copy vpt sub vpt Square fill Bsquare} bind def
/S9 {BL [] 0 setdash 2 copy vpt sub vpt vpt2 Rec fill Bsquare} bind def
/S10 {BL [] 0 setdash 2 copy vpt sub vpt Square fill 2 copy exch vpt sub exch vpt Square fill
	Bsquare} bind def
/S11 {BL [] 0 setdash 2 copy vpt sub vpt Square fill 2 copy exch vpt sub exch vpt2 vpt Rec fill
	Bsquare} bind def
/S12 {BL [] 0 setdash 2 copy exch vpt sub exch vpt sub vpt2 vpt Rec fill Bsquare} bind def
/S13 {BL [] 0 setdash 2 copy exch vpt sub exch vpt sub vpt2 vpt Rec fill
	2 copy vpt Square fill Bsquare} bind def
/S14 {BL [] 0 setdash 2 copy exch vpt sub exch vpt sub vpt2 vpt Rec fill
	2 copy exch vpt sub exch vpt Square fill Bsquare} bind def
/S15 {BL [] 0 setdash 2 copy Bsquare fill Bsquare} bind def
/D0 {gsave translate 45 rotate 0 0 S0 stroke grestore} bind def
/D1 {gsave translate 45 rotate 0 0 S1 stroke grestore} bind def
/D2 {gsave translate 45 rotate 0 0 S2 stroke grestore} bind def
/D3 {gsave translate 45 rotate 0 0 S3 stroke grestore} bind def
/D4 {gsave translate 45 rotate 0 0 S4 stroke grestore} bind def
/D5 {gsave translate 45 rotate 0 0 S5 stroke grestore} bind def
/D6 {gsave translate 45 rotate 0 0 S6 stroke grestore} bind def
/D7 {gsave translate 45 rotate 0 0 S7 stroke grestore} bind def
/D8 {gsave translate 45 rotate 0 0 S8 stroke grestore} bind def
/D9 {gsave translate 45 rotate 0 0 S9 stroke grestore} bind def
/D10 {gsave translate 45 rotate 0 0 S10 stroke grestore} bind def
/D11 {gsave translate 45 rotate 0 0 S11 stroke grestore} bind def
/D12 {gsave translate 45 rotate 0 0 S12 stroke grestore} bind def
/D13 {gsave translate 45 rotate 0 0 S13 stroke grestore} bind def
/D14 {gsave translate 45 rotate 0 0 S14 stroke grestore} bind def
/D15 {gsave translate 45 rotate 0 0 S15 stroke grestore} bind def
/DiaE {stroke [] 0 setdash vpt add M
  hpt neg vpt neg V hpt vpt neg V
  hpt vpt V hpt neg vpt V closepath stroke} def
/BoxE {stroke [] 0 setdash exch hpt sub exch vpt add M
  0 vpt2 neg V hpt2 0 V 0 vpt2 V
  hpt2 neg 0 V closepath stroke} def
/TriUE {stroke [] 0 setdash vpt 1.12 mul add M
  hpt neg vpt -1.62 mul V
  hpt 2 mul 0 V
  hpt neg vpt 1.62 mul V closepath stroke} def
/TriDE {stroke [] 0 setdash vpt 1.12 mul sub M
  hpt neg vpt 1.62 mul V
  hpt 2 mul 0 V
  hpt neg vpt -1.62 mul V closepath stroke} def
/PentE {stroke [] 0 setdash gsave
  translate 0 hpt M 4 {72 rotate 0 hpt L} repeat
  closepath stroke grestore} def
/CircE {stroke [] 0 setdash 
  hpt 0 360 arc stroke} def
/Opaque {gsave closepath 1 setgray fill grestore 0 setgray closepath} def
/DiaW {stroke [] 0 setdash vpt add M
  hpt neg vpt neg V hpt vpt neg V
  hpt vpt V hpt neg vpt V Opaque stroke} def
/BoxW {stroke [] 0 setdash exch hpt sub exch vpt add M
  0 vpt2 neg V hpt2 0 V 0 vpt2 V
  hpt2 neg 0 V Opaque stroke} def
/TriUW {stroke [] 0 setdash vpt 1.12 mul add M
  hpt neg vpt -1.62 mul V
  hpt 2 mul 0 V
  hpt neg vpt 1.62 mul V Opaque stroke} def
/TriDW {stroke [] 0 setdash vpt 1.12 mul sub M
  hpt neg vpt 1.62 mul V
  hpt 2 mul 0 V
  hpt neg vpt -1.62 mul V Opaque stroke} def
/PentW {stroke [] 0 setdash gsave
  translate 0 hpt M 4 {72 rotate 0 hpt L} repeat
  Opaque stroke grestore} def
/CircW {stroke [] 0 setdash 
  hpt 0 360 arc Opaque stroke} def
/BoxFill {gsave Rec 1 setgray fill grestore} def
/Density {
  /Fillden exch def
  currentrgbcolor
  /ColB exch def /ColG exch def /ColR exch def
  /ColR ColR Fillden mul Fillden sub 1 add def
  /ColG ColG Fillden mul Fillden sub 1 add def
  /ColB ColB Fillden mul Fillden sub 1 add def
  ColR ColG ColB setrgbcolor} def
/BoxColFill {gsave Rec PolyFill} def
/PolyFill {gsave Density fill grestore grestore} def
/h {rlineto rlineto rlineto gsave closepath fill grestore} bind def
%
% PostScript Level 1 Pattern Fill routine for rectangles
% Usage: x y w h s a XX PatternFill
%	x,y = lower left corner of box to be filled
%	w,h = width and height of box
%	  a = angle in degrees between lines and x-axis
%	 XX = 0/1 for no/yes cross-hatch
%
/PatternFill {gsave /PFa [ 9 2 roll ] def
  PFa 0 get PFa 2 get 2 div add PFa 1 get PFa 3 get 2 div add translate
  PFa 2 get -2 div PFa 3 get -2 div PFa 2 get PFa 3 get Rec
  TransparentPatterns {} {gsave 1 setgray fill grestore} ifelse
  clip
  currentlinewidth 0.5 mul setlinewidth
  /PFs PFa 2 get dup mul PFa 3 get dup mul add sqrt def
  0 0 M PFa 5 get rotate PFs -2 div dup translate
  0 1 PFs PFa 4 get div 1 add floor cvi
	{PFa 4 get mul 0 M 0 PFs V} for
  0 PFa 6 get ne {
	0 1 PFs PFa 4 get div 1 add floor cvi
	{PFa 4 get mul 0 2 1 roll M PFs 0 V} for
 } if
  stroke grestore} def
%
/languagelevel where
 {pop languagelevel} {1} ifelse
dup 2 lt
	{/InterpretLevel1 true def
	 /InterpretLevel3 false def}
	{/InterpretLevel1 Level1 def
	 2 gt
	    {/InterpretLevel3 Level3 def}
	    {/InterpretLevel3 false def}
	 ifelse }
 ifelse
%
% PostScript level 2 pattern fill definitions
%
/Level2PatternFill {
/Tile8x8 {/PaintType 2 /PatternType 1 /TilingType 1 /BBox [0 0 8 8] /XStep 8 /YStep 8}
	bind def
/KeepColor {currentrgbcolor [/Pattern /DeviceRGB] setcolorspace} bind def
<< Tile8x8
 /PaintProc {0.5 setlinewidth pop 0 0 M 8 8 L 0 8 M 8 0 L stroke} 
>> matrix makepattern
/Pat1 exch def
<< Tile8x8
 /PaintProc {0.5 setlinewidth pop 0 0 M 8 8 L 0 8 M 8 0 L stroke
	0 4 M 4 8 L 8 4 L 4 0 L 0 4 L stroke}
>> matrix makepattern
/Pat2 exch def
<< Tile8x8
 /PaintProc {0.5 setlinewidth pop 0 0 M 0 8 L
	8 8 L 8 0 L 0 0 L fill}
>> matrix makepattern
/Pat3 exch def
<< Tile8x8
 /PaintProc {0.5 setlinewidth pop -4 8 M 8 -4 L
	0 12 M 12 0 L stroke}
>> matrix makepattern
/Pat4 exch def
<< Tile8x8
 /PaintProc {0.5 setlinewidth pop -4 0 M 8 12 L
	0 -4 M 12 8 L stroke}
>> matrix makepattern
/Pat5 exch def
<< Tile8x8
 /PaintProc {0.5 setlinewidth pop -2 8 M 4 -4 L
	0 12 M 8 -4 L 4 12 M 10 0 L stroke}
>> matrix makepattern
/Pat6 exch def
<< Tile8x8
 /PaintProc {0.5 setlinewidth pop -2 0 M 4 12 L
	0 -4 M 8 12 L 4 -4 M 10 8 L stroke}
>> matrix makepattern
/Pat7 exch def
<< Tile8x8
 /PaintProc {0.5 setlinewidth pop 8 -2 M -4 4 L
	12 0 M -4 8 L 12 4 M 0 10 L stroke}
>> matrix makepattern
/Pat8 exch def
<< Tile8x8
 /PaintProc {0.5 setlinewidth pop 0 -2 M 12 4 L
	-4 0 M 12 8 L -4 4 M 8 10 L stroke}
>> matrix makepattern
/Pat9 exch def
/Pattern1 {PatternBgnd KeepColor Pat1 setpattern} bind def
/Pattern2 {PatternBgnd KeepColor Pat2 setpattern} bind def
/Pattern3 {PatternBgnd KeepColor Pat3 setpattern} bind def
/Pattern4 {PatternBgnd KeepColor Landscape {Pat5} {Pat4} ifelse setpattern} bind def
/Pattern5 {PatternBgnd KeepColor Landscape {Pat4} {Pat5} ifelse setpattern} bind def
/Pattern6 {PatternBgnd KeepColor Landscape {Pat9} {Pat6} ifelse setpattern} bind def
/Pattern7 {PatternBgnd KeepColor Landscape {Pat8} {Pat7} ifelse setpattern} bind def
} def
%
%
%End of PostScript Level 2 code
%
/PatternBgnd {
  TransparentPatterns {} {gsave 1 setgray fill grestore} ifelse
} def
%
% Substitute for Level 2 pattern fill codes with
% grayscale if Level 2 support is not selected.
%
/Level1PatternFill {
/Pattern1 {0.250 Density} bind def
/Pattern2 {0.500 Density} bind def
/Pattern3 {0.750 Density} bind def
/Pattern4 {0.125 Density} bind def
/Pattern5 {0.375 Density} bind def
/Pattern6 {0.625 Density} bind def
/Pattern7 {0.875 Density} bind def
} def
%
% Now test for support of Level 2 code
%
Level1 {Level1PatternFill} {Level2PatternFill} ifelse
%
/Symbol-Oblique /Symbol findfont [1 0 .167 1 0 0] makefont
dup length dict begin {1 index /FID eq {pop pop} {def} ifelse} forall
currentdict end definefont pop
%
/Metrics {ExtendTextBox Gswidth} def
/Lwidth {currentpoint stroke M 0 vshift R Metrics} def
/Rwidth {currentpoint stroke M dup stringwidth pop neg vshift R Metrics} def
/Cwidth {currentpoint stroke M dup stringwidth pop -2 div vshift R Metrics} def
/GLwidth {currentpoint stroke M 0 vshift R {ExtendTextBox} forall} def
/GRwidth {currentpoint stroke M dup Gwidth vshift R {ExtendTextBox} forall} def
/GCwidth {currentpoint stroke M dup Gwidth 2 div vshift R {ExtendTextBox} forall} def
/GLwidth2 {0 Gwidth AddGlyphWidth} def
/GRwidth2 {Gwidth -1 mul 0 AddGlyphWidth} def
/GCwidth2 {Gwidth 2 div dup -1 mul AddGlyphWidth} def
/AddGlyphWidth { dup TBx2 gt {userdict /TBx2 3 -1 roll put} {pop} ifelse
                 dup TBx1 lt {userdict /TBx1 3 -1 roll put} {pop} ifelse } def
/MFshow {
   { dup 5 get 3 ge
     { 5 get 3 eq {gsave} {grestore} ifelse }
     {dup dup 0 get findfont exch 1 get scalefont setfont
     [ currentpoint ] exch dup 2 get 0 exch R dup 5 get 2 ne {dup dup 6
     get exch 4 get {textshow} {Metrics pop 0 R} ifelse }if dup 5 get 0 eq
     {dup 3 get {2 get neg 0 exch R pop} {pop aload pop M} ifelse} {dup 5
     get 1 eq {dup 2 get exch dup 3 get exch 6 get Gswidth pop -2 div
     dup 0 R} {dup 6 get Gswidth pop -2 div 0 R 6 get
     textshow 2 index {aload pop M neg 3 -1 roll neg R pop pop} {pop pop pop
     pop aload pop M} ifelse }ifelse }ifelse }
     ifelse }
   forall} def
/Gswidth {dup type /stringtype eq {stringwidth} {pop (n) stringwidth} ifelse} def
/MFwidth {0 exch { dup 5 get 3 ge { 5 get 3 eq { 0 } { pop } ifelse }
 {dup 3 get{dup dup 0 get findfont exch 1 get scalefont setfont
     6 get Gswidth pop add} {pop} ifelse} ifelse} forall} def
/MLshow { currentpoint stroke M
  0 exch R
  Blacktext {gsave 0 setgray MFshow grestore} {MFshow} ifelse } bind def
/MRshow { currentpoint stroke M
  exch dup MFwidth neg 3 -1 roll R
  Blacktext {gsave 0 setgray MFshow grestore} {MFshow} ifelse } bind def
/MCshow { currentpoint stroke M
  exch dup MFwidth -2 div 3 -1 roll R
  Blacktext {gsave 0 setgray MFshow grestore} {MFshow} ifelse } bind def
/XYsave    { [( ) 1 2 true false 3 ()] } bind def
/XYrestore { [( ) 1 2 true false 4 ()] } bind def
Level1 SuppressPDFMark or 
{} {
/SDict 10 dict def
systemdict /pdfmark known not {
  userdict /pdfmark systemdict /cleartomark get put
} if
SDict begin [
  /Title (plot_emitty_b_0.1.eps)
  /Subject (gnuplot plot)
  /Creator (gnuplot 5.2 patchlevel 2)
%  /Producer (gnuplot)
%  /Keywords ()
  /CreationDate (Wed Jun 17 22:17:23 2020)
  /DOCINFO pdfmark
end
} ifelse
%
% Support for boxed text - Ethan A Merritt Sep 2016
%
/InitTextBox { userdict /TBy2 3 -1 roll put userdict /TBx2 3 -1 roll put
           userdict /TBy1 3 -1 roll put userdict /TBx1 3 -1 roll put
	   /Boxing true def } def
/ExtendTextBox { dup type /stringtype eq
    { Boxing { gsave dup false charpath pathbbox
      dup TBy2 gt {userdict /TBy2 3 -1 roll put} {pop} ifelse
      dup TBx2 gt {userdict /TBx2 3 -1 roll put} {pop} ifelse
      dup TBy1 lt {userdict /TBy1 3 -1 roll put} {pop} ifelse
      dup TBx1 lt {userdict /TBx1 3 -1 roll put} {pop} ifelse
      grestore } if }
    {} ifelse} def
/PopTextBox { newpath TBx1 TBxmargin sub TBy1 TBymargin sub M
               TBx1 TBxmargin sub TBy2 TBymargin add L
	       TBx2 TBxmargin add TBy2 TBymargin add L
	       TBx2 TBxmargin add TBy1 TBymargin sub L closepath } def
/DrawTextBox { PopTextBox stroke /Boxing false def} def
/FillTextBox { gsave PopTextBox fill grestore /Boxing false def} def
0 0 0 0 InitTextBox
/TBxmargin 20 def
/TBymargin 20 def
/Boxing false def
/textshow { ExtendTextBox Gshow } def
%
end
%%EndProlog
%%Page: 1 1
gnudict begin
gsave
doclip
50 50 translate
0.050 0.050 scale
0 setgray
newpath
(Helvetica) findfont 180 scalefont setfont
BackgroundColor 0 lt 3 1 roll 0 lt exch 0 lt or or not {BackgroundColor C 1.000 0 0 7200.00 5040.00 BoxColFill} if
1.000 UL
LTb
LCb setrgbcolor
1098 576 M
63 0 V
5714 0 R
-63 0 V
stroke
990 576 M
[ [(Helvetica) 180.0 0.0 true true 0 ( 0.16)]
] -60.0 MRshow
1.000 UL
LTb
LCb setrgbcolor
1098 1004 M
63 0 V
5714 0 R
-63 0 V
stroke
990 1004 M
[ [(Helvetica) 180.0 0.0 true true 0 ( 0.165)]
] -60.0 MRshow
1.000 UL
LTb
LCb setrgbcolor
1098 1433 M
63 0 V
5714 0 R
-63 0 V
stroke
990 1433 M
[ [(Helvetica) 180.0 0.0 true true 0 ( 0.17)]
] -60.0 MRshow
1.000 UL
LTb
LCb setrgbcolor
1098 1861 M
63 0 V
5714 0 R
-63 0 V
stroke
990 1861 M
[ [(Helvetica) 180.0 0.0 true true 0 ( 0.175)]
] -60.0 MRshow
1.000 UL
LTb
LCb setrgbcolor
1098 2289 M
63 0 V
5714 0 R
-63 0 V
stroke
990 2289 M
[ [(Helvetica) 180.0 0.0 true true 0 ( 0.18)]
] -60.0 MRshow
1.000 UL
LTb
LCb setrgbcolor
1098 2718 M
63 0 V
5714 0 R
-63 0 V
stroke
990 2718 M
[ [(Helvetica) 180.0 0.0 true true 0 ( 0.185)]
] -60.0 MRshow
1.000 UL
LTb
LCb setrgbcolor
1098 3146 M
63 0 V
5714 0 R
-63 0 V
stroke
990 3146 M
[ [(Helvetica) 180.0 0.0 true true 0 ( 0.19)]
] -60.0 MRshow
1.000 UL
LTb
LCb setrgbcolor
1098 3574 M
63 0 V
5714 0 R
-63 0 V
stroke
990 3574 M
[ [(Helvetica) 180.0 0.0 true true 0 ( 0.195)]
] -60.0 MRshow
1.000 UL
LTb
LCb setrgbcolor
1098 4002 M
63 0 V
5714 0 R
-63 0 V
stroke
990 4002 M
[ [(Helvetica) 180.0 0.0 true true 0 ( 0.2)]
] -60.0 MRshow
1.000 UL
LTb
LCb setrgbcolor
1098 4431 M
63 0 V
5714 0 R
-63 0 V
stroke
990 4431 M
[ [(Helvetica) 180.0 0.0 true true 0 ( 0.205)]
] -60.0 MRshow
1.000 UL
LTb
LCb setrgbcolor
1098 4859 M
63 0 V
5714 0 R
-63 0 V
stroke
990 4859 M
[ [(Helvetica) 180.0 0.0 true true 0 ( 0.21)]
] -60.0 MRshow
1.000 UL
LTb
LCb setrgbcolor
1098 576 M
0 63 V
0 4220 R
0 -63 V
stroke
1098 396 M
[ [(Helvetica) 180.0 0.0 true true 0 ( 0)]
] -60.0 MCshow
1.000 UL
LTb
LCb setrgbcolor
2253 576 M
0 63 V
0 4220 R
0 -63 V
stroke
2253 396 M
[ [(Helvetica) 180.0 0.0 true true 0 ( 50)]
] -60.0 MCshow
1.000 UL
LTb
LCb setrgbcolor
3409 576 M
0 63 V
0 4220 R
0 -63 V
stroke
3409 396 M
[ [(Helvetica) 180.0 0.0 true true 0 ( 100)]
] -60.0 MCshow
1.000 UL
LTb
LCb setrgbcolor
4564 576 M
0 63 V
0 4220 R
0 -63 V
stroke
4564 396 M
[ [(Helvetica) 180.0 0.0 true true 0 ( 150)]
] -60.0 MCshow
1.000 UL
LTb
LCb setrgbcolor
5720 576 M
0 63 V
0 4220 R
0 -63 V
stroke
5720 396 M
[ [(Helvetica) 180.0 0.0 true true 0 ( 200)]
] -60.0 MCshow
1.000 UL
LTb
LCb setrgbcolor
6875 576 M
0 63 V
0 4220 R
0 -63 V
stroke
6875 396 M
[ [(Helvetica) 180.0 0.0 true true 0 ( 250)]
] -60.0 MCshow
1.000 UL
LTb
LCb setrgbcolor
1.000 UL
LTB
LCb setrgbcolor
1098 4859 N
0 -4283 V
5777 0 V
0 4283 V
-5777 0 V
Z stroke
1.000 UP
1.000 UL
LTb
LCb setrgbcolor
LCb setrgbcolor
162 2717 M
currentpoint gsave translate -270 rotate 0 0 moveto
[ [(Symbol) 180.0 0.0 true true 0 (e)]
[(Helvetica) 144.0 -54.0 true true 0 (y)]
[(Helvetica) 180.0 0.0 true true 0 ( [mm.mrad])]
] -42.0 MCshow
grestore
LTb
LCb setrgbcolor
3986 126 M
[ [(Helvetica) 180.0 0.0 true true 0 (s [m])]
] -60.0 MCshow
LTb
% Begin plot #1
1.000 UP
1.000 UL
LTb
0.58 0.00 0.83 C LCb setrgbcolor
6056 4706 M
[ [(Helvetica) 180.0 0.0 true true 0 (orbit correction)]
] -60.0 MRshow
1.000 UP
1.000 UL
LTb
0.58 0.00 0.83 C 6164 4706 M
495 0 V
1115 908 M
15 2476 V
9 -1786 V
16 -528 V
52 94 V
54 25 V
54 -244 V
54 53 V
53 721 V
54 699 V
77 -4 V
35 574 V
13 1713 V
6 -2190 V
228 278 V
29 102 V
30 316 V
18 -258 V
43 3 V
56 96 V
57 -178 V
56 79 V
57 56 V
56 -1 V
56 -64 V
57 30 V
56 5 V
26 -24 V
90 932 V
12 -622 V
222 841 V
9 -367 V
11 -465 V
74 767 V
9 -480 V
11 -414 V
193 297 V
14 812 V
9 -850 V
41 -74 V
68 30 V
56 39 V
57 -76 V
56 3 V
56 48 V
57 43 V
56 -44 V
57 399 V
12 -201 V
13 85 V
11 -55 V
168 293 V
24 385 V
27 -767 V
67 114 V
50 0 V
106 20 V
106 18 V
107 35 V
106 -10 V
106 12 V
107 -2 V
106 -27 V
106 8 V
106 20 V
107 -8 V
106 22 V
106 -47 V
107 1 V
106 33 V
106 -22 V
107 14 V
106 -23 V
106 42 V
106 -25 V
107 34 V
1 -12 V
1115 908 Pls
1130 3384 Pls
1139 1598 Pls
1155 1070 Pls
1207 1164 Pls
1261 1189 Pls
1315 945 Pls
1369 998 Pls
1422 1719 Pls
1476 2418 Pls
1553 2414 Pls
1588 2988 Pls
1601 4701 Pls
1607 2511 Pls
1835 2789 Pls
1864 2891 Pls
1894 3207 Pls
1912 2949 Pls
1955 2952 Pls
2011 3048 Pls
2068 2870 Pls
2124 2949 Pls
2181 3005 Pls
2237 3004 Pls
2293 2940 Pls
2350 2970 Pls
2406 2975 Pls
2432 2951 Pls
2522 3883 Pls
2534 3261 Pls
2756 4102 Pls
2765 3735 Pls
2776 3270 Pls
2850 4037 Pls
2859 3557 Pls
2870 3143 Pls
3063 3440 Pls
3077 4252 Pls
3086 3402 Pls
3127 3328 Pls
3195 3358 Pls
3251 3397 Pls
3308 3321 Pls
3364 3324 Pls
3420 3372 Pls
3477 3415 Pls
3533 3371 Pls
3590 3770 Pls
3602 3569 Pls
3615 3654 Pls
3626 3599 Pls
3794 3892 Pls
3818 4277 Pls
3845 3510 Pls
3912 3624 Pls
3962 3624 Pls
4068 3644 Pls
4174 3662 Pls
4281 3697 Pls
4387 3687 Pls
4493 3699 Pls
4600 3697 Pls
4706 3670 Pls
4812 3678 Pls
4918 3698 Pls
5025 3690 Pls
5131 3712 Pls
5237 3665 Pls
5344 3666 Pls
5450 3699 Pls
5556 3677 Pls
5663 3691 Pls
5769 3668 Pls
5875 3710 Pls
5981 3685 Pls
6088 3719 Pls
6089 3707 Pls
6411 4706 Pls
% End plot #1
% Begin plot #2
1.000 UP
1.000 UL
LTb
0.00 0.62 0.45 C LCb setrgbcolor
6056 4526 M
[ [(Helvetica) 180.0 0.0 true true 0 (dispersion-free correction)]
] -60.0 MRshow
1.000 UP
1.000 UL
LTb
0.00 0.62 0.45 C 6164 4526 M
495 0 V
1115 913 M
15 2520 V
9 -1840 V
16 -524 V
52 98 V
54 15 V
54 -258 V
54 29 V
53 582 V
54 618 V
77 -38 V
35 95 V
13 255 V
6 -288 V
228 -11 V
29 58 V
30 272 V
18 -250 V
43 24 V
56 35 V
57 -123 V
56 28 V
57 25 V
56 10 V
56 -85 V
57 51 V
56 7 V
26 -25 V
90 92 V
12 83 V
222 717 V
9 -513 V
11 -291 V
74 439 V
9 -264 V
11 -311 V
193 107 V
14 145 V
9 -48 V
41 -139 V
68 37 V
56 21 V
57 -59 V
56 1 V
56 34 V
57 -18 V
56 -7 V
57 78 V
12 34 V
13 -69 V
11 21 V
168 222 V
24 450 V
27 -945 V
67 -42 V
50 11 V
106 15 V
106 5 V
107 27 V
106 -19 V
106 22 V
107 -12 V
106 -2 V
106 -9 V
106 12 V
107 -38 V
106 32 V
106 -2 V
107 -13 V
106 27 V
106 -6 V
107 34 V
106 -18 V
106 3 V
106 -12 V
107 12 V
1 -2 V
1115 913 Crs
1130 3433 Crs
1139 1593 Crs
1155 1069 Crs
1207 1167 Crs
1261 1182 Crs
1315 924 Crs
1369 953 Crs
1422 1535 Crs
1476 2153 Crs
1553 2115 Crs
1588 2210 Crs
1601 2465 Crs
1607 2177 Crs
1835 2166 Crs
1864 2224 Crs
1894 2496 Crs
1912 2246 Crs
1955 2270 Crs
2011 2305 Crs
2068 2182 Crs
2124 2210 Crs
2181 2235 Crs
2237 2245 Crs
2293 2160 Crs
2350 2211 Crs
2406 2218 Crs
2432 2193 Crs
2522 2285 Crs
2534 2368 Crs
2756 3085 Crs
2765 2572 Crs
2776 2281 Crs
2850 2720 Crs
2859 2456 Crs
2870 2145 Crs
3063 2252 Crs
3077 2397 Crs
3086 2349 Crs
3127 2210 Crs
3195 2247 Crs
3251 2268 Crs
3308 2209 Crs
3364 2210 Crs
3420 2244 Crs
3477 2226 Crs
3533 2219 Crs
3590 2297 Crs
3602 2331 Crs
3615 2262 Crs
3626 2283 Crs
3794 2505 Crs
3818 2955 Crs
3845 2010 Crs
3912 1968 Crs
3962 1979 Crs
4068 1994 Crs
4174 1999 Crs
4281 2026 Crs
4387 2007 Crs
4493 2029 Crs
4600 2017 Crs
4706 2015 Crs
4812 2006 Crs
4918 2018 Crs
5025 1980 Crs
5131 2012 Crs
5237 2010 Crs
5344 1997 Crs
5450 2024 Crs
5556 2018 Crs
5663 2052 Crs
5769 2034 Crs
5875 2037 Crs
5981 2025 Crs
6088 2037 Crs
6089 2035 Crs
6411 4526 Crs
% End plot #2
% Begin plot #3
1.000 UP
1.000 UL
LTb
0.34 0.71 0.91 C LCb setrgbcolor
6056 4346 M
[ [(Helvetica) 180.0 0.0 true true 0 (wakefield-free correction)]
] -60.0 MRshow
1.000 UP
1.000 UL
LTb
0.34 0.71 0.91 C 6164 4346 M
495 0 V
1115 914 M
15 2524 V
9 -1843 V
16 -519 V
52 94 V
54 10 V
54 -256 V
54 25 V
53 432 V
54 413 V
77 -66 V
35 72 V
13 456 V
6 -481 V
228 -10 V
29 57 V
30 283 V
18 -286 V
43 15 V
56 34 V
57 -124 V
56 43 V
57 19 V
56 13 V
56 -36 V
57 28 V
56 -18 V
26 -22 V
90 70 V
12 40 V
222 774 V
9 -471 V
11 -356 V
74 582 V
9 -426 V
11 -281 V
193 122 V
14 119 V
9 -72 V
41 -109 V
68 27 V
56 29 V
57 -59 V
56 -1 V
56 39 V
57 5 V
56 -38 V
57 124 V
12 10 V
13 -62 V
11 6 V
168 307 V
24 418 V
27 -1056 V
67 24 V
50 5 V
106 3 V
106 20 V
107 10 V
106 -30 V
106 11 V
107 5 V
106 -25 V
106 -4 V
106 9 V
107 -36 V
106 32 V
106 -4 V
107 5 V
106 12 V
106 -1 V
107 20 V
106 -4 V
106 -7 V
106 -12 V
107 18 V
1 0 V
1115 914 Star
1130 3438 Star
1139 1595 Star
1155 1076 Star
1207 1170 Star
1261 1180 Star
1315 924 Star
1369 949 Star
1422 1381 Star
1476 1794 Star
1553 1728 Star
1588 1800 Star
1601 2256 Star
1607 1775 Star
1835 1765 Star
1864 1822 Star
1894 2105 Star
1912 1819 Star
1955 1834 Star
2011 1868 Star
2068 1744 Star
2124 1787 Star
2181 1806 Star
2237 1819 Star
2293 1783 Star
2350 1811 Star
2406 1793 Star
2432 1771 Star
2522 1841 Star
2534 1881 Star
2756 2655 Star
2765 2184 Star
2776 1828 Star
2850 2410 Star
2859 1984 Star
2870 1703 Star
3063 1825 Star
3077 1944 Star
3086 1872 Star
3127 1763 Star
3195 1790 Star
3251 1819 Star
3308 1760 Star
3364 1759 Star
3420 1798 Star
3477 1803 Star
3533 1765 Star
3590 1889 Star
3602 1899 Star
3615 1837 Star
3626 1843 Star
3794 2150 Star
3818 2568 Star
3845 1512 Star
3912 1536 Star
3962 1541 Star
4068 1544 Star
4174 1564 Star
4281 1574 Star
4387 1544 Star
4493 1555 Star
4600 1560 Star
4706 1535 Star
4812 1531 Star
4918 1540 Star
5025 1504 Star
5131 1536 Star
5237 1532 Star
5344 1537 Star
5450 1549 Star
5556 1548 Star
5663 1568 Star
5769 1564 Star
5875 1557 Star
5981 1545 Star
6088 1563 Star
6089 1563 Star
6411 4346 Star
% End plot #3
2.000 UL
LTb
LCb setrgbcolor
1.000 UL
LTB
LCb setrgbcolor
1098 4859 N
0 -4283 V
5777 0 V
0 4283 V
-5777 0 V
Z stroke
1.000 UP
1.000 UL
LTb
LCb setrgbcolor
stroke
grestore
end
showpage
%%Trailer
%%DocumentFonts: Symbol Helvetica
